<?xml version="1.0" encoding="utf-8"?>
<!-- Generator: Adobe Illustrator 19.0.0, SVG Export Plug-In . SVG Version: 6.00 Build 0)  -->
<svg version="1.1" id="Layer_1" xmlns="http://www.w3.org/2000/svg" xmlns:xlink="http://www.w3.org/1999/xlink" x="0px" y="0px"
	 viewBox="-474 476 50 50" style="enable-background:new -474 476 50 50;" xml:space="preserve">
<style type="text/css">
	.st0{fill:#939598;}
	.st1{clip-path:url(#SVGID_2_);fill:#939598;}
	.st2{clip-path:url(#SVGID_4_);fill:#38281F;}
	.st3{clip-path:url(#SVGID_6_);}
	.st4{fill:#B28766;}
	.st5{clip-path:url(#SVGID_8_);fill:#334D5C;}
	.st6{clip-path:url(#SVGID_10_);fill:#9E7254;}
	.st7{clip-path:url(#SVGID_12_);}
	.st8{clip-path:url(#SVGID_14_);fill:#ECA4A4;}
	.st9{clip-path:url(#SVGID_16_);}
	.st10{fill:#38281F;}
	.st11{clip-path:url(#SVGID_18_);}
	.st12{clip-path:url(#SVGID_20_);}
</style>
<path id="XMLID_1_" class="st0" d="M-428.3,477c1.8,0,3.3,1.5,3.3,3.3v41.4c0,1.8-1.5,3.3-3.3,3.3h-41.4c-1.8,0-3.3-1.5-3.3-3.3
	v-41.4c0-1.8,1.5-3.3,3.3-3.3H-428.3 M-428.3,476h-41.4c-2.4,0-4.3,1.9-4.3,4.3v41.4c0,2.4,1.9,4.3,4.3,4.3h41.4
	c2.4,0,4.3-1.9,4.3-4.3v-41.4C-424,477.9-425.9,476-428.3,476L-428.3,476z"/>
<g>
	<g>
		<g>
			<defs>
				<circle id="SVGID_1_" cx="-449" cy="501" r="23.4"/>
			</defs>
			<clipPath id="SVGID_2_">
				<use xlink:href="#SVGID_1_"  style="overflow:visible;"/>
			</clipPath>
			<path class="st1" d="M-425.6,501c0-12.9-10.5-23.4-23.4-23.4s-23.4,10.5-23.4,23.4c0,12.9,10.5,23.4,23.4,23.4
				S-425.6,513.9-425.6,501z"/>
		</g>
	</g>
	<g>
		<g>
			<defs>
				<circle id="SVGID_3_" cx="-449" cy="501" r="23.4"/>
			</defs>
			<clipPath id="SVGID_4_">
				<use xlink:href="#SVGID_3_"  style="overflow:visible;"/>
			</clipPath>
			<path class="st2" d="M-448.9,478.2c-2.7,0-4.8,1.2-4.8,4.6c0,1.4-0.8,6.1-1.2,9.1c0.2,0.2,0.5,0.3,0.7,0.5l10.7,0
				c0.2-0.2,0.5-0.3,0.7-0.5c-0.3-3-1.3-7.7-1.3-9.1C-444.1,479.5-446.2,478.2-448.9,478.2z"/>
		</g>
	</g>
	<g>
		<g>
			<defs>
				<circle id="SVGID_5_" cx="-449" cy="501" r="23.4"/>
			</defs>
			<clipPath id="SVGID_6_">
				<use xlink:href="#SVGID_5_"  style="overflow:visible;"/>
			</clipPath>
			<g class="st3">
				<path class="st4" d="M-443.1,512.6l-1.2-5.7l0.3-5.8l-2.5-9h-5.2c0,0-2.3,8.9-2.3,9c0,0,0.8,3,0.5,6c-0.2,2.5-1,5-1.1,5.8
					C-454.5,513.1-444.4,514-443.1,512.6z"/>
				<path class="st4" d="M-472.5,486.7c0,0,1.2,0.9,1.9,1.2c0,0,3.8,2.1,6.9,4.6c0,0,8.7-1,11.7-0.3l-2,3.9c0,0-7.9,0-9.6-0.5
					l-4.8-3.5l-4.5-4L-472.5,486.7z"/>
				<path class="st4" d="M-474,489c0,0-0.5,0-0.8,0.1c-0.1,0.1-0.5,0.1-0.8,0c-0.3,0-0.6,0-0.7-0.1c-0.2-0.3,0.2-0.5,0.3-0.6
					c0.4-0.2,0.9-0.2,0.9-0.2l0.6-0.2L-474,489z"/>
				<path class="st4" d="M-475.8,487.2c0.2,0,0.2,0.5,0.2,0.7l0,0c0,0.2-0.1,0.3-0.1,0.3l-1,0.2c0,0-1.2,0.5-1.3,0.2
					c-0.1-0.2,0.1-0.3,0.3-0.4l0.8-0.5L-475.8,487.2z"/>
				<path class="st4" d="M-471.6,488.1c-0.1,0.1-2.1,1-2.5,1l-0.7-0.8l-0.5-0.1c-0.2,0-0.6,0-0.6,0l-0.2-0.9
					c0.2-0.1,0.3-0.2,0.6-0.2c0.3,0,1.9-0.2,3-0.3C-472.4,486.7-471.5,487.9-471.6,488.1z"/>
				<path class="st4" d="M-442,517.9l-1.2-5.9l-11.3,0.4l-0.8,5.2c0,0-0.8,9.4-1.3,15c-0.2,2.2-0.8,5.7-1.1,8.3
					c1.6,0.4,3.2,0.7,4.8,0.8l0.9-8.7l3-13.7l0.2-1l0.7,0l0.2,0.9l4.1,13.7l1.3,8.4c1.6-0.3,3.1-0.7,4.6-1.2l-1.9-7.6L-442,517.9z"
					/>
			</g>
		</g>
	</g>
	<g>
		<g>
			<defs>
				<circle id="SVGID_7_" cx="-449" cy="501" r="23.4"/>
			</defs>
			<clipPath id="SVGID_8_">
				<use xlink:href="#SVGID_7_"  style="overflow:visible;"/>
			</clipPath>
			<polygon class="st5" points="-443.2,512 -454.5,512.5 -455.5,517.7 -455.7,521.5 -449.6,522.4 -448.9,518.3 -448.2,518.4 
				-447.2,522.3 -441.2,521.5 -442.1,516.6 			"/>
		</g>
	</g>
	<g>
		<g>
			<defs>
				<circle id="SVGID_9_" cx="-449" cy="501" r="23.4"/>
			</defs>
			<clipPath id="SVGID_10_">
				<use xlink:href="#SVGID_9_"  style="overflow:visible;"/>
			</clipPath>
			<path class="st6" d="M-449.3,508.6c0,0.3,0.1,0.5,0.3,0.5c0.2,0,0.3-0.2,0.3-0.5s-0.1-0.5-0.3-0.5
				C-449.1,508.2-449.2,508.4-449.3,508.6z"/>
		</g>
	</g>
	<g>
		<g>
			<defs>
				<circle id="SVGID_11_" cx="-449" cy="501" r="23.4"/>
			</defs>
			<clipPath id="SVGID_12_">
				<use xlink:href="#SVGID_11_"  style="overflow:visible;"/>
			</clipPath>
			<g class="st7">
				<path class="st4" d="M-449.1,508.6c0,0.1,0.1,0.2,0.2,0.2s0.2-0.1,0.2-0.2c0-0.1-0.1-0.2-0.2-0.2
					C-449,508.4-449.1,508.5-449.1,508.6z"/>
				<path class="st4" d="M-423.3,492.9c0,0-7.9,3-10.5,4.7c0,0-9.4-6.2-12.4-5.5l2.3,4.5c0,0,8.5,4.3,10.2,3.9c0,0,6.4-2.9,10.9-6.1
					L-423.3,492.9z"/>
				<path class="st4" d="M-421.1,492.6c0,0,0.2-0.5,0.4-0.7c0.1-0.1,0.2-0.4,0.3-0.7c0.1-0.3,0.3-0.6,0.2-0.7c-0.2-0.3-0.6,0-0.6,0
					c-0.3,0.3-0.6,0.8-0.6,0.8l-0.4,0.4L-421.1,492.6z"/>
				<path class="st4" d="M-422.2,490.3c-0.1,0.1,0.4,0.4,0.6,0.5l0,0c0.2,0.1,0.3,0,0.3,0l0.6-0.8c0,0,0.9-1,0.7-1.1
					c-0.2-0.2-0.3,0-0.5,0.2l-0.7,0.6L-422.2,490.3z"/>
				<path class="st4" d="M-422.9,494.5c0.2-0.1,1.7-1.6,1.9-2l-0.5-0.9l0.1-0.5c0.1-0.2,0.2-0.5,0.2-0.5l-0.8-0.5
					c-0.2,0.1-0.3,0.2-0.4,0.5c-0.2,0.3-0.9,1.7-1.4,2.6C-423.8,493.2-423.1,494.5-422.9,494.5z"/>
			</g>
		</g>
	</g>
	<g>
		<g>
			<defs>
				<circle id="SVGID_13_" cx="-449" cy="501" r="23.4"/>
			</defs>
			<clipPath id="SVGID_14_">
				<use xlink:href="#SVGID_13_"  style="overflow:visible;"/>
			</clipPath>
			<path class="st8" d="M-442.6,498.4c-0.3-1.3-2.8-5.6-3.1-6.1c-0.1-0.1-0.9-0.1-0.9-0.1s1.4,4.9-1.9,5.9l-0.4,0l0,0l-0.3,0
				c-3-1-2.1-5.9-2.1-5.9s-0.8,0-0.9,0.1c-0.3,0.5-2.9,4.8-3.1,6.1c-0.5,2.5,1.4,3.6,1.4,3.6c2.2-0.1,4-1.2,4-1.2l1.2-0.1l0.8,0.1
				c0,0,1.8,1.1,4,1.2C-443.9,502-442,500.8-442.6,498.4z"/>
		</g>
	</g>
	<g>
		<g>
			<defs>
				<circle id="SVGID_15_" cx="-449" cy="501" r="23.4"/>
			</defs>
			<clipPath id="SVGID_16_">
				<use xlink:href="#SVGID_15_"  style="overflow:visible;"/>
			</clipPath>
			<g class="st9">
				
					<ellipse transform="matrix(0.4013 -0.9159 0.9159 0.4013 -714.3766 -125.8226)" class="st10" cx="-453.4" cy="483.6" rx="1.8" ry="1.1"/>
				<path class="st10" d="M-451.8,479.8c0.6,0.3,0.7,1.2,0.3,2.1s-1.2,1.5-1.8,1.2s-0.7-1.2-0.3-2.1S-452.4,479.5-451.8,479.8z"/>
				
					<ellipse transform="matrix(0.2379 -0.9713 0.9713 0.2379 -821.1217 -68.9324)" class="st10" cx="-454.5" cy="488.8" rx="1.8" ry="1.2"/>
				
					<ellipse transform="matrix(0.2379 -0.9713 0.9713 0.2379 -823.2404 -67.3563)" class="st10" cx="-454.5" cy="490.9" rx="1.8" ry="1.2"/>
				<path class="st10" d="M-454.2,490.5c0.7-0.7,1.7-0.7,2.3-0.1c0.6,0.6,0.5,1.6-0.2,2.3c-0.7,0.7-1.7,0.7-2.3,0.1
					C-455,492.2-454.9,491.1-454.2,490.5z"/>
				
					<ellipse transform="matrix(-0.6953 -0.7187 0.7187 -0.6953 -1106.8645 513.8344)" class="st10" cx="-444.5" cy="491.5" rx="1.5" ry="1.8"/>
				
					<ellipse transform="matrix(0.2379 -0.9713 0.9713 0.2379 -818.566 -70.0794)" class="st10" cx="-453.9" cy="486.6" rx="1.8" ry="1.2"/>
				
					<ellipse transform="matrix(0.1074 0.9942 -0.9942 0.1074 87.7215 875.3922)" class="st10" cx="-443.7" cy="486.6" rx="1.8" ry="1.1"/>
				
					<ellipse transform="matrix(0.1074 0.9942 -0.9942 0.1074 90.1896 877.1654)" class="st10" cx="-443.4" cy="488.8" rx="1.8" ry="1.1"/>
				
					<ellipse transform="matrix(0.1074 0.9942 -0.9942 0.1074 92.5363 879.1774)" class="st10" cx="-443.4" cy="491.1" rx="1.8" ry="1.1"/>
				
					<ellipse transform="matrix(0.3994 0.9168 -0.9168 0.3994 173.8728 697.751)" class="st10" cx="-445.6" cy="481.6" rx="1.8" ry="1.2"/>
				
					<ellipse transform="matrix(0.2768 0.9609 -0.9609 0.2768 143.1331 777.2106)" class="st10" cx="-444.8" cy="483.7" rx="1.8" ry="1.1"/>
			</g>
		</g>
	</g>
	<g>
		<g>
			<defs>
				<circle id="SVGID_17_" cx="-449" cy="501" r="23.4"/>
			</defs>
			<clipPath id="SVGID_18_">
				<use xlink:href="#SVGID_17_"  style="overflow:visible;"/>
			</clipPath>
			<g class="st11">
				<polygon class="st4" points="-446.8,492.7 -450.9,492.7 -450.3,489.7 -447.4,489.7 				"/>
				<path class="st4" d="M-445,484.2c0,1.3-0.3,3.3-0.9,4.2c-0.5,0.8-1.8,2.1-3,2.1s-2.5-1.5-2.9-2.1c-0.6-0.9-0.9-3-0.9-4.3
					c0-2.8,1.7-3.9,3.9-3.9C-446.7,480.3-445,481.4-445,484.2z"/>
			</g>
		</g>
	</g>
	<g>
		<g>
			<defs>
				<circle id="SVGID_19_" cx="-449" cy="501" r="23.4"/>
			</defs>
			<clipPath id="SVGID_20_">
				<use xlink:href="#SVGID_19_"  style="overflow:visible;"/>
			</clipPath>
			<g class="st12">
				<path class="st10" d="M-448.9,495.3C-448.8,495.3-448.8,495.3-448.9,495.3C-448.8,495.3-448.9,495.3-448.9,495.3L-448.9,495.3z"
					/>
				<ellipse class="st10" cx="-445.3" cy="486.1" rx="0.3" ry="0.8"/>
				<ellipse class="st10" cx="-452.5" cy="486.1" rx="0.3" ry="0.8"/>
				
					<ellipse transform="matrix(0.9881 -0.1539 0.1539 0.9881 -79.2625 -63.5668)" class="st10" cx="-450.2" cy="480.2" rx="1.8" ry="1.2"/>
				
					<ellipse transform="matrix(0.9367 -0.3501 0.3501 0.9367 -197.1887 -127.572)" class="st10" cx="-451.4" cy="481.6" rx="1.6" ry="1"/>
				
					<ellipse transform="matrix(0.5589 -0.8292 0.8292 0.5589 -602.1957 -161.6804)" class="st10" cx="-453.1" cy="485.2" rx="1.6" ry="1"/>
				
					<ellipse transform="matrix(0.5589 -0.8292 0.8292 0.5589 -599.9602 -161.9912)" class="st10" cx="-452.2" cy="483" rx="1.6" ry="1"/>
				
					<ellipse transform="matrix(-0.9367 -0.3501 0.3501 -0.9367 -1032.2167 776.579)" class="st10" cx="-445.9" cy="481.6" rx="1.6" ry="1"/>
				
					<ellipse transform="matrix(-0.5589 -0.8292 0.8292 -0.5589 -1095.4858 387.1871)" class="st10" cx="-444.8" cy="485" rx="1.6" ry="1"/>
				
					<ellipse transform="matrix(-0.5589 -0.8293 0.8293 -0.5589 -1095.0494 383.7338)" class="st10" cx="-445.5" cy="483.1" rx="1.6" ry="1"/>
				
					<ellipse transform="matrix(0.9885 0.1512 -0.1512 0.9885 67.4564 73.2506)" class="st10" cx="-447.9" cy="480.2" rx="1.8" ry="1.1"/>
			</g>
		</g>
	</g>
</g>
</svg>
