<?xml version="1.0" encoding="utf-8"?>
<!-- Generator: Adobe Illustrator 19.0.0, SVG Export Plug-In . SVG Version: 6.00 Build 0)  -->
<svg version="1.1" id="Isolation_Mode" xmlns="http://www.w3.org/2000/svg" xmlns:xlink="http://www.w3.org/1999/xlink" x="0px"
	 y="0px" viewBox="0 0 76.6 71.6" style="enable-background:new 0 0 76.6 71.6;" xml:space="preserve">
<style type="text/css">
	.st0{fill:#FCC29C;}
	.st1{opacity:0.17;}
	.st2{clip-path:url(#XMLID_80_);}
	.st3{fill:#211111;}
	.st4{opacity:0.2;}
	.st5{clip-path:url(#XMLID_81_);}
	.st6{fill:#E14F4D;}
	.st7{fill:#FCC29B;}
	.st8{clip-path:url(#XMLID_82_);}
	.st9{fill:#F59596;}
	.st10{fill:#D18080;}
	.st11{fill:#501F14;}
	.st12{fill:#251F54;}
	.st13{fill:#FFFFFF;}
	.st14{clip-path:url(#XMLID_83_);}
	.st15{fill:#DAD9D8;}
	.st16{fill:#35261C;}
	.st17{fill:#221812;}
	.st18{clip-path:url(#XMLID_84_);}
	.st19{clip-path:url(#XMLID_85_);}
	.st20{clip-path:url(#XMLID_86_);fill:#FFFFFF;}
	.st21{clip-path:url(#XMLID_86_);fill:#FAF9F8;}
	.st22{clip-path:url(#XMLID_86_);fill:#F6F4F3;}
	.st23{clip-path:url(#XMLID_86_);fill:#F2EFEF;}
	.st24{clip-path:url(#XMLID_86_);fill:#EFECEB;}
	.st25{clip-path:url(#XMLID_86_);fill:#ECE8E7;}
	.st26{clip-path:url(#XMLID_86_);fill:#EAE5E4;}
	.st27{clip-path:url(#XMLID_86_);fill:#E7E2E1;}
	.st28{clip-path:url(#XMLID_86_);fill:#E5DFDE;}
	.st29{clip-path:url(#XMLID_86_);fill:#E2DCDB;}
	.st30{clip-path:url(#XMLID_86_);fill:#E0DAD8;}
	.st31{clip-path:url(#XMLID_86_);fill:#DDD7D5;}
	.st32{clip-path:url(#XMLID_86_);fill:#DBD4D2;}
	.st33{clip-path:url(#XMLID_86_);fill:#D9D2D0;}
	.st34{clip-path:url(#XMLID_86_);fill:#D7CFCD;}
	.st35{clip-path:url(#XMLID_86_);fill:#D4CCCA;}
	.st36{clip-path:url(#XMLID_86_);fill:#D2C9C8;}
	.st37{clip-path:url(#XMLID_86_);fill:#D0C7C5;}
	.st38{clip-path:url(#XMLID_86_);fill:#CEC4C2;}
	.st39{clip-path:url(#XMLID_86_);fill:#CCC2C0;}
	.st40{clip-path:url(#XMLID_86_);fill:#CAC0BD;}
	.st41{clip-path:url(#XMLID_86_);fill:#C8BDBB;}
	.st42{clip-path:url(#XMLID_86_);fill:#C6BBB8;}
	.st43{clip-path:url(#XMLID_86_);fill:#C4B8B6;}
	.st44{clip-path:url(#XMLID_86_);fill:#C2B6B4;}
	.st45{clip-path:url(#XMLID_86_);fill:#C0B4B1;}
	.st46{clip-path:url(#XMLID_86_);fill:#BEB1AF;}
	.st47{clip-path:url(#XMLID_86_);fill:#BCAFAD;}
	.st48{clip-path:url(#XMLID_86_);fill:#BAADAA;}
	.st49{clip-path:url(#XMLID_86_);fill:#B8ABA8;}
	.st50{clip-path:url(#XMLID_86_);fill:#B7A9A6;}
	.st51{clip-path:url(#XMLID_86_);fill:#B5A6A4;}
	.st52{clip-path:url(#XMLID_86_);fill:#B3A4A2;}
	.st53{clip-path:url(#XMLID_86_);fill:#B1A2A0;}
	.st54{clip-path:url(#XMLID_86_);fill:#AFA09D;}
	.st55{clip-path:url(#XMLID_86_);fill:#AE9E9B;}
	.st56{clip-path:url(#XMLID_86_);fill:#AC9C99;}
	.st57{clip-path:url(#XMLID_86_);fill:#AA9A97;}
	.st58{clip-path:url(#XMLID_86_);fill:#A99896;}
	.st59{clip-path:url(#XMLID_86_);fill:#A79694;}
	.st60{clip-path:url(#XMLID_86_);fill:#A59492;}
	.st61{clip-path:url(#XMLID_86_);fill:#A49390;}
	.st62{clip-path:url(#XMLID_86_);fill:#A2918E;}
	.st63{clip-path:url(#XMLID_86_);fill:#A08F8C;}
	.st64{clip-path:url(#XMLID_86_);fill:#9F8D8A;}
	.st65{clip-path:url(#XMLID_86_);fill:#9D8B88;}
	.st66{clip-path:url(#XMLID_86_);fill:#9C8986;}
	.st67{clip-path:url(#XMLID_86_);fill:#9A8784;}
	.st68{clip-path:url(#XMLID_86_);fill:#998683;}
	.st69{clip-path:url(#XMLID_86_);fill:#978481;}
	.st70{clip-path:url(#XMLID_86_);fill:#96827F;}
	.st71{clip-path:url(#XMLID_86_);fill:#94807D;}
	.st72{clip-path:url(#XMLID_86_);fill:#937F7C;}
	.st73{clip-path:url(#XMLID_86_);fill:#917D7A;}
	.st74{clip-path:url(#XMLID_86_);fill:#907B78;}
	.st75{clip-path:url(#XMLID_86_);fill:#8E7A77;}
	.st76{clip-path:url(#XMLID_86_);fill:#8D7875;}
	.st77{clip-path:url(#XMLID_86_);fill:#8B7773;}
	.st78{clip-path:url(#XMLID_86_);fill:#8A7572;}
	.st79{clip-path:url(#XMLID_86_);fill:#897370;}
	.st80{clip-path:url(#XMLID_86_);fill:#87726F;}
	.st81{clip-path:url(#XMLID_86_);fill:#86706D;}
	.st82{clip-path:url(#XMLID_86_);fill:#856F6C;}
	.st83{clip-path:url(#XMLID_86_);fill:#836E6A;}
	.st84{clip-path:url(#XMLID_86_);fill:#826C69;}
	.st85{clip-path:url(#XMLID_86_);fill:#816B68;}
	.st86{clip-path:url(#XMLID_86_);fill:#806966;}
	.st87{clip-path:url(#XMLID_86_);fill:#7E6865;}
	.st88{clip-path:url(#XMLID_86_);fill:#7D6763;}
	.st89{clip-path:url(#XMLID_86_);fill:#7C6562;}
	.st90{clip-path:url(#XMLID_86_);fill:#7B6461;}
	.st91{clip-path:url(#XMLID_86_);fill:#79635F;}
	.st92{clip-path:url(#XMLID_86_);fill:#78615E;}
	.st93{clip-path:url(#XMLID_86_);fill:#77605D;}
	.st94{clip-path:url(#XMLID_86_);fill:#765F5C;}
	.st95{clip-path:url(#XMLID_86_);fill:#755E5A;}
	.st96{clip-path:url(#XMLID_86_);fill:#745C59;}
	.st97{clip-path:url(#XMLID_86_);fill:#735B58;}
	.st98{clip-path:url(#XMLID_86_);fill:#725A57;}
	.st99{clip-path:url(#XMLID_86_);fill:#705956;}
	.st100{clip-path:url(#XMLID_86_);fill:#6F5855;}
	.st101{clip-path:url(#XMLID_86_);fill:#6E5753;}
	.st102{clip-path:url(#XMLID_86_);fill:#6D5552;}
	.st103{clip-path:url(#XMLID_86_);fill:#6C5451;}
	.st104{clip-path:url(#XMLID_86_);fill:#6B5350;}
	.st105{clip-path:url(#XMLID_86_);fill:#6A524F;}
	.st106{clip-path:url(#XMLID_86_);fill:#69514E;}
	.st107{clip-path:url(#XMLID_86_);fill:#68504D;}
	.st108{clip-path:url(#XMLID_86_);fill:#674F4C;}
	.st109{clip-path:url(#XMLID_86_);fill:#664E4B;}
	.st110{clip-path:url(#XMLID_86_);fill:#654D4A;}
	.st111{clip-path:url(#XMLID_86_);fill:#644C49;}
	.st112{clip-path:url(#XMLID_86_);fill:#644B48;}
	.st113{clip-path:url(#XMLID_86_);fill:#634A47;}
	.st114{clip-path:url(#XMLID_86_);fill:#624946;}
	.st115{clip-path:url(#XMLID_86_);fill:#614845;}
	.st116{clip-path:url(#XMLID_86_);fill:#604744;}
	.st117{clip-path:url(#XMLID_86_);fill:#5F4644;}
	.st118{clip-path:url(#XMLID_86_);fill:#5E4643;}
	.st119{clip-path:url(#XMLID_86_);fill:#5D4542;}
	.st120{clip-path:url(#XMLID_86_);fill:#5C4441;}
	.st121{clip-path:url(#XMLID_86_);fill:#5C4340;}
	.st122{clip-path:url(#XMLID_86_);fill:#5B423F;}
	.st123{clip-path:url(#XMLID_86_);fill:#5A413E;}
	.st124{clip-path:url(#XMLID_86_);fill:#59403E;}
	.st125{clip-path:url(#XMLID_86_);fill:#59403D;}
	.st126{clip-path:url(#XMLID_86_);fill:#583F3C;}
	.st127{clip-path:url(#XMLID_86_);fill:#573E3B;}
	.st128{clip-path:url(#XMLID_86_);fill:#563D3A;}
	.st129{clip-path:url(#XMLID_86_);fill:#553C3A;}
	.st130{clip-path:url(#XMLID_86_);fill:#553C39;}
	.st131{clip-path:url(#XMLID_86_);fill:#543B38;}
	.st132{clip-path:url(#XMLID_86_);fill:#533A38;}
	.st133{clip-path:url(#XMLID_86_);fill:#533937;}
	.st134{clip-path:url(#XMLID_86_);fill:#523936;}
	.st135{clip-path:url(#XMLID_86_);fill:#513835;}
	.st136{clip-path:url(#XMLID_86_);fill:#503735;}
	.st137{clip-path:url(#XMLID_86_);fill:#503634;}
	.st138{clip-path:url(#XMLID_86_);fill:#4F3633;}
	.st139{clip-path:url(#XMLID_86_);fill:#4E3533;}
	.st140{clip-path:url(#XMLID_86_);fill:#4E3432;}
	.st141{clip-path:url(#XMLID_86_);fill:#4D3431;}
	.st142{clip-path:url(#XMLID_86_);fill:#4C3331;}
	.st143{clip-path:url(#XMLID_86_);fill:#4C3230;}
	.st144{clip-path:url(#XMLID_86_);fill:#4B322F;}
	.st145{clip-path:url(#XMLID_86_);fill:#4B312F;}
	.st146{clip-path:url(#XMLID_86_);fill:#4A302E;}
	.st147{clip-path:url(#XMLID_86_);fill:#49302E;}
	.st148{clip-path:url(#XMLID_86_);fill:#492F2D;}
	.st149{clip-path:url(#XMLID_86_);fill:#482E2C;}
	.st150{clip-path:url(#XMLID_86_);fill:#472D2B;}
	.st151{clip-path:url(#XMLID_86_);fill:#462C2B;}
	.st152{clip-path:url(#XMLID_86_);fill:#462C2A;}
	.st153{clip-path:url(#XMLID_86_);fill:#452B29;}
	.st154{clip-path:url(#XMLID_86_);fill:#442A28;}
	.st155{clip-path:url(#XMLID_86_);fill:#432927;}
	.st156{clip-path:url(#XMLID_86_);fill:#432827;}
	.st157{clip-path:url(#XMLID_86_);fill:#422826;}
	.st158{clip-path:url(#XMLID_86_);fill:#422726;}
	.st159{clip-path:url(#XMLID_86_);fill:#412725;}
	.st160{clip-path:url(#XMLID_86_);fill:#412625;}
	.st161{clip-path:url(#XMLID_86_);fill:#402624;}
	.st162{clip-path:url(#XMLID_86_);fill:#402524;}
	.st163{clip-path:url(#XMLID_86_);fill:#3F2523;}
	.st164{clip-path:url(#XMLID_86_);fill:#3F2423;}
	.st165{clip-path:url(#XMLID_86_);fill:#3E2422;}
	.st166{clip-path:url(#XMLID_86_);fill:#3E2322;}
	.st167{clip-path:url(#XMLID_86_);fill:#3E2321;}
	.st168{clip-path:url(#XMLID_86_);fill:#3D2221;}
	.st169{clip-path:url(#XMLID_86_);fill:#3D2220;}
	.st170{clip-path:url(#XMLID_86_);fill:#3C2120;}
	.st171{clip-path:url(#XMLID_86_);fill:#3C201F;}
	.st172{clip-path:url(#XMLID_86_);fill:#3B201F;}
	.st173{clip-path:url(#XMLID_86_);fill:#3B201E;}
	.st174{clip-path:url(#XMLID_86_);fill:#3A1F1E;}
	.st175{clip-path:url(#XMLID_86_);fill:#3A1F1D;}
	.st176{clip-path:url(#XMLID_86_);fill:#3A1E1D;}
	.st177{clip-path:url(#XMLID_86_);fill:#391E1D;}
	.st178{clip-path:url(#XMLID_86_);fill:#391D1C;}
	.st179{clip-path:url(#XMLID_86_);fill:#381D1C;}
	.st180{clip-path:url(#XMLID_86_);fill:#381C1B;}
	.st181{clip-path:url(#XMLID_86_);fill:#371B1A;}
	.st182{clip-path:url(#XMLID_86_);fill:#361A19;}
	.st183{clip-path:url(#XMLID_86_);fill:#361919;}
	.st184{clip-path:url(#XMLID_86_);fill:#351918;}
	.st185{clip-path:url(#XMLID_86_);fill:#351817;}
	.st186{clip-path:url(#XMLID_86_);fill:#341817;}
	.st187{clip-path:url(#XMLID_86_);fill:#341717;}
	.st188{clip-path:url(#XMLID_86_);fill:#341716;}
	.st189{clip-path:url(#XMLID_86_);fill:#331716;}
	.st190{clip-path:url(#XMLID_86_);fill:#331616;}
	.st191{clip-path:url(#XMLID_86_);fill:#331615;}
	.st192{clip-path:url(#XMLID_86_);fill:#331515;}
	.st193{clip-path:url(#XMLID_86_);fill:#321515;}
	.st194{fill:#1C1A1A;}
	.st195{fill:#554035;}
	.st196{fill:#333332;}
	.st197{fill:#C62128;}
	.st198{fill:#B32026;}
	.st199{fill:#EB2927;}
	.st200{clip-path:url(#XMLID_87_);}
</style>
<g id="XMLID_992_">
	<g id="XMLID_5332_">
		<path id="XMLID_5333_" class="st0" d="M37.2,38.5c0,0,43.4,4.9,38.1-22c0,0-2.9-2.5-4.7,0.8c0,0,6.1,19.8-32.1,16.4L37.2,38.5z"/>
	</g>
	<g id="XMLID_5334_">
		<path id="XMLID_5335_" class="st0" d="M76.5,10.5c0.6,4.4-0.8,8.1-3.2,8.4c-2.3,0.3-4.7-3-5.3-7.3c-0.6-4.4,0.8-8.1,3.2-8.4
			C73.6,2.8,75.9,6.1,76.5,10.5"/>
	</g>
	<g id="XMLID_5336_">
		<path id="XMLID_5337_" class="st0" d="M70.8,16.9c-0.4,0.5-2.1-0.1-3.9-1.4c-1.7-1.3-2.8-2.8-2.4-3.3c0.4-0.5,2.1,0.1,3.9,1.4
			C70.1,14.8,71.2,16.3,70.8,16.9"/>
	</g>
	<g id="XMLID_5338_" class="st1">
		<g id="XMLID_5339_">
			<defs>
				<rect id="XMLID_5349_" x="64.4" y="3.1" width="10.5" height="14"/>
			</defs>
			<clipPath id="XMLID_80_">
				<use xlink:href="#XMLID_5349_"  style="overflow:visible;"/>
			</clipPath>
			<g id="XMLID_5340_" class="st2">
				<path id="XMLID_5341_" class="st3" d="M64.6,12C64.6,12.1,64.5,12.1,64.6,12c-0.5,0.6,0.6,2.1,2.3,3.4c1.2,0.9,2.4,1.5,3.2,1.6
					c0,0,0,0,0.1,0.1l0.1,0C66.7,15,65.2,13.1,64.6,12"/>
			</g>
			<g id="XMLID_5342_" class="st2">
				<path id="XMLID_5343_" class="st3" d="M73.9,4.3c0.1,1.8,0.5,6.4,0.9,6.6c0.3,0.1-0.1-3.8-0.4-6C74.2,4.7,74.1,4.5,73.9,4.3"/>
			</g>
			<g id="XMLID_5344_" class="st2">
				<path id="XMLID_5345_" class="st3" d="M71.6,10.5c0.6-0.1,0-5.4-0.3-7.3c-0.4,0-0.4,0.1-0.7,0.2C70.8,5.2,71.1,10.6,71.6,10.5"
					/>
			</g>
			<g id="XMLID_5346_" class="st2">
				<path id="XMLID_5347_" class="st3" d="M69.3,13.4c-1.8-5.9-0.1-8.8,1.2-10.1c-1.9,0.9-3,4.3-2.5,8.3c0.1,0.7,0.2,1.4,0.4,2
					C68.9,14.3,69.3,13.4,69.3,13.4"/>
			</g>
		</g>
	</g>
	<g id="XMLID_5350_" class="st4">
		<g id="XMLID_5351_">
			<defs>
				<rect id="XMLID_5355_" x="69.9" y="14.3" width="3.5" height="2.2"/>
			</defs>
			<clipPath id="XMLID_81_">
				<use xlink:href="#XMLID_5355_"  style="overflow:visible;"/>
			</clipPath>
			<g id="XMLID_5352_" class="st5">
				<path id="XMLID_5353_" class="st3" d="M69.9,14.3c0,0,1.9,0,3.5,2.2C73.4,16.5,72.6,14.1,69.9,14.3"/>
			</g>
		</g>
	</g>
	<g id="XMLID_5356_">
		<path id="XMLID_5357_" class="st6" d="M44.1,68c0,1.8-1.7,3.3-3.8,3.3L23,71.4c-2.1,0-3.8-1.4-3.8-3.3L19,35.8
			c0-1.8,1.7-3.3,3.8-3.3l17.3-0.1c2.1,0,3.8,1.4,3.8,3.3L44.1,68z"/>
	</g>
	<g id="XMLID_5358_">
		<path id="XMLID_5359_" class="st7" d="M31.8,36.7l-1.9,0c-1.5,0-2.6-1.3-2.6-2.7l0.1-4.4c0-1.5,1.3-2.6,2.7-2.6l1.9,0
			c1.5,0,2.6,1.3,2.6,2.7l-0.1,4.4C34.5,35.6,33.3,36.8,31.8,36.7"/>
	</g>
	<g id="XMLID_5360_" class="st1">
		<g id="XMLID_5361_">
			<defs>
				<rect id="XMLID_5365_" x="27.4" y="24.4" width="7.4" height="9.8"/>
			</defs>
			<clipPath id="XMLID_82_">
				<use xlink:href="#XMLID_5365_"  style="overflow:visible;"/>
			</clipPath>
			<g id="XMLID_5362_" class="st8">
				<path id="XMLID_5363_" class="st3" d="M31.9,34.2l-1.9,0c-1.5,0-2.6-1.3-2.6-2.7l0.1-4.4c0-1.5,1.3-2.6,2.7-2.6l1.9,0
					c1.5,0,2.6,1.3,2.6,2.7l-0.1,4.4C34.6,33,33.4,34.2,31.9,34.2"/>
			</g>
		</g>
	</g>
	<g id="XMLID_5366_">
		<path id="XMLID_5367_" class="st7" d="M36.5,29.8l-4.9,0.6c-5,0.6-9.6-2.9-10.2-7.9l-1-7.7c-0.7-5,2.9-9.6,7.9-10.2l4.9-0.6
			c5-0.6,9.6,2.9,10.2,7.9l1,7.7C45.1,24.6,41.5,29.2,36.5,29.8"/>
	</g>
	<g id="XMLID_5368_">
		<path id="XMLID_5369_" class="st9" d="M38.3,22.6l-0.8,0.1c-0.7,0.1-1.4-0.4-1.5-1.1l-1.2-9c0-0.4,0.2-0.7,0.6-0.7l2.1-0.3
			c0.4,0,0.7,0.2,0.7,0.6l1.2,9C39.5,21.9,39,22.5,38.3,22.6"/>
	</g>
	<g id="XMLID_5370_">
		<path id="XMLID_5371_" class="st10" d="M37.6,22.7l0.5-0.1c0.5-0.1,0.8-0.3,1.1-0.7c-1.6,0.5-2.3-0.2-2.3-0.2l-1.3-9.9l-0.2,0
			c-0.4,0.1-0.7,0.4-0.6,0.8l1.1,8.8C36.1,22.3,36.8,22.8,37.6,22.7"/>
	</g>
	<g id="XMLID_5372_">
		<path id="XMLID_5373_" class="st11" d="M33,16c0.2,1.3-0.2,2.4-0.8,2.5c-0.6,0.1-1.3-0.9-1.4-2.2c-0.2-1.3,0.2-2.4,0.8-2.5
			C32.2,13.7,32.9,14.7,33,16"/>
	</g>
	<g id="XMLID_5374_">
		<path id="XMLID_5375_" class="st11" d="M41.5,15.4c0.2,1.3-0.2,2.4-0.8,2.5C40,18,39.4,17,39.2,15.7c-0.2-1.3,0.2-2.4,0.8-2.5
			C40.7,13.1,41.3,14.1,41.5,15.4"/>
	</g>
	<g id="XMLID_5376_">
		<path id="XMLID_5377_" class="st12" d="M39.6,24.2c0,0-7,0.9-9.1-2.4c0,0-1.9,5.2,2.6,6.6C39.1,30.1,39.6,24.2,39.6,24.2"/>
	</g>
	<g id="XMLID_5378_">
		<path id="XMLID_5379_" class="st9" d="M32.2,24.7l1.3,2.2c-1.2-2-2.7-2.8-3.4-3.1c-0.1,1.6,0.3,3.7,3,4.5c1.4,0.4,2.5,0.4,3.4,0.2
			C35,25.6,32.2,24.7,32.2,24.7"/>
	</g>
	<g id="XMLID_5380_">
		<path id="XMLID_5381_" class="st13" d="M31,22.3c1,1.4,3.8,4.1,8.5,1.9C38.5,24.3,33.3,24.7,31,22.3"/>
	</g>
	<g id="XMLID_5382_" class="st1">
		<g id="XMLID_5383_">
			<defs>
				<rect id="XMLID_5387_" x="20.4" y="4.1" width="23" height="19.1"/>
			</defs>
			<clipPath id="XMLID_83_">
				<use xlink:href="#XMLID_5387_"  style="overflow:visible;"/>
			</clipPath>
			<g id="XMLID_5384_" class="st14">
				<path id="XMLID_5385_" class="st3" d="M43.4,11.9C42,7.3,37.1,3.5,32.2,4.2l-2.9,0.4c-5.5,0.7-9.5,5.9-8.8,11.4l0.7,5.6
					c0.1,0.6,0.2,1.1,0.4,1.7c2.5-0.5,7.1-2.5,7-10.3C28.6,12.9,32.1,10.1,43.4,11.9"/>
			</g>
		</g>
	</g>
	<g id="XMLID_5388_">
		<path id="XMLID_5389_" class="st6" d="M40.7,32.5c0,0,11.9-0.1,13.2-0.9c0,0,2.7,2.6,1.3,9l-12.5-0.4L40.7,32.5z"/>
	</g>
	<g id="XMLID_5390_">
		<polygon id="XMLID_5391_" class="st15" points="26.5,33 26.5,31.6 30.4,33.2 31,37.4 27.9,37 		"/>
	</g>
	<g id="XMLID_5392_">
		<polygon id="XMLID_5393_" class="st15" points="35.7,33 35.7,31.6 31.8,33.2 31.2,37.4 34.3,37 		"/>
	</g>
	<g id="XMLID_5394_">
		<path id="XMLID_5395_" class="st0" d="M14.1,36.9c0,0-36,26,7.1,27c0,0,1.5-3.5-2.2-4.2c0,0-29.7,1.2-0.1-20.5L14.1,36.9z"/>
	</g>
	<g id="XMLID_5396_">
		<path id="XMLID_5397_" class="st6" d="M7.3,39.2c0,0,2.6,5.7,6.6,7.1l9.8-8.8L22,32.8C22,32.8,12.2,32.3,7.3,39.2"/>
	</g>
	<g id="XMLID_5398_">
		<path id="XMLID_5399_" class="st16" d="M21.9,23.4c0,0,5.7-3.4,5.9-10.6c0,0,1.4-2.9,4.7-2.8c3.3,0.1,9.3,3.7,14.3,0
			c0,0-2.3,0.1-2.5-1.9C43.8,4,33.9-5.3,23.8,4c0,0-6.7,2-6.8,6.9C16.8,17.3,16.3,22,21.9,23.4"/>
	</g>
	<g id="XMLID_5400_">
		<path id="XMLID_5401_" class="st17" d="M27.7,12.8c0,0,1.4-2.9,4.7-2.8c3.3,0.1,9.3,3.7,14.3,0c0,0,0,0,0,0
			c-2.8,0.7-7.9-0.3-7.9-0.3c2.7,0.3,3.7-0.8,3.7-0.8s-2,1-6.8-1.1c-4.8-2.2-8.3,0.7-8.3,0.7C27.3,10.7,26,13,26,13l-0.8-4
			c-0.1,3.4-1.6,7.2-1.6,7.2L23.2,12c-0.9,3.1-4.2,6.2-5.8,7.5c0.6,1.8,1.9,3.2,4.4,3.8C21.9,23.4,27.6,20,27.7,12.8"/>
	</g>
	<g id="XMLID_5402_">
		<path id="XMLID_5403_" class="st7" d="M23.3,18.4c0.9,2.2,0.6,4.4-0.7,5c-1.3,0.5-3.1-0.9-3.9-3.1c-0.9-2.2-0.6-4.4,0.7-5
			C20.6,14.8,22.4,16.2,23.3,18.4"/>
	</g>
	<g id="XMLID_5404_" class="st1">
		<g id="XMLID_5405_">
			<defs>
				<rect id="XMLID_5611_" x="19.2" y="16.8" width="3.5" height="5.2"/>
			</defs>
			<clipPath id="XMLID_84_">
				<use xlink:href="#XMLID_5611_"  style="overflow:visible;"/>
			</clipPath>
			<g id="XMLID_5406_" class="st18">
				<defs>
					<path id="XMLID_5609_" d="M22.4,18.8c0.6,1.4,0.3,2.8-0.5,3.1c-0.8,0.3-1.9-0.5-2.5-1.9c-0.6-1.4-0.3-2.8,0.5-3.1
						C20.8,16.5,21.9,17.4,22.4,18.8"/>
				</defs>
				<clipPath id="XMLID_85_">
					<use xlink:href="#XMLID_5609_"  style="overflow:visible;"/>
				</clipPath>
				<g id="XMLID_5407_" class="st19">
					<g id="XMLID_5408_">
						<defs>
							
								<rect id="XMLID_5607_" x="17.9" y="17" transform="matrix(0.1293 0.9916 -0.9916 0.1293 37.4499 -3.9059)" width="6.2" height="4.7"/>
						</defs>
						<clipPath id="XMLID_86_">
							<use xlink:href="#XMLID_5607_"  style="overflow:visible;"/>
						</clipPath>
						<polygon id="XMLID_5409_" class="st20" points="18.2,22.4 23.7,21.7 23.7,22.7 18.2,22.7 						"/>
						<polygon id="XMLID_5410_" class="st20" points="18.2,22.4 23.7,21.7 23.7,21.7 18.2,22.4 						"/>
						<polygon id="XMLID_5411_" class="st21" points="18.2,22.4 23.7,21.6 23.7,21.7 18.2,22.4 						"/>
						<polygon id="XMLID_5412_" class="st22" points="18.2,22.3 23.7,21.6 23.7,21.6 18.2,22.4 						"/>
						<polygon id="XMLID_5413_" class="st23" points="18.2,22.3 23.7,21.6 23.7,21.6 18.2,22.3 						"/>
						<polygon id="XMLID_5414_" class="st24" points="18.2,22.3 23.7,21.6 23.7,21.6 18.2,22.3 						"/>
						<polygon id="XMLID_5415_" class="st25" points="18.2,22.2 23.7,21.5 23.7,21.6 18.2,22.3 						"/>
						<polygon id="XMLID_5416_" class="st26" points="18.2,22.2 23.7,21.5 23.7,21.5 18.2,22.2 						"/>
						<polygon id="XMLID_5417_" class="st27" points="18.2,22.2 23.7,21.5 23.7,21.5 18.2,22.2 						"/>
						<polygon id="XMLID_5418_" class="st28" points="18.2,22.2 23.7,21.4 23.7,21.5 18.2,22.2 						"/>
						<polygon id="XMLID_5419_" class="st29" points="18.2,22.1 23.7,21.4 23.7,21.4 18.2,22.2 						"/>
						<polygon id="XMLID_5420_" class="st30" points="18.2,22.1 23.7,21.4 23.7,21.4 18.2,22.1 						"/>
						<polygon id="XMLID_5421_" class="st31" points="18.2,22.1 23.7,21.4 23.7,21.4 18.2,22.1 						"/>
						<polygon id="XMLID_5422_" class="st32" points="18.2,22.1 23.7,21.3 23.7,21.4 18.2,22.1 						"/>
						<polygon id="XMLID_5423_" class="st33" points="18.2,22 23.7,21.3 23.7,21.3 18.2,22.1 						"/>
						<polygon id="XMLID_5424_" class="st34" points="18.2,22 23.7,21.3 23.7,21.3 18.2,22 						"/>
						<polygon id="XMLID_5425_" class="st35" points="18.2,22 23.7,21.3 23.7,21.3 18.2,22 						"/>
						<polygon id="XMLID_5426_" class="st36" points="18.2,21.9 23.7,21.2 23.7,21.3 18.2,22 						"/>
						<polygon id="XMLID_5427_" class="st37" points="18.2,21.9 23.7,21.2 23.7,21.2 18.2,21.9 						"/>
						<polygon id="XMLID_5428_" class="st38" points="18.2,21.9 23.7,21.2 23.7,21.2 18.2,21.9 						"/>
						<polygon id="XMLID_5429_" class="st39" points="18.2,21.9 23.7,21.1 23.7,21.2 18.2,21.9 						"/>
						<polygon id="XMLID_5430_" class="st40" points="18.2,21.8 23.7,21.1 23.7,21.1 18.2,21.9 						"/>
						<polygon id="XMLID_5431_" class="st41" points="18.2,21.8 23.7,21.1 23.7,21.1 18.2,21.8 						"/>
						<polygon id="XMLID_5432_" class="st42" points="18.2,21.8 23.7,21.1 23.7,21.1 18.2,21.8 						"/>
						<polygon id="XMLID_5433_" class="st43" points="18.2,21.8 23.7,21 23.7,21.1 18.2,21.8 						"/>
						<polygon id="XMLID_5434_" class="st44" points="18.2,21.7 23.7,21 23.7,21 18.2,21.8 						"/>
						<polygon id="XMLID_5435_" class="st45" points="18.2,21.7 23.7,21 23.7,21 18.2,21.7 						"/>
						<polygon id="XMLID_5436_" class="st46" points="18.2,21.7 23.7,21 23.7,21 18.2,21.7 						"/>
						<polygon id="XMLID_5437_" class="st47" points="18.2,21.6 23.7,20.9 23.7,21 18.2,21.7 						"/>
						<polygon id="XMLID_5438_" class="st48" points="18.2,21.6 23.7,20.9 23.7,20.9 18.2,21.6 						"/>
						<polygon id="XMLID_5439_" class="st49" points="18.2,21.6 23.7,20.9 23.7,20.9 18.2,21.6 						"/>
						<polygon id="XMLID_5440_" class="st50" points="18.2,21.6 23.7,20.8 23.7,20.9 18.2,21.6 						"/>
						<polygon id="XMLID_5441_" class="st51" points="18.2,21.5 23.7,20.8 23.7,20.8 18.2,21.6 						"/>
						<polygon id="XMLID_5442_" class="st52" points="18.2,21.5 23.7,20.8 23.7,20.8 18.2,21.5 						"/>
						<polygon id="XMLID_5443_" class="st53" points="18.2,21.5 23.7,20.8 23.7,20.8 18.2,21.5 						"/>
						<polygon id="XMLID_5444_" class="st54" points="18.2,21.5 23.7,20.7 23.7,20.8 18.2,21.5 						"/>
						<polygon id="XMLID_5445_" class="st55" points="18.2,21.4 23.7,20.7 23.7,20.7 18.2,21.5 						"/>
						<polygon id="XMLID_5446_" class="st56" points="18.2,21.4 23.7,20.7 23.7,20.7 18.2,21.4 						"/>
						<polygon id="XMLID_5447_" class="st57" points="18.2,21.4 23.7,20.7 23.7,20.7 18.2,21.4 						"/>
						<polygon id="XMLID_5448_" class="st58" points="18.2,21.3 23.7,20.6 23.7,20.7 18.2,21.4 						"/>
						<polygon id="XMLID_5449_" class="st59" points="18.2,21.3 23.7,20.6 23.7,20.6 18.2,21.3 						"/>
						<polygon id="XMLID_5450_" class="st60" points="18.2,21.3 23.7,20.6 23.7,20.6 18.2,21.3 						"/>
						<polygon id="XMLID_5451_" class="st61" points="18.2,21.3 23.7,20.5 23.7,20.6 18.2,21.3 						"/>
						<polygon id="XMLID_5452_" class="st62" points="18.2,21.2 23.7,20.5 23.7,20.5 18.2,21.3 						"/>
						<polygon id="XMLID_5453_" class="st63" points="18.2,21.2 23.7,20.5 23.7,20.5 18.2,21.2 						"/>
						<polygon id="XMLID_5454_" class="st64" points="18.2,21.2 23.7,20.5 23.7,20.5 18.2,21.2 						"/>
						<polygon id="XMLID_5455_" class="st65" points="18.2,21.2 23.7,20.4 23.7,20.5 18.2,21.2 						"/>
						<polygon id="XMLID_5456_" class="st66" points="18.2,21.1 23.7,20.4 23.7,20.4 18.2,21.2 						"/>
						<polygon id="XMLID_5457_" class="st67" points="18.2,21.1 23.7,20.4 23.7,20.4 18.2,21.1 						"/>
						<polygon id="XMLID_5458_" class="st68" points="18.2,21.1 23.7,20.4 23.7,20.4 18.2,21.1 						"/>
						<polygon id="XMLID_5459_" class="st69" points="18.2,21 23.7,20.3 23.7,20.4 18.2,21.1 						"/>
						<polygon id="XMLID_5460_" class="st70" points="18.2,21 23.7,20.3 23.7,20.3 18.2,21 						"/>
						<polygon id="XMLID_5461_" class="st71" points="18.2,21 23.7,20.3 23.7,20.3 18.2,21 						"/>
						<polygon id="XMLID_5462_" class="st72" points="18.2,21 23.7,20.2 23.7,20.3 18.2,21 						"/>
						<polygon id="XMLID_5463_" class="st73" points="18.2,20.9 23.7,20.2 23.7,20.2 18.2,21 						"/>
						<polygon id="XMLID_5464_" class="st74" points="18.2,20.9 23.7,20.2 23.7,20.2 18.2,20.9 						"/>
						<polygon id="XMLID_5465_" class="st75" points="18.2,20.9 23.7,20.2 23.7,20.2 18.2,20.9 						"/>
						<polygon id="XMLID_5466_" class="st76" points="18.2,20.9 23.7,20.1 23.7,20.2 18.2,20.9 						"/>
						<polygon id="XMLID_5467_" class="st77" points="18.2,20.8 23.7,20.1 23.7,20.1 18.2,20.9 						"/>
						<polygon id="XMLID_5468_" class="st78" points="18.2,20.8 23.7,20.1 23.7,20.1 18.2,20.8 						"/>
						<polygon id="XMLID_5469_" class="st79" points="18.2,20.8 23.7,20.1 23.7,20.1 18.2,20.8 						"/>
						<polygon id="XMLID_5470_" class="st80" points="18.2,20.7 23.7,20 23.7,20.1 18.2,20.8 						"/>
						<polygon id="XMLID_5471_" class="st81" points="18.2,20.7 23.7,20 23.7,20 18.2,20.7 						"/>
						<polygon id="XMLID_5472_" class="st82" points="18.2,20.7 23.7,20 23.7,20 18.2,20.7 						"/>
						<polygon id="XMLID_5473_" class="st83" points="18.2,20.7 23.7,19.9 23.7,20 18.2,20.7 						"/>
						<polygon id="XMLID_5474_" class="st84" points="18.2,20.6 23.7,19.9 23.7,19.9 18.2,20.7 						"/>
						<polygon id="XMLID_5475_" class="st85" points="18.2,20.6 23.7,19.9 23.7,19.9 18.2,20.6 						"/>
						<polygon id="XMLID_5476_" class="st86" points="18.2,20.6 23.7,19.9 23.7,19.9 18.2,20.6 						"/>
						<polygon id="XMLID_5477_" class="st87" points="18.2,20.5 23.7,19.8 23.7,19.9 18.2,20.6 						"/>
						<polygon id="XMLID_5478_" class="st88" points="18.2,20.5 23.7,19.8 23.7,19.8 18.2,20.5 						"/>
						<polygon id="XMLID_5479_" class="st89" points="18.2,20.5 23.7,19.8 23.7,19.8 18.2,20.5 						"/>
						<polygon id="XMLID_5480_" class="st90" points="18.2,20.5 23.7,19.8 23.7,19.8 18.2,20.5 						"/>
						<polygon id="XMLID_5481_" class="st91" points="18.2,20.4 23.7,19.7 23.7,19.8 18.2,20.5 						"/>
						<polygon id="XMLID_5482_" class="st92" points="18.2,20.4 23.7,19.7 23.7,19.7 18.2,20.4 						"/>
						<polygon id="XMLID_5483_" class="st93" points="18.2,20.4 23.7,19.7 23.7,19.7 18.2,20.4 						"/>
						<polygon id="XMLID_5484_" class="st94" points="18.2,20.4 23.7,19.6 23.7,19.7 18.2,20.4 						"/>
						<polygon id="XMLID_5485_" class="st95" points="18.2,20.3 23.7,19.6 23.7,19.6 18.2,20.4 						"/>
						<polygon id="XMLID_5486_" class="st96" points="18.2,20.3 23.7,19.6 23.7,19.6 18.2,20.3 						"/>
						<polygon id="XMLID_5487_" class="st97" points="18.2,20.3 23.7,19.6 23.7,19.6 18.2,20.3 						"/>
						<polygon id="XMLID_5488_" class="st98" points="18.2,20.2 23.7,19.5 23.7,19.6 18.2,20.3 						"/>
						<polygon id="XMLID_5489_" class="st99" points="18.2,20.2 23.7,19.5 23.7,19.5 18.2,20.2 						"/>
						<polygon id="XMLID_5490_" class="st100" points="18.2,20.2 23.7,19.5 23.7,19.5 18.2,20.2 						"/>
						<polygon id="XMLID_5491_" class="st101" points="18.2,20.2 23.7,19.5 23.7,19.5 18.2,20.2 						"/>
						<polygon id="XMLID_5492_" class="st102" points="18.2,20.1 23.7,19.4 23.7,19.5 18.2,20.2 						"/>
						<polygon id="XMLID_5493_" class="st103" points="18.2,20.1 23.7,19.4 23.7,19.4 18.2,20.1 						"/>
						<polygon id="XMLID_5494_" class="st104" points="18.2,20.1 23.7,19.4 23.7,19.4 18.2,20.1 						"/>
						<polygon id="XMLID_5495_" class="st105" points="18.2,20.1 23.7,19.3 23.7,19.4 18.2,20.1 						"/>
						<polygon id="XMLID_5496_" class="st106" points="18.2,20 23.7,19.3 23.7,19.3 18.2,20.1 						"/>
						<polygon id="XMLID_5497_" class="st107" points="18.2,20 23.7,19.3 23.7,19.3 18.2,20 						"/>
						<polygon id="XMLID_5498_" class="st108" points="18.2,20 23.7,19.3 23.7,19.3 18.2,20 						"/>
						<polygon id="XMLID_5499_" class="st109" points="18.2,19.9 23.7,19.2 23.7,19.3 18.2,20 						"/>
						<polygon id="XMLID_5500_" class="st110" points="18.2,19.9 23.7,19.2 23.7,19.2 18.2,19.9 						"/>
						<polygon id="XMLID_5501_" class="st111" points="18.2,19.9 23.7,19.2 23.7,19.2 18.2,19.9 						"/>
						<polygon id="XMLID_5502_" class="st112" points="18.2,19.9 23.7,19.2 23.7,19.2 18.2,19.9 						"/>
						<polygon id="XMLID_5503_" class="st113" points="18.2,19.8 23.7,19.1 23.7,19.2 18.2,19.9 						"/>
						<polygon id="XMLID_5504_" class="st114" points="18.2,19.8 23.7,19.1 23.7,19.1 18.2,19.8 						"/>
						<polygon id="XMLID_5505_" class="st115" points="18.2,19.8 23.7,19.1 23.7,19.1 18.2,19.8 						"/>
						<polygon id="XMLID_5506_" class="st116" points="18.2,19.8 23.7,19 23.7,19.1 18.2,19.8 						"/>
						<polygon id="XMLID_5507_" class="st117" points="18.2,19.7 23.7,19 23.7,19 18.2,19.8 						"/>
						<polygon id="XMLID_5508_" class="st118" points="18.2,19.7 23.7,19 23.7,19 18.2,19.7 						"/>
						<polygon id="XMLID_5509_" class="st119" points="18.2,19.7 23.7,19 23.7,19 18.2,19.7 						"/>
						<polygon id="XMLID_5510_" class="st120" points="18.2,19.6 23.7,18.9 23.7,19 18.2,19.7 						"/>
						<polygon id="XMLID_5511_" class="st121" points="18.2,19.6 23.7,18.9 23.7,18.9 18.2,19.6 						"/>
						<polygon id="XMLID_5512_" class="st122" points="18.2,19.6 23.7,18.9 23.7,18.9 18.2,19.6 						"/>
						<polygon id="XMLID_5513_" class="st123" points="18.2,19.6 23.7,18.9 23.7,18.9 18.2,19.6 						"/>
						<polygon id="XMLID_5514_" class="st124" points="18.2,19.5 23.7,18.8 23.7,18.9 18.2,19.6 						"/>
						<polygon id="XMLID_5515_" class="st125" points="18.2,19.5 23.7,18.8 23.7,18.8 18.2,19.5 						"/>
						<polygon id="XMLID_5516_" class="st126" points="18.2,19.5 23.7,18.8 23.7,18.8 18.2,19.5 						"/>
						<polygon id="XMLID_5517_" class="st127" points="18.2,19.5 23.7,18.7 23.7,18.8 18.2,19.5 						"/>
						<polygon id="XMLID_5518_" class="st128" points="18.2,19.4 23.7,18.7 23.7,18.7 18.2,19.5 						"/>
						<polygon id="XMLID_5519_" class="st129" points="18.2,19.4 23.7,18.7 23.7,18.7 18.2,19.4 						"/>
						<polygon id="XMLID_5520_" class="st130" points="18.2,19.4 23.7,18.7 23.7,18.7 18.2,19.4 						"/>
						<polygon id="XMLID_5521_" class="st131" points="18.2,19.3 23.7,18.6 23.7,18.7 18.2,19.4 						"/>
						<polygon id="XMLID_5522_" class="st132" points="18.2,19.3 23.7,18.6 23.7,18.6 18.2,19.3 						"/>
						<polygon id="XMLID_5523_" class="st133" points="18.2,19.3 23.7,18.6 23.7,18.6 18.2,19.3 						"/>
						<polygon id="XMLID_5524_" class="st134" points="18.2,19.3 23.7,18.5 23.7,18.6 18.2,19.3 						"/>
						<polygon id="XMLID_5525_" class="st135" points="18.2,19.2 23.7,18.5 23.7,18.5 18.2,19.3 						"/>
						<polygon id="XMLID_5526_" class="st136" points="18.2,19.2 23.7,18.5 23.7,18.5 18.2,19.2 						"/>
						<polygon id="XMLID_5527_" class="st137" points="18.2,19.2 23.7,18.5 23.7,18.5 18.2,19.2 						"/>
						<polygon id="XMLID_5528_" class="st138" points="18.2,19.2 23.7,18.4 23.7,18.5 18.2,19.2 						"/>
						<polygon id="XMLID_5529_" class="st139" points="18.2,19.1 23.7,18.4 23.7,18.4 18.2,19.2 						"/>
						<polygon id="XMLID_5530_" class="st140" points="18.2,19.1 23.7,18.4 23.7,18.4 18.2,19.1 						"/>
						<polygon id="XMLID_5531_" class="st141" points="18.2,19.1 23.7,18.4 23.7,18.4 18.2,19.1 						"/>
						<polygon id="XMLID_5532_" class="st142" points="18.2,19 23.7,18.3 23.7,18.4 18.2,19.1 						"/>
						<polygon id="XMLID_5533_" class="st143" points="18.2,19 23.7,18.3 23.7,18.3 18.2,19 						"/>
						<polygon id="XMLID_5534_" class="st144" points="18.2,19 23.7,18.3 23.7,18.3 18.2,19 						"/>
						<polygon id="XMLID_5535_" class="st145" points="18.2,19 23.7,18.2 23.7,18.3 18.2,19 						"/>
						<polygon id="XMLID_5536_" class="st146" points="18.2,18.9 23.7,18.2 23.7,18.2 18.2,19 						"/>
						<polygon id="XMLID_5537_" class="st147" points="18.2,18.9 23.7,18.2 23.7,18.2 18.2,18.9 						"/>
						<polygon id="XMLID_5538_" class="st148" points="18.2,18.9 23.7,18.2 23.7,18.2 18.2,18.9 						"/>
						<polygon id="XMLID_5539_" class="st149" points="18.2,18.9 23.7,18.1 23.7,18.2 18.2,18.9 						"/>
						<polygon id="XMLID_5540_" class="st149" points="18.2,18.8 23.7,18.1 23.7,18.1 18.2,18.9 						"/>
						<polygon id="XMLID_5541_" class="st150" points="18.2,18.8 23.7,18.1 23.7,18.1 18.2,18.8 						"/>
						<polygon id="XMLID_5542_" class="st151" points="18.2,18.8 23.7,18.1 23.7,18.1 18.2,18.8 						"/>
						<polygon id="XMLID_5543_" class="st152" points="18.2,18.7 23.7,18 23.7,18.1 18.2,18.8 						"/>
						<polygon id="XMLID_5544_" class="st153" points="18.2,18.7 23.7,18 23.7,18 18.2,18.7 						"/>
						<polygon id="XMLID_5545_" class="st153" points="18.2,18.7 23.7,18 23.7,18 18.2,18.7 						"/>
						<polygon id="XMLID_5546_" class="st154" points="18.2,18.7 23.7,17.9 23.7,18 18.2,18.7 						"/>
						<polygon id="XMLID_5547_" class="st154" points="18.2,18.6 23.7,17.9 23.7,17.9 18.2,18.7 						"/>
						<polygon id="XMLID_5548_" class="st155" points="18.2,18.6 23.7,17.9 23.7,17.9 18.2,18.6 						"/>
						<polygon id="XMLID_5549_" class="st156" points="18.2,18.6 23.7,17.9 23.7,17.9 18.2,18.6 						"/>
						<polygon id="XMLID_5550_" class="st157" points="18.2,18.6 23.7,17.8 23.7,17.9 18.2,18.6 						"/>
						<polygon id="XMLID_5551_" class="st158" points="18.2,18.5 23.7,17.8 23.7,17.8 18.2,18.6 						"/>
						<polygon id="XMLID_5552_" class="st159" points="18.2,18.5 23.7,17.8 23.7,17.8 18.2,18.5 						"/>
						<polygon id="XMLID_5553_" class="st160" points="18.2,18.5 23.7,17.8 23.7,17.8 18.2,18.5 						"/>
						<polygon id="XMLID_5554_" class="st161" points="18.2,18.4 23.7,17.7 23.7,17.8 18.2,18.5 						"/>
						<polygon id="XMLID_5555_" class="st162" points="18.2,18.4 23.7,17.7 23.7,17.7 18.2,18.4 						"/>
						<polygon id="XMLID_5556_" class="st163" points="18.2,18.4 23.7,17.7 23.7,17.7 18.2,18.4 						"/>
						<polygon id="XMLID_5557_" class="st164" points="18.2,18.4 23.7,17.6 23.7,17.7 18.2,18.4 						"/>
						<polygon id="XMLID_5558_" class="st165" points="18.2,18.3 23.7,17.6 23.7,17.6 18.2,18.4 						"/>
						<polygon id="XMLID_5559_" class="st166" points="18.2,18.3 23.7,17.6 23.7,17.6 18.2,18.3 						"/>
						<polygon id="XMLID_5560_" class="st167" points="18.2,18.3 23.7,17.6 23.7,17.6 18.2,18.3 						"/>
						<polygon id="XMLID_5561_" class="st168" points="18.2,18.3 23.7,17.5 23.7,17.6 18.2,18.3 						"/>
						<polygon id="XMLID_5562_" class="st169" points="18.2,18.2 23.7,17.5 23.7,17.5 18.2,18.3 						"/>
						<polygon id="XMLID_5563_" class="st170" points="18.2,18.2 23.7,17.5 23.7,17.5 18.2,18.2 						"/>
						<polygon id="XMLID_5564_" class="st170" points="18.2,18.2 23.7,17.5 23.7,17.5 18.2,18.2 						"/>
						<polygon id="XMLID_5565_" class="st171" points="18.2,18.1 23.7,17.4 23.7,17.5 18.2,18.2 						"/>
						<polygon id="XMLID_5566_" class="st172" points="18.2,18.1 23.7,17.4 23.7,17.4 18.2,18.1 						"/>
						<polygon id="XMLID_5567_" class="st173" points="18.2,18.1 23.7,17.4 23.7,17.4 18.2,18.1 						"/>
						<polygon id="XMLID_5568_" class="st174" points="18.2,18.1 23.7,17.3 23.7,17.4 18.2,18.1 						"/>
						<polygon id="XMLID_5569_" class="st175" points="18.2,18 23.7,17.3 23.7,17.3 18.2,18.1 						"/>
						<polygon id="XMLID_5570_" class="st176" points="18.2,18 23.7,17.3 23.7,17.3 18.2,18 						"/>
						<polygon id="XMLID_5571_" class="st177" points="18.2,18 23.7,17.3 23.7,17.3 18.2,18 						"/>
						<polygon id="XMLID_5572_" class="st178" points="18.2,18 23.7,17.2 23.7,17.3 18.2,18 						"/>
						<polygon id="XMLID_5573_" class="st178" points="18.2,17.9 23.7,17.2 23.7,17.2 18.2,18 						"/>
						<polygon id="XMLID_5574_" class="st179" points="18.2,17.9 23.7,17.2 23.7,17.2 18.2,17.9 						"/>
						<polygon id="XMLID_5575_" class="st180" points="18.2,17.9 23.7,17.2 23.7,17.2 18.2,17.9 						"/>
						<polygon id="XMLID_5576_" class="st180" points="18.2,17.8 23.7,17.1 23.7,17.2 18.2,17.9 						"/>
						<polygon id="XMLID_5577_" class="st181" points="18.2,17.8 23.7,17.1 23.7,17.1 18.2,17.8 						"/>
						<polygon id="XMLID_5578_" class="st181" points="18.2,17.8 23.7,17.1 23.7,17.1 18.2,17.8 						"/>
						<polygon id="XMLID_5579_" class="st181" points="18.2,17.8 23.7,17 23.7,17.1 18.2,17.8 						"/>
						<polygon id="XMLID_5580_" class="st182" points="18.2,17.7 23.7,17 23.7,17 18.2,17.8 						"/>
						<polygon id="XMLID_5581_" class="st182" points="18.2,17.7 23.7,17 23.7,17 18.2,17.7 						"/>
						<polygon id="XMLID_5582_" class="st182" points="18.2,17.7 23.7,17 23.7,17 18.2,17.7 						"/>
						<polygon id="XMLID_5583_" class="st183" points="18.2,17.7 23.7,16.9 23.7,17 18.2,17.7 						"/>
						<polygon id="XMLID_5584_" class="st184" points="18.2,17.6 23.7,16.9 23.7,16.9 18.2,17.7 						"/>
						<polygon id="XMLID_5585_" class="st184" points="18.2,17.6 23.7,16.9 23.7,16.9 18.2,17.6 						"/>
						<polygon id="XMLID_5586_" class="st184" points="18.2,17.6 23.7,16.9 23.7,16.9 18.2,17.6 						"/>
						<polygon id="XMLID_5587_" class="st185" points="18.2,17.5 23.7,16.8 23.7,16.9 18.2,17.6 						"/>
						<polygon id="XMLID_5588_" class="st185" points="18.2,17.5 23.7,16.8 23.7,16.8 18.2,17.5 						"/>
						<polygon id="XMLID_5589_" class="st186" points="18.2,17.5 23.7,16.8 23.7,16.8 18.2,17.5 						"/>
						<polygon id="XMLID_5590_" class="st186" points="18.2,17.5 23.7,16.7 23.7,16.8 18.2,17.5 						"/>
						<polygon id="XMLID_5591_" class="st187" points="18.2,17.4 23.7,16.7 23.7,16.7 18.2,17.5 						"/>
						<polygon id="XMLID_5592_" class="st188" points="18.2,17.4 23.7,16.7 23.7,16.7 18.2,17.4 						"/>
						<polygon id="XMLID_5593_" class="st188" points="18.2,17.4 23.7,16.7 23.7,16.7 18.2,17.4 						"/>
						<polygon id="XMLID_5594_" class="st189" points="18.2,17.4 23.7,16.6 23.7,16.7 18.2,17.4 						"/>
						<polygon id="XMLID_5595_" class="st190" points="18.2,17.3 23.7,16.6 23.7,16.6 18.2,17.4 						"/>
						<polygon id="XMLID_5596_" class="st190" points="18.2,17.3 23.7,16.6 23.7,16.6 18.2,17.3 						"/>
						<polygon id="XMLID_5597_" class="st191" points="18.2,17.3 23.7,16.6 23.7,16.6 18.2,17.3 						"/>
						<polygon id="XMLID_5598_" class="st191" points="18.2,17.2 23.7,16.5 23.7,16.6 18.2,17.3 						"/>
						<polygon id="XMLID_5599_" class="st191" points="18.2,17.2 23.7,16.5 23.7,16.5 18.2,17.2 						"/>
						<polygon id="XMLID_5600_" class="st191" points="18.2,17.2 23.7,16.5 23.7,16.5 18.2,17.2 						"/>
						<polygon id="XMLID_5601_" class="st191" points="18.2,17.2 23.7,16.4 23.7,16.5 18.2,17.2 						"/>
						<polygon id="XMLID_5602_" class="st191" points="18.2,17.1 23.7,16.4 23.7,16.4 18.2,17.2 						"/>
						<polygon id="XMLID_5603_" class="st191" points="18.2,17.1 23.7,16.4 23.7,16.4 18.2,17.1 						"/>
						<polygon id="XMLID_5604_" class="st192" points="18.2,17.1 23.7,16.4 23.7,16.4 18.2,17.1 						"/>
						<polygon id="XMLID_5605_" class="st193" points="18.2,17.1 23.7,16.3 23.7,16.4 18.2,17.1 						"/>
						<polygon id="XMLID_5606_" class="st193" points="23.7,16.3 18.2,17.1 18.2,16 23.7,16 						"/>
					</g>
				</g>
			</g>
		</g>
	</g>
	<g id="XMLID_5612_">
		<path id="XMLID_5613_" class="st194" d="M45,16.9l-0.2-3.3C44.7,12.7,44,12,43.2,12l-3.8,0.2c-0.8,0.1-1.5,0.8-1.4,1.7l0,0.3
			c-0.2-0.2-0.5-0.4-0.9-0.4c-0.4,0-0.7,0.2-1,0.5v-0.1c0-0.9-0.8-1.6-1.8-1.6h-3.6l0,0c-2.5,0-3.7,0.4-3.7,0.4l-5.9,2.6l0.7,0.6
			l5.5-2.2c0,0.2,0.5,0.1,0.9,0.1c0,0.1,0,0.2,0,0.3v3.3c0,0.9,0.9,1.9,1.9,1.9H33c2.6-0.8,3.1-2.2,3.1-3.1v-1
			c0.3-0.3,0.6-0.5,1-0.5c0.4,0,0.7,0.2,0.9,0.4l0,0.7c0.1,0.9,0.5,2.3,2.9,2.9l2.5-0.2C44.3,18.8,45.1,17.8,45,16.9 M35.4,16.4
			c0,0.7-0.4,1.9-2.5,2.5h-2.4c-0.8,0-1.6-0.8-1.6-1.5v-2.7c0-0.4,0.2-0.8,0.6-1.1l0.4-0.2c0.1,0,0.3-0.1,0.5-0.1H34
			c0.8,0,1.4,0.6,1.4,1.3V16.4z M43.1,18.2l-2,0.1c-1.9-0.6-2.3-1.6-2.3-2.4l-0.1-1.7c0-0.7,0.5-1.4,1.2-1.4l3.1-0.2
			c0.7,0,1.3,0.5,1.3,1.3l0.2,2.7C44.4,17.4,43.8,18.2,43.1,18.2"/>
	</g>
	<g id="XMLID_5617_">
		<path id="XMLID_5618_" class="st195" d="M26.1,6.9c3-2.1,5.4-4.6,6.7-6.9c-0.4,0-0.8,0-1.3,0.1C30.1,2,28.1,4,25.6,5.7
			c-2.9,2.1-5.9,3.4-8.5,3.9C17,10,17,10.4,17,10.9c0,0,0,0,0,0C19.6,10.5,22.9,9.1,26.1,6.9"/>
	</g>
	<g id="XMLID_5619_">
		<path id="XMLID_5620_" class="st196" d="M23.8,70.7c0,0.5-0.4,0.9-0.9,0.9S22,71.2,22,70.7V33.1c0-0.5,0.4-0.9,0.9-0.9
			s0.9,0.4,0.9,0.9V70.7z"/>
	</g>
	<g id="XMLID_5621_">
		<path id="XMLID_5622_" class="st196" d="M40.5,70.7c0,0.5-0.4,0.9-0.9,0.9c-0.5,0-0.9-0.4-0.9-0.9V33.1c0-0.5,0.4-0.9,0.9-0.9
			c0.5,0,0.9,0.4,0.9,0.9V70.7z"/>
	</g>
	<g id="XMLID_5623_">
		<path id="XMLID_5624_" class="st196" d="M28.5,37.1c0,0,1.1,3.5,2.5,3.5c1.4,0,2.4-3.5,2.4-3.5L28.5,37.1z"/>
	</g>
	<g id="XMLID_5625_">
		<polygon id="XMLID_5626_" class="st196" points="31,38.6 31,68.3 28.5,66.2 29.8,38.6 		"/>
	</g>
	<g id="XMLID_5627_">
		<polygon id="XMLID_5628_" class="st196" points="31,38.6 31,68.3 33.5,66.2 32.2,38.6 		"/>
	</g>
	<g id="XMLID_5629_">
		<path id="XMLID_5630_" class="st197" d="M23.4,65.5c0,1.3,1.1,2.4,2.4,2.4h11.1c1.3,0,2.4-1.1,2.4-2.4v-14c0-1.3-1.1-2.4-2.4-2.4
			H25.8c-1.3,0-2.4,1.1-2.4,2.4V65.5z"/>
	</g>
	<g id="XMLID_5631_">
		<path id="XMLID_5632_" class="st198" d="M25.6,66.2c0,0.8-1,1-2.5,1.7l-1.7,0.8c-0.8,0-1.1-0.3-1.1-1.1V52.3c0-0.8,0.7-1,2-1.8
			l2.6-1.2c0.8,0.3,0.8,0.8,0.8,1.6V66.2z"/>
	</g>
	<g id="XMLID_5633_">
		<path id="XMLID_5634_" class="st15" d="M23.9,65c0,1.2,1,2.2,2.2,2.2h10.3c1.2,0,2.2-1,2.2-2.2V52c0-1.2-1-2.2-2.2-2.2H26.2
			c-1.2,0-2.2,1-2.2,2.2V65z"/>
	</g>
	<g id="XMLID_5635_">
		<path id="XMLID_5636_" class="st13" d="M23.4,65.3c0,1.2,1,2.2,2.2,2.2h10.3c1.2,0,2.2-1,2.2-2.2v-13c0-1.2-1-2.2-2.2-2.2H25.6
			c-1.2,0-2.2,1-2.2,2.2V65.3z"/>
	</g>
	<g id="XMLID_5637_">
		<path id="XMLID_5638_" class="st15" d="M22.7,65.7c0,1.2,1,2.2,2.2,2.2h10.3c1.2,0,2.2-1,2.2-2.2v-13c0-1.2-1-2.2-2.2-2.2H25
			c-1.2,0-2.2,1-2.2,2.2V65.7z"/>
	</g>
	<g id="XMLID_5639_">
		<path id="XMLID_5640_" class="st13" d="M22.1,65.9c0,1.2,1,2.2,2.2,2.2h10.3c1.2,0,2.2-1,2.2-2.2v-13c0-1.2-1-2.2-2.2-2.2H24.3
			c-1.2,0-2.2,1-2.2,2.2V65.9z"/>
	</g>
	<g id="XMLID_5641_">
		<path id="XMLID_5642_" class="st199" d="M20.3,66.9c0,1.3,1.1,2.3,2.4,2.3h11.1c1.3,0,2.4-1,2.4-2.3V53.3c0-1.3-1.1-2.3-2.4-2.3
			H22.7c-1.3,0-2.4,1-2.4,2.3V66.9z"/>
	</g>
	<g id="XMLID_5643_">
		<path id="XMLID_5644_" class="st0" d="M26.4,64.7c-4.4,0.6-8.1-0.8-8.4-3.2c-0.3-2.3,3-4.7,7.3-5.3c4.4-0.6,8.1,0.8,8.4,3.2
			C34.1,61.7,30.8,64.1,26.4,64.7"/>
	</g>
	<g id="XMLID_5645_">
		<path id="XMLID_5646_" class="st0" d="M20,58.9c-0.5-0.4,0.1-2.1,1.4-3.9c1.3-1.7,2.8-2.8,3.3-2.4c0.5,0.4-0.1,2.1-1.4,3.9
			C22,58.3,20.6,59.3,20,58.9"/>
	</g>
	<g id="XMLID_5647_" class="st1">
		<g id="XMLID_5648_">
			<defs>
				<rect id="XMLID_5658_" x="19.8" y="52.6" width="14" height="10.5"/>
			</defs>
			<clipPath id="XMLID_87_">
				<use xlink:href="#XMLID_5658_"  style="overflow:visible;"/>
			</clipPath>
			<g id="XMLID_5649_" class="st200">
				<path id="XMLID_5650_" class="st3" d="M24.8,52.8C24.8,52.7,24.8,52.7,24.8,52.8c-0.6-0.5-2.1,0.6-3.4,2.3
					c-0.9,1.2-1.5,2.4-1.6,3.2c0,0,0,0-0.1,0l0,0.1C21.9,54.9,23.8,53.4,24.8,52.8"/>
			</g>
			<g id="XMLID_5651_" class="st200">
				<path id="XMLID_5652_" class="st3" d="M32.6,62.1c-1.8,0.1-6.4,0.5-6.6,0.9c-0.1,0.3,3.8-0.1,6-0.4
					C32.2,62.4,32.4,62.2,32.6,62.1"/>
			</g>
			<g id="XMLID_5653_" class="st200">
				<path id="XMLID_5654_" class="st3" d="M26.4,59.8c0.1,0.6,5.4,0,7.3-0.3c0-0.4-0.1-0.4-0.2-0.7C31.7,58.9,26.3,59.2,26.4,59.8"
					/>
			</g>
			<g id="XMLID_5655_" class="st200">
				<path id="XMLID_5656_" class="st3" d="M23.5,57.5c5.9-1.8,8.8-0.1,10.1,1.2c-0.9-1.9-4.3-3-8.3-2.5c-0.7,0.1-1.4,0.2-2,0.4
					C22.6,57.1,23.5,57.5,23.5,57.5"/>
			</g>
		</g>
	</g>
</g>
</svg>
