<?xml version="1.0" encoding="utf-8"?>
<!-- Generator: Adobe Illustrator 19.0.0, SVG Export Plug-In . SVG Version: 6.00 Build 0)  -->
<svg version="1.1" id="Layer_1" xmlns="http://www.w3.org/2000/svg" xmlns:xlink="http://www.w3.org/1999/xlink" x="0px" y="0px"
	 viewBox="0 0 50 50" style="enable-background:new 0 0 50 50;" xml:space="preserve">
<style type="text/css">
	.st0{clip-path:url(#XMLID_2_);}
	.st1{fill:#D8D8D8;}
	.st2{fill:#FFFFFF;}
	.st3{fill:#EE2424;}
	.st4{fill:#99CCD8;}
	.st5{fill:#4B9CAF;}
	.st6{fill:#2F6F7A;}
	.st7{fill:#F8CD9B;}
	.st8{fill:#E1875E;}
	.st9{fill:#E2B486;}
	.st10{fill:#2D292B;}
	.st11{fill:#9E6736;}
	.st12{fill:#610C0D;}
	.st13{fill:#F6E3D0;}
	.st14{fill:#F15C68;}
	.st15{fill:#F3ABB4;}
	.st16{fill:#B84552;}
	.st17{fill:#F4F4F4;}
	.st18{fill:#ED1E24;}
	.st19{fill:#CC2029;}
	.st20{fill:#F8F8FC;}
	.st21{fill:#58595B;}
	.st22{fill:#414042;}
</style>
<g id="XMLID_267_">
	<defs>
		<circle id="XMLID_502_" cx="25" cy="25" r="25"/>
	</defs>
	<use xlink:href="#XMLID_502_"  style="overflow:visible;fill:#FFFFFF;"/>
	<clipPath id="XMLID_2_">
		<use xlink:href="#XMLID_502_"  style="overflow:visible;"/>
	</clipPath>
	<g id="XMLID_1108_" class="st0">
		<g id="XMLID_72_">
			<g id="XMLID_89_">
				<g id="XMLID_5_">
					<path id="XMLID_728_" class="st1" d="M19.321,39.886c0,0-0.485,1.793-0.226,3.045c0.259,1.252,0.722,2.233,1.804,2.233
						s2.357-1.331,2.481-1.793c0.124-0.462,0.507-1.049,0.519-2.278s-1.861-2.808-1.861-2.808L19.321,39.886z"/>
				</g>
			</g>
			<g id="XMLID_147_">
				<g id="XMLID_6_">
					<path id="XMLID_725_" class="st2" d="M22.084,40.472c-0.384,0.017-2.157,0.287-3.007,0.728
						c-0.066,0.553-0.092,1.192,0.019,1.73c0.09,0.433,0.205,0.831,0.36,1.17c0.339,0.426,0.872,0.829,1.591,0.567
						c1.331-0.485,1.846-2.57,1.838-2.943C22.877,41.351,22.603,40.45,22.084,40.472z"/>
				</g>
			</g>
			<g id="XMLID_143_">
				<g id="XMLID_7_">
					<path id="XMLID_722_" class="st3" d="M22.039,38.285l-2.718,1.601c0,0-0.322,1.191-0.301,2.31
						c0.778-0.375,2.025-0.797,3.278-0.472c0.665-0.411,1.184-0.789,1.536-1.064C23.506,39.523,22.039,38.285,22.039,38.285z"/>
				</g>
			</g>
			<g id="XMLID_87_">
				<g id="XMLID_8_">
					<path id="XMLID_719_" class="st1" d="M25.287,41.949c0,0-0.327,4.116,0.192,4.77c0.519,0.654,1.387,0.958,2.3,0.338
						c0.913-0.62,2.763-2.797,2.819-5.548c0.056-2.751-1.049-3.924-1.353-4.206c-0.304-0.282-0.981-0.135-0.981-0.135L25.287,41.949
						z"/>
				</g>
			</g>
			<g id="XMLID_86_">
				<g id="XMLID_9_">
					<path id="XMLID_716_" class="st3" d="M24.52,42.457c0,0-0.147,1.646,0,2.391c0.147,0.744,0.451,2.086,1.827,2.03
						c1.376-0.056,2.357-1.376,2.797-3.191s0.699-3.913,0-5.728c-0.699-1.816-2.323-0.592-2.323-0.592L24.52,42.457z"/>
				</g>
			</g>
			<g id="XMLID_228_">
				<g id="XMLID_10_">
					<path id="XMLID_713_" class="st4" d="M25.298,37.608c0,0,0.203-0.699,1.274-0.733c1.071-0.034,2.052,0.553,1.906,1.748
						c-0.147,1.195-0.801,3.281-2.605,4.195c-1.804,0.913-1.838-1.24-1.838-1.24L25.298,37.608z"/>
				</g>
			</g>
			<g id="XMLID_224_">
				<g id="XMLID_234_">
					<path id="XMLID_710_" class="st5" d="M16.553,35.685c0,0-0.327,0.462-0.485,1.037c-0.158,0.575-0.851,2.639,0.637,3.586
						s3.857-0.423,3.857-0.423s0.237,0.744,0.626,1.184c0.389,0.44,2.283,1.675,3.366,0.761s1.708-2.131,1.658-2.554
						c-0.051-0.423-0.017-1.539-1.184-1.911c0.169-0.423,0.152-1.37,0.152-1.37L16.553,35.685z"/>
				</g>
				<g id="XMLID_237_">
					<path id="XMLID_706_" class="st6" d="M23.596,42.2c-1.002,0-2.123-0.742-2.441-1.101c-0.336-0.38-0.557-0.972-0.618-1.149
						c-0.344,0.186-2.478,1.272-3.855,0.396c-1.433-0.912-0.891-2.81-0.687-3.525c0.012-0.041,0.022-0.078,0.031-0.11
						c0.158-0.576,0.478-1.032,0.491-1.051l0.014-0.02l8.692,0.313l0.001,0.042c0.001,0.038,0.014,0.901-0.139,1.343
						c1.034,0.355,1.114,1.283,1.156,1.786c0.005,0.056,0.009,0.105,0.014,0.148c0.053,0.437-0.573,1.665-1.673,2.593
						C24.297,42.106,23.954,42.2,23.596,42.2z M20.587,39.82l0.017,0.052c0.002,0.007,0.239,0.741,0.617,1.168
						c0.418,0.473,2.266,1.633,3.304,0.757c1.061-0.895,1.691-2.107,1.642-2.515c-0.005-0.044-0.01-0.095-0.014-0.151
						c-0.042-0.489-0.119-1.398-1.139-1.723l-0.045-0.014l0.018-0.044c0.144-0.36,0.15-1.124,0.149-1.311l-8.56-0.308
						c-0.062,0.093-0.329,0.509-0.465,1.004c-0.009,0.032-0.02,0.069-0.031,0.111c-0.199,0.697-0.727,2.55,0.65,3.426
						c1.449,0.922,3.787-0.41,3.811-0.424L20.587,39.82z"/>
				</g>
			</g>
			<g id="XMLID_225_">
				<g id="XMLID_127_">
					<path id="XMLID_703_" class="st5" d="M19.978,36.393c0,0-0.085,2.013,0.584,3.493"/>
				</g>
				<g id="XMLID_128_">
					<path id="XMLID_701_" class="st6" d="M20.521,39.904c-0.665-1.473-0.588-3.493-0.587-3.513l0.088,0.004
						c-0.001,0.02-0.076,2.02,0.58,3.473L20.521,39.904z"/>
				</g>
			</g>
			<g id="XMLID_226_">
				<g id="XMLID_125_">
					<path id="XMLID_698_" class="st5" d="M24.148,36.148c0,0,0.169,0.837,0.076,1.598s-0.152,1.26,0.355,1.683
						c0.465-0.44,1.156-0.507,1.635,0"/>
				</g>
				<g id="XMLID_126_">
					<path id="XMLID_696_" class="st6" d="M24.581,39.488l-0.03-0.025c-0.528-0.44-0.465-0.95-0.371-1.722
						c0.091-0.745-0.074-1.576-0.076-1.584l0.087-0.017c0.002,0.008,0.17,0.853,0.077,1.612c-0.089,0.729-0.149,1.215,0.31,1.619
						c0.236-0.211,0.523-0.332,0.812-0.34c0.324-0.01,0.619,0.118,0.856,0.369l-0.064,0.061c-0.219-0.232-0.49-0.351-0.789-0.341
						c-0.28,0.008-0.558,0.13-0.783,0.343L24.581,39.488z"/>
				</g>
			</g>
			<g id="XMLID_227_">
				<g id="XMLID_123_">
					<path id="XMLID_693_" class="st5" d="M25.027,37.366c0,0-0.093,0.364-0.364,0.592"/>
				</g>
				<g id="XMLID_124_">
					<path id="XMLID_691_" class="st6" d="M24.692,37.991l-0.057-0.067c0.256-0.216,0.348-0.566,0.349-0.569l0.086,0.022
						C25.066,37.392,24.97,37.757,24.692,37.991z"/>
				</g>
			</g>
			<g id="XMLID_210_">
				<g id="XMLID_114_">
					<path id="XMLID_688_" class="st7" d="M16.395,24.42l-1.381-0.423c0,0-0.648-0.53-1.658-1.359s-2.221-1.319-2.221-1.319
						s0.35-1.246,0.383-1.956c0.034-0.71-0.169-1.455-0.615-0.857c-0.445,0.598-0.665,1.15-0.654,1.167
						c0.011,0.017-0.889-1.438-1.316-1.956c-0.426-0.519-1.013-0.829-0.838,0.039c0.062,0.349,0.242,0.756,0.242,0.756
						s-2.419-1.979-0.97,0.378c-0.299-0.135-2.154-0.998-0.288,1.156c0,0-2.024-0.643-0.468,0.71c0.355,0.338,0.665,0.4,0.913,0.491
						s0.023,0.333,1.111,0.964c1.088,0.631,1.286,0.214,1.286,0.214s0.299,1.077,1.973,2.921s3.473,1.94,3.473,1.94L16.395,24.42z"
						/>
				</g>
				<g id="XMLID_115_">
					<path id="XMLID_684_" class="st8" d="M15.399,27.331l-0.033-0.002c-0.018-0.001-1.836-0.118-3.504-1.954
						c-1.433-1.577-1.86-2.585-1.958-2.862c-0.029,0.024-0.07,0.049-0.128,0.067c-0.176,0.055-0.52,0.041-1.162-0.331
						c-0.724-0.42-0.876-0.673-0.966-0.823c-0.045-0.074-0.067-0.112-0.138-0.138c-0.039-0.014-0.079-0.027-0.121-0.041
						c-0.224-0.074-0.502-0.167-0.808-0.459C6.101,20.369,5.916,20.104,6,19.954c0.111-0.197,0.664-0.074,0.95,0.006
						c-0.798-0.941-0.782-1.202-0.697-1.315c0.111-0.149,0.432-0.102,1.005,0.147c-0.476-0.799-0.425-0.99-0.341-1.063
						c0.211-0.184,0.974,0.374,1.316,0.642c-0.059-0.152-0.142-0.388-0.18-0.607c-0.065-0.321-0.032-0.516,0.098-0.577
						c0.201-0.096,0.555,0.183,0.817,0.502c0.198,0.24,1.045,1.483,1.269,1.881c0.082-0.225,0.336-0.694,0.631-1.09
						c0.143-0.192,0.277-0.267,0.397-0.225c0.238,0.085,0.321,0.619,0.298,1.11c-0.03,0.638-0.316,1.714-0.375,1.929
						c0.21,0.089,1.291,0.567,2.197,1.311c0.95,0.78,1.58,1.295,1.651,1.353l1.417,0.434L15.399,27.331z M9.934,22.304l0.031,0.108
						c0.003,0.011,0.318,1.091,1.964,2.903c1.52,1.673,3.16,1.898,3.41,1.923l0.999-2.789l-1.352-0.417c0,0-0.648-0.53-1.658-1.359
						c-0.992-0.815-2.198-1.308-2.21-1.313l-0.037-0.015l0.011-0.038c0.003-0.012,0.349-1.249,0.382-1.947
						c0.025-0.525-0.078-0.965-0.239-1.023c-0.099-0.036-0.215,0.086-0.296,0.194c-0.421,0.565-0.638,1.092-0.646,1.142
						l-0.005-0.001c0.003,0.008,0.004,0.014,0.002,0.017l-0.01,0.025l-0.053,0.005l-0.015-0.022
						c-0.001-0.001-0.001-0.001-0.001-0.002l0,0c-0.008-0.013-0.892-1.441-1.312-1.951c-0.275-0.335-0.581-0.541-0.711-0.478
						c-0.086,0.041-0.103,0.212-0.049,0.481c0.06,0.341,0.238,0.742,0.24,0.746l0.076,0.17L8.31,18.545
						c-0.471-0.385-1.197-0.872-1.336-0.75c-0.044,0.039-0.091,0.221,0.432,1.071l0.076,0.123l-0.147-0.066
						c-0.766-0.348-0.963-0.29-1.012-0.225c-0.061,0.081-0.039,0.361,0.791,1.318l0.103,0.119l-0.149-0.047
						c-0.367-0.116-0.916-0.221-0.99-0.089c-0.026,0.047-0.024,0.212,0.565,0.724c0.294,0.28,0.55,0.365,0.777,0.44
						c0.042,0.014,0.083,0.028,0.123,0.042c0.1,0.036,0.137,0.098,0.183,0.175c0.086,0.143,0.23,0.383,0.935,0.792
						c0.609,0.353,0.927,0.372,1.086,0.325c0.105-0.031,0.137-0.09,0.138-0.092L9.934,22.304z"/>
				</g>
			</g>
			<g id="XMLID_530_">
				<g id="XMLID_110_">
					<path id="XMLID_681_" class="st9" d="M21.707,23.823c0,0-0.09,1.91-0.569,2.914c0.682,0.584,1.641,0.037,1.641,0.037
						s0.712-1.693,0.375-2.892C22.096,23.898,21.707,23.823,21.707,23.823z"/>
				</g>
				<g id="XMLID_111_">
					<path id="XMLID_676_" class="st8" d="M21.896,27.049c-0.261,0-0.542-0.068-0.787-0.278l-0.026-0.022l0.015-0.031
						c0.47-0.984,0.564-2.878,0.565-2.897l0.002-0.051l0.05,0.01c0.004,0.001,0.399,0.074,1.437,0.059l0.034,0l0.009,0.033
						c0.337,1.2-0.347,2.851-0.376,2.921l-0.006,0.014L22.8,26.813C22.794,26.817,22.378,27.049,21.896,27.049z M21.192,26.725
						c0.606,0.488,1.437,0.078,1.551,0.018c0.066-0.164,0.668-1.706,0.376-2.816c-0.83,0.01-1.238-0.034-1.371-0.053
						C21.73,24.178,21.615,25.809,21.192,26.725z"/>
				</g>
			</g>
			<g id="XMLID_532_">
				<g id="XMLID_106_">
					<path id="XMLID_673_" class="st7" d="M11.969,15.538c0,0-0.3,1.888,0.539,3.146c0.839,1.258,1.858,3.116,5.813,4.944
						c3.955,1.828,7.761,1.258,9.948,0.195c2.187-1.064,5.034-2.125,5.723-3.647s0.749-2.87,0.749-2.87s0.869,0.599,1.798,0.06
						s1.888-1.828,1.558-2.847s-1.019-2.068-1.618-1.618c-0.599,0.449-1.468,0.749-1.468,0.749l-1.618-4.495L29.737,6.07
						l-5.453-1.558L19.13,5.47l-3.446,1.738l-2.577,2.966l-0.959,1.678c0,0-0.989-1.648-2.008-1.019s-1.528,1.978-0.989,2.847
						S10.71,16.857,11.969,15.538z"/>
				</g>
				<g id="XMLID_107_">
					<path id="XMLID_669_" class="st8" d="M23.633,24.861c-1.649,0-3.476-0.335-5.33-1.192c-3.701-1.71-4.833-3.437-5.659-4.698
						c-0.059-0.09-0.116-0.177-0.172-0.261c-0.713-1.069-0.611-2.602-0.562-3.05c-0.264,0.243-0.538,0.349-0.813,0.315
						c-0.733-0.09-1.321-1.122-1.751-1.876c-0.083-0.146-0.162-0.283-0.231-0.395c-0.222-0.357-0.282-0.819-0.169-1.299
						c0.152-0.648,0.59-1.25,1.172-1.609c0.232-0.144,0.482-0.184,0.742-0.121c0.633,0.154,1.144,0.871,1.287,1.092l0.922-1.614
						l2.588-2.98l3.465-1.746l5.164-0.961l0.01,0.003l5.462,1.561l3.672,3.1l0.004,0.011l1.603,4.453
						c0.179-0.065,0.902-0.343,1.415-0.728c0.152-0.114,0.318-0.144,0.492-0.089c0.522,0.166,0.97,1.035,1.195,1.729
						c0.352,1.089-0.69,2.383-1.578,2.898c-0.797,0.463-1.559,0.103-1.781-0.023c-0.024,0.303-0.154,1.501-0.748,2.813
						c-0.576,1.272-2.6,2.207-4.558,3.111c-0.415,0.191-0.806,0.372-1.186,0.557C27.099,24.442,25.477,24.861,23.633,24.861z
						 M12.034,15.405l-0.022,0.14c-0.003,0.019-0.287,1.886,0.532,3.115c0.056,0.085,0.114,0.172,0.173,0.262
						c0.821,1.252,1.944,2.967,5.622,4.667c3.898,1.802,7.675,1.282,9.91,0.195c0.381-0.185,0.773-0.366,1.188-0.558
						c1.943-0.897,3.952-1.825,4.514-3.067c0.678-1.497,0.745-2.841,0.745-2.854l0.004-0.08l0.066,0.045
						c0.009,0.006,0.858,0.577,1.751,0.058c0.973-0.565,1.844-1.851,1.538-2.795c-0.235-0.727-0.678-1.526-1.137-1.672
						c-0.145-0.046-0.284-0.021-0.412,0.076c-0.598,0.448-1.472,0.752-1.48,0.756l-0.041,0.014l-1.629-4.524L29.716,6.11
						l-5.434-1.553l-5.137,0.956l-3.432,1.731l-2.571,2.96l-0.991,1.736l-0.039-0.065c-0.006-0.009-0.574-0.945-1.272-1.114
						c-0.236-0.057-0.463-0.02-0.674,0.11c-0.562,0.347-0.985,0.928-1.132,1.554C8.924,12.883,8.98,13.32,9.19,13.657
						c0.07,0.112,0.149,0.251,0.232,0.397c0.397,0.696,0.996,1.748,1.685,1.832c0.278,0.034,0.557-0.093,0.83-0.379L12.034,15.405z"
						/>
				</g>
			</g>
			<g id="XMLID_531_">
				<g id="XMLID_105_">
					<path id="XMLID_666_" class="st10" d="M35.011,13.651l-0.509,1.258c0,0-0.749-3.296-1.109-3.686s-2.517-4.015-4.704-4.585
						s-4.974-0.929-8-0.39s-5.034,1.378-5.993,3.116s-1.468,1.558-1.528,3.716c-0.539-0.869-1.019-1.229-1.019-1.229
						s-0.629-2.367,0.689-3.805s2.996-2.119,3.746-2.063c-0.539-0.334-0.779-0.813-1.288-0.813c0.839-0.12,1.528,0.15,1.948,0.21
						c-0.39-0.3-0.839-0.689-1.408-0.689c1.139,0,1.618,0.33,1.828,0.659c-0.18-0.869,0.24-1.828,0.479-2.157
						c-0.12,0.569,0.06,1.528,0.449,1.738c1.019-1.498,3.683-2.727,4.958-2.457c0,0-1.153,0.18-1.572,0.779
						c2.787-0.419,5.124-0.419,6.442-0.06c-0.479,0.12-2.038,0.689-1.618,1.139c0.419,0.449,3.446,0.749,4.585,0.449
						c-0.839,0.539-0.749,0.809-0.749,0.809s1.408-0.405,2.637-0.083c-0.989,0.322-2.637,0.892-1.768,1.401s2.367,0.779,2.727,1.199
						C34.591,8.527,36,10.924,35.011,13.651z"/>
				</g>
			</g>
			<g id="XMLID_534_">
				<g id="XMLID_11_">
					<path id="XMLID_663_" class="st11" d="M16.501,9.94c0,0,0.459-1.805,3.124-1.49C19.624,8.45,17.79,8.335,16.501,9.94z"/>
				</g>
			</g>
			<g id="XMLID_535_">
				<g id="XMLID_12_">
					<path id="XMLID_660_" class="st11" d="M27.708,9.309c0,0,0.719-0.811,1.775-0.268c1.056,0.543,0.674,1.622,0.674,1.622
						S30.135,8.382,27.708,9.309z"/>
				</g>
			</g>
			<g id="XMLID_536_">
				<g id="XMLID_104_">
					<path id="XMLID_657_" class="st12" d="M16.187,17.104c0,0-1.528-1.641,0-2.247c1.528-0.607,3.978-1.528,6.18-1.528
						s6.472,1.124,7.146,1.753c0.674,0.629,0.584,1.843-0.202,2.719c-0.787,0.876-2.899,3.506-4.09,3.775
						c-1.191,0.27-4.967,0.449-6.877-1.506S16.187,17.104,16.187,17.104z"/>
				</g>
			</g>
			<g id="XMLID_544_">
				<g id="XMLID_103_">
					<path id="XMLID_654_" class="st2" d="M29.926,15.825c-0.063-0.287-0.199-0.544-0.412-0.743
						c-0.674-0.629-4.944-1.753-7.146-1.753s-4.652,0.921-6.18,1.528c-0.24,0.095-0.405,0.216-0.512,0.352
						c0.174,0.596,0.508,1.349,1.117,1.558c1.049,0.36,1.918,0,2.307-0.21c0.39-0.21,2.457-1.109,3.476-1.109
						c1.019,0,2.277,1.265,2.996,1.471c0.719,0.207,2.337,0.602,3.056,0C29.06,16.558,29.577,16.187,29.926,15.825z"/>
				</g>
			</g>
			<g id="XMLID_79_">
				<g id="XMLID_13_">
					<path id="XMLID_651_" class="st11" d="M22.074,12.003c0,0-0.044-0.063-0.104-0.182c-0.058-0.119-0.138-0.297-0.168-0.526
						c-0.015-0.114-0.013-0.242,0.017-0.372c0.032-0.129,0.096-0.26,0.195-0.367c0.099-0.108,0.224-0.195,0.36-0.261
						c0.136-0.066,0.284-0.117,0.436-0.144c0.305-0.056,0.624-0.011,0.887,0.107c0.265,0.118,0.47,0.313,0.584,0.514
						c0.057,0.101,0.09,0.203,0.104,0.296c0.016,0.093,0.009,0.175-0.002,0.241c-0.006,0.033-0.012,0.062-0.02,0.087
						c-0.007,0.025-0.014,0.046-0.021,0.062c-0.014,0.033-0.021,0.051-0.021,0.051s0.007-0.018,0.019-0.051
						c0.007-0.016,0.013-0.038,0.019-0.063c0.008-0.025,0.013-0.054,0.017-0.087c0.008-0.065,0.012-0.147-0.007-0.237
						c-0.017-0.09-0.053-0.189-0.11-0.286c-0.114-0.195-0.32-0.378-0.578-0.492c-0.129-0.057-0.271-0.096-0.418-0.114
						c-0.147-0.018-0.299-0.012-0.446,0.015c-0.148,0.026-0.292,0.074-0.425,0.138c-0.133,0.064-0.255,0.147-0.35,0.25
						c-0.095,0.103-0.159,0.225-0.193,0.349c-0.031,0.125-0.036,0.249-0.023,0.361c0.025,0.226,0.095,0.405,0.15,0.526
						C22.032,11.939,22.074,12.003,22.074,12.003z"/>
				</g>
			</g>
			<g id="XMLID_78_">
				<g id="XMLID_647_">
					
						<ellipse id="XMLID_648_" transform="matrix(0.9476 -0.3195 0.3195 0.9476 -2.1969 7.7862)" class="st13" cx="22.636" cy="10.59" rx="0.547" ry="0.251"/>
				</g>
			</g>
			<g id="XMLID_74_">
				<g id="XMLID_546_">
					<g id="XMLID_15_">
						<path id="XMLID_645_" class="st14" d="M22.737,19.823c-1.831,0-2.775,0.715-3.168,1.126c1.995,1.006,4.682,0.847,5.652,0.627
							c0.226-0.051,0.485-0.188,0.763-0.381C25.45,20.629,24.4,19.823,22.737,19.823z"/>
					</g>
				</g>
				<g id="XMLID_76_">
					<g id="XMLID_641_">
						
							<ellipse id="XMLID_642_" transform="matrix(0.964 -0.2657 0.2657 0.964 -4.6134 6.4333)" class="st15" cx="21.467" cy="20.265" rx="0.434" ry="0.217"/>
					</g>
				</g>
				<g id="XMLID_75_">
					<g id="XMLID_17_">
						<path id="XMLID_639_" class="st16" d="M25.221,21.576c0.226-0.051,0.485-0.188,0.763-0.381
							c-0.13-0.138-0.291-0.29-0.483-0.441c-0.709,0.271-2.086,0.595-4.676,0.665C22.567,21.888,24.444,21.752,25.221,21.576z"/>
					</g>
				</g>
			</g>
			<g id="XMLID_139_">
				<g id="XMLID_102_">
					<path id="XMLID_635_" class="st17" d="M29.514,15.081c-0.037-0.034-0.086-0.07-0.143-0.107
						c-0.517,0.874-2.315,1.538-2.779,1.613c-0.464,0.075-1.648-0.644-2.757-1.303c-1.109-0.659-2.532-0.075-2.892,0
						c-0.36,0.075-2.667,1.198-3.131,1.288c-0.46,0.089-0.69,0.28-0.695,0.284c0.902,0.195,1.635-0.111,1.983-0.299
						c0.39-0.21,2.457-1.109,3.476-1.109c1.019,0,2.277,1.265,2.996,1.471c0.719,0.207,2.337,0.602,3.056,0
						c0.432-0.362,0.949-0.733,1.297-1.095C29.863,15.538,29.727,15.28,29.514,15.081z"/>
				</g>
			</g>
			<g id="XMLID_73_">
				<g id="XMLID_14_">
					<path id="XMLID_632_" class="st18" d="M20.377,25.415l-2.702-0.911c0,0-0.265-0.733-0.868-0.598
						c-0.603,0.135-0.947,0.553-1.269,1.508s-0.457,2.173-0.22,2.856c0.237,0.682,0.507,0.519,0.772,0.028
						c0.214,0.056,2.238,0.427,2.238,0.427s-1.782,3.367-1.872,5.735c-0.981,0.158-0.282,1.184-0.147,1.252
						c0.135,0.068,1.883,1.567,6.315,1.15c2.864-0.485,3.383-1.026,2.458-1.737l0.124-4.612l1.894,0.823
						c0,0,0.259,0.572,0.589,0.581s0.998-0.144,1.438-1.302c0.44-1.159,0.863-2.639,0.491-3.29s-0.981-0.537-1.294-0.319
						c-0.313,0.218-0.474,0.362-0.474,0.362l-3.937-1.505l-1.171,0.744l-1.531-0.524L20.377,25.415z"/>
				</g>
			</g>
			<g id="XMLID_148_">
				<g id="XMLID_18_">
					<path id="XMLID_629_" class="st19" d="M16.299,27.696c0,0,0.18,0.35-0.462,0.338c-0.632-0.011-0.578-1.402-0.576-1.446
						c-0.093,0.64-0.089,1.263,0.057,1.683c0.237,0.682,0.507,0.519,0.772,0.028c0.214,0.056,2.238,0.427,2.238,0.427l0.395-0.421
						L16.299,27.696z"/>
				</g>
			</g>
			<g id="XMLID_533_">
				<g id="XMLID_101_">
					<path id="XMLID_626_" class="st20" d="M23.099,25.748c0,0-0.952,0.954-1.674,0.127c-0.194-0.321-1.048-0.46-1.048-0.46
						s-0.18,0.745,0.281,1.206c0.461,0.461,0.766,0.539,1.063,0.607c0.297,0.067,1.409,0.067,2.039-0.742
						C23.928,26.251,24.348,25.583,23.099,25.748z"/>
				</g>
			</g>
			<g id="XMLID_99_">
				<g id="XMLID_90_">
					<path id="XMLID_623_" class="st7" d="M29.214,27.585c0,0,0.594,0.415,1.124,0.235c0.226-0.372,1.274-1.094,4.263-1.567
						c-0.045-0.383,0.18-1.06,0.688-1.567c0-0.62,0.44-1.917,1.004-2.018c0.564-0.101,0.586,0.507,0.485,0.958
						c-0.101,0.451-0.259,0.733-0.259,0.733l0.147,0.158c0,0,1.128-0.97,1.725-1.161c0.598-0.192,0.756,0.135,0.507,0.485
						c-0.248,0.35-0.609,0.699-0.609,0.699s0.643-0.259,1.161-0.327c0.519-0.068,0.97,0.102,0.361,0.603
						c-0.609,0.502-0.801,0.581-0.801,0.581s0.957-0.124,1.093,0.079c0.136,0.203-0.315,0.631-0.8,0.767
						c-0.485,0.135-0.643,0.18-0.643,0.18s0.891,0.135,0.891,0.417s-0.135,0.328-0.361,0.446s-0.778,0.253-1.218,0.152
						c-0.44,0.327-1.534,0.699-2.582,0.09c-0.902,0.677-4.138,2.808-5.018,3c-1.139,0-2.187,0.315-2.176,0
						c0.011-0.315,0.045-1.319,0.18-1.951C28.512,27.944,29.214,27.585,29.214,27.585z"/>
				</g>
				<g id="XMLID_97_">
					<path id="XMLID_619_" class="st8" d="M28.503,30.711c-0.146,0-0.249-0.019-0.305-0.071c-0.032-0.029-0.048-0.069-0.046-0.115
						c0.011-0.328,0.045-1.324,0.181-1.959c0.138-0.645,0.831-1.006,0.861-1.021l0.024-0.012l0.022,0.015
						c0.006,0.004,0.571,0.392,1.07,0.234c0.309-0.482,1.581-1.141,4.244-1.568c-0.026-0.395,0.202-1.051,0.691-1.549
						c0.009-0.633,0.455-1.938,1.04-2.044c0.186-0.033,0.331,0.003,0.432,0.109c0.231,0.241,0.138,0.752,0.104,0.903
						c-0.085,0.376-0.206,0.633-0.249,0.716l0.096,0.104c0.193-0.163,1.159-0.966,1.708-1.142c0.408-0.131,0.568-0.016,0.627,0.064
						c0.088,0.12,0.062,0.303-0.07,0.488c-0.151,0.213-0.344,0.427-0.474,0.562c0.232-0.083,0.637-0.214,0.985-0.26
						c0.281-0.036,0.61-0.012,0.687,0.168c0.058,0.133-0.041,0.306-0.293,0.514c-0.305,0.251-0.506,0.397-0.632,0.481
						c0.307-0.027,0.822-0.045,0.933,0.12c0.038,0.056,0.042,0.128,0.013,0.208c-0.089,0.241-0.465,0.522-0.837,0.626
						c-0.211,0.059-0.36,0.101-0.461,0.129c0.275,0.059,0.741,0.193,0.741,0.426c0,0.287-0.14,0.359-0.334,0.459l-0.051,0.026
						c-0.234,0.122-0.782,0.256-1.228,0.16c-0.495,0.358-1.575,0.669-2.589,0.096c-0.953,0.71-4.142,2.8-5.012,2.99l-0.009,0.001
						c-0.439,0-0.874,0.048-1.223,0.087C28.884,30.687,28.667,30.711,28.503,30.711z M29.212,27.637
						c-0.119,0.067-0.676,0.408-0.792,0.948c-0.134,0.627-0.168,1.617-0.179,1.942c-0.001,0.021,0.005,0.036,0.018,0.048
						c0.089,0.083,0.456,0.042,0.881-0.005c0.35-0.039,0.786-0.087,1.228-0.087c0.872-0.195,4.079-2.303,4.996-2.991l0.023-0.018
						l0.025,0.015c0.995,0.578,2.061,0.264,2.534-0.088l0.016-0.012l0.02,0.005c0.41,0.094,0.953-0.025,1.187-0.148l0.051-0.027
						c0.19-0.098,0.286-0.147,0.286-0.38c0-0.178-0.523-0.323-0.853-0.373l-0.2-0.03l0.195-0.056c0,0,0.158-0.045,0.643-0.181
						c0.378-0.105,0.708-0.381,0.778-0.571c0.02-0.053,0.018-0.096-0.003-0.128c-0.088-0.131-0.691-0.106-1.051-0.06l-0.333,0.043
						l0.311-0.128c0.002-0.001,0.198-0.087,0.789-0.574c0.212-0.175,0.307-0.32,0.268-0.41c-0.046-0.107-0.291-0.155-0.595-0.115
						c-0.507,0.066-1.144,0.322-1.151,0.324l-0.21,0.085l0.162-0.157c0.004-0.003,0.361-0.351,0.604-0.693
						c0.107-0.151,0.134-0.298,0.071-0.385c-0.076-0.104-0.269-0.116-0.529-0.032c-0.582,0.187-1.699,1.143-1.71,1.153l-0.032,0.028
						l-0.197-0.213l0.016-0.028c0.002-0.003,0.156-0.282,0.255-0.721c0.065-0.289,0.078-0.656-0.082-0.822
						c-0.079-0.083-0.198-0.11-0.352-0.083c-0.529,0.095-0.967,1.366-0.967,1.975v0.018l-0.013,0.013
						c-0.497,0.497-0.719,1.16-0.675,1.531l0.005,0.042l-0.042,0.007c-3.469,0.55-4.134,1.385-4.232,1.547l-0.008,0.014
						l-0.015,0.005C29.861,28.029,29.329,27.713,29.212,27.637z"/>
				</g>
			</g>
			<g id="XMLID_144_">
				<g id="XMLID_20_">
					<path id="XMLID_616_" class="st19" d="M29.593,27.285C29.593,27.285,29.593,27.285,29.593,27.285
						c-0.316,0.107-0.8,0.321-0.957,0.591c-0.913,1.004-0.62,2.548-0.425,3.013c-0.887-0.1-1.222-0.983-1.222-0.983
						s-0.113,0.485-0.09,0.733c-1.184-0.361-1.861-1.511-1.861-1.511s-0.541,2.21-1.004,3.507c-0.462,1.297,0.113,1.861,0.226,2.052
						c0.113,0.192,0.575,0.936-1.703,1.308c-3.608,0.541-5.368-0.316-5.943-0.631c-0.575-0.316-0.158-0.902-0.158-0.902
						c-0.981,0.158-0.282,1.184-0.147,1.252c0.135,0.068,1.883,1.567,6.315,1.15c2.864-0.485,3.383-1.026,2.458-1.737l0.124-4.612
						l1.894,0.823c0,0,0.259,0.572,0.589,0.581c0.213,0.005,0.566-0.058,0.909-0.413c-0.618-1.318-0.133-2.761-0.021-2.998
						C28.692,28.271,29.041,27.641,29.593,27.285z"/>
				</g>
			</g>
			<g id="XMLID_140_">
				<g id="XMLID_96_">
					<path id="XMLID_613_" class="st8" d="M36.821,25.432l-0.088-0.005c0.033-0.577-0.107-0.889-0.109-0.892l0.08-0.037
						C36.711,24.511,36.856,24.83,36.821,25.432z"/>
				</g>
			</g>
			<g id="XMLID_198_">
				<g id="XMLID_95_">
					<path id="XMLID_610_" class="st8" d="M37.85,26.647v-0.056c0-0.628-0.187-1.149-0.527-1.467l-0.053-0.049l0.068-0.025
						c0.362-0.132,0.919-0.542,0.925-0.547l0.053,0.071c-0.022,0.016-0.513,0.378-0.883,0.533c0.317,0.328,0.495,0.83,0.505,1.428
						c0.361-0.084,0.711-0.156,0.714-0.157l0.018,0.086c-0.004,0.001-0.387,0.08-0.766,0.169L37.85,26.647z"/>
				</g>
			</g>
			<g id="XMLID_199_">
				<g id="XMLID_94_">
					
						<rect id="XMLID_607_" x="38.355" y="24.964" transform="matrix(0.3337 0.9427 -0.9427 0.3337 49.7277 -19.1337)" class="st8" width="0.088" height="1.295"/>
				</g>
			</g>
			<g id="XMLID_209_">
				<g id="XMLID_93_">
					<path id="XMLID_604_" class="st8" d="M29.93,28.654l-0.086-0.022c0.16-0.629,0.456-0.84,0.469-0.849l0.05,0.073
						C30.361,27.858,30.081,28.06,29.93,28.654z"/>
				</g>
			</g>
			<g id="XMLID_221_">
				<g id="XMLID_92_">
					<path id="XMLID_601_" class="st8" d="M7.979,20.802l-0.073-0.064c-0.333-0.291-0.845-0.653-0.851-0.657l0.051-0.072
						c0.005,0.003,0.462,0.326,0.796,0.609c0.092-0.365,0.701-0.949,1.081-1.137c-0.211-0.228-0.661-0.914-0.682-0.946l0.074-0.048
						c0.005,0.008,0.543,0.828,0.713,0.975l0.055,0.047l-0.067,0.027c-0.397,0.161-1.097,0.863-1.097,1.168V20.802z"/>
				</g>
			</g>
			<g id="XMLID_223_">
				<g id="XMLID_91_">
					<path id="XMLID_598_" class="st8" d="M8.325,20.065c-0.262-0.202-0.962-1.11-0.991-1.149l0.07-0.054
						c0.007,0.009,0.723,0.938,0.975,1.133L8.325,20.065z"/>
				</g>
			</g>
			<g id="XMLID_161_">
				<g id="XMLID_21_">
					<path id="XMLID_595_" class="st2" d="M29.143,43.686c0.041-0.171,0.08-0.345,0.118-0.52c-2.368-0.826-4.063,0.101-4.806,0.662
						c-0.002,0.377,0.013,0.755,0.065,1.019c0.147,0.744,0.451,2.086,1.827,2.03C27.722,46.821,28.703,45.502,29.143,43.686z"/>
				</g>
			</g>
		</g>
		<g id="XMLID_1107_">
			<g id="XMLID_1075_">
				<path id="XMLID_242_" class="st21" d="M21.555,8.06c0,0-0.01,0.666,0.251,0.613c0.261-0.053,1.386-0.576,3.835-0.112
					c0.095-0.192,0.419-0.589-0.421-0.678C24.38,7.795,23.679,7.677,21.555,8.06z"/>
				<path id="XMLID_243_" class="st22" d="M21.777,8.72c-0.04,0-0.077-0.014-0.109-0.04c-0.161-0.133-0.159-0.571-0.158-0.621
					l0.001-0.036l0.036-0.006c1.996-0.36,2.736-0.279,3.519-0.194l0.159,0.017c0.317,0.033,0.504,0.114,0.573,0.245
					c0.076,0.147-0.016,0.312-0.083,0.432C25.702,8.54,25.69,8.561,25.68,8.58l-0.015,0.03l-0.033-0.006
					c-2.122-0.402-3.245-0.059-3.668,0.07c-0.066,0.02-0.114,0.035-0.149,0.042C21.802,8.719,21.79,8.72,21.777,8.72z M21.599,8.097
					c0.002,0.143,0.027,0.433,0.126,0.515c0.021,0.018,0.044,0.023,0.072,0.018c0.032-0.006,0.08-0.021,0.141-0.04
					c0.426-0.13,1.556-0.475,3.678-0.078c0.006-0.012,0.013-0.024,0.021-0.038c0.061-0.109,0.136-0.244,0.081-0.349
					c-0.053-0.102-0.222-0.168-0.504-0.198L25.056,7.91C24.284,7.826,23.554,7.747,21.599,8.097z"/>
			</g>
			<g id="XMLID_1080_">
				<path id="XMLID_66_" class="st21" d="M22.05,10.136c-0.007-0.247,0.053-0.562,0.001-0.727s-0.075-1.61-0.402-1.739
					c-0.327-0.129-0.311-0.16-0.693-0.219c-0.382-0.059-1.619-0.161-3.333,0.3s-2.656,1.188-2.855,1.325
					c0,0-0.148,0.168-0.219,0.408c-0.071,0.24-0.111,0.86,0.012,1.293c0.123,0.433,0.201,0.87,0.326,1.001
					c0.125,0.131,0.3,0.303,0.585,0.191c0.286-0.112,2.828-1.228,4.584-1.448C21.812,10.3,22.056,10.383,22.05,10.136z
					 M21.256,9.991c-0.706,0.008-2.248,0.256-3.149,0.48c-0.901,0.224-2.315,0.905-2.528,1.057
					c-0.213,0.151-0.499,0.012-0.576-0.357s-0.018-1.076-0.066-1.452c-0.048-0.376-0.01-0.302,0.086-0.372
					c0.126-0.092,0.153-0.083,0.349-0.198c0.197-0.115,1.802-0.845,2.716-1.078c0.914-0.233,2.659-0.276,2.954-0.236
					c0.296,0.04,0.363,0.112,0.424,0.44s0.105,1.308,0.111,1.521C21.583,10.008,21.52,9.987,21.256,9.991z"/>
				<path id="XMLID_69_" class="st22" d="M15.294,12.05c-0.209,0-0.348-0.146-0.439-0.241c-0.099-0.104-0.163-0.356-0.245-0.674
					c-0.028-0.111-0.058-0.228-0.091-0.345c-0.122-0.428-0.089-1.056-0.012-1.317c0.073-0.247,0.222-0.418,0.228-0.425l0.008-0.007
					c0.014-0.01,0.032-0.023,0.054-0.038c0.301-0.213,1.216-0.863,2.815-1.293c1.841-0.495,3.115-0.338,3.352-0.301
					c0.288,0.045,0.356,0.074,0.505,0.139c0.051,0.022,0.113,0.049,0.198,0.083c0.247,0.097,0.328,0.764,0.389,1.439
					c0.014,0.156,0.026,0.29,0.039,0.328c0.035,0.111,0.024,0.274,0.013,0.447c-0.007,0.099-0.014,0.201-0.011,0.292l0,0
					c0.006,0.214-0.137,0.228-0.823,0.296c-0.287,0.028-0.68,0.067-1.209,0.134c-1.042,0.131-2.529,0.596-4.418,1.382
					c-0.073,0.03-0.126,0.052-0.155,0.064C15.417,12.038,15.353,12.05,15.294,12.05z M14.797,9.109
					c-0.022,0.026-0.145,0.18-0.206,0.387c-0.064,0.216-0.114,0.825,0.012,1.268c0.033,0.117,0.064,0.235,0.092,0.347
					c0.072,0.282,0.14,0.548,0.223,0.635c0.143,0.15,0.292,0.277,0.537,0.181c0.029-0.011,0.081-0.033,0.154-0.063
					c1.897-0.789,3.391-1.256,4.441-1.388c0.53-0.066,0.924-0.106,1.211-0.134c0.663-0.066,0.747-0.079,0.744-0.206l0,0
					c-0.003-0.095,0.005-0.199,0.011-0.3c0.011-0.157,0.022-0.319-0.009-0.414c-0.014-0.045-0.024-0.15-0.042-0.347
					c-0.038-0.415-0.116-1.279-0.334-1.364c-0.086-0.034-0.148-0.061-0.201-0.084c-0.146-0.064-0.206-0.09-0.483-0.133
					c-0.234-0.036-1.491-0.191-3.315,0.299c-1.583,0.426-2.489,1.068-2.786,1.279C14.828,9.088,14.811,9.1,14.797,9.109z
					 M15.397,11.632c-0.043,0-0.086-0.008-0.127-0.024c-0.153-0.06-0.266-0.216-0.31-0.428c-0.044-0.211-0.045-0.525-0.045-0.829
					c0-0.239-0.001-0.464-0.022-0.627c-0.038-0.296-0.03-0.343,0.062-0.389c0.012-0.006,0.026-0.013,0.042-0.024
					c0.075-0.055,0.116-0.075,0.174-0.104c0.042-0.021,0.095-0.047,0.179-0.096c0.195-0.114,1.817-0.85,2.727-1.083
					c0.942-0.24,2.693-0.275,2.971-0.237c0.315,0.043,0.396,0.127,0.461,0.476c0.06,0.325,0.105,1.296,0.112,1.528
					c0.002,0.084-0.004,0.148-0.045,0.19c-0.048,0.05-0.125,0.05-0.253,0.051l-0.067,0.001c-0.717,0.008-2.276,0.264-3.139,0.479
					c-0.913,0.227-2.32,0.913-2.513,1.05C15.541,11.609,15.47,11.632,15.397,11.632z M20.675,7.865
					c-0.627,0-1.847,0.062-2.577,0.248c-0.903,0.23-2.511,0.96-2.704,1.073c-0.087,0.051-0.141,0.078-0.184,0.099
					c-0.056,0.028-0.093,0.046-0.161,0.096c-0.02,0.015-0.038,0.024-0.054,0.032c-0.036,0.018-0.049,0.025-0.014,0.299
					c0.021,0.169,0.022,0.397,0.022,0.638c0,0.299,0.001,0.608,0.043,0.811c0.037,0.18,0.133,0.316,0.256,0.364
					c0.085,0.033,0.174,0.021,0.252-0.034c0.23-0.163,1.659-0.844,2.543-1.063c0.868-0.216,2.437-0.473,3.159-0.481l0.068-0.001
					c0.101-0.001,0.168-0.001,0.19-0.024c0.015-0.016,0.022-0.056,0.02-0.126c-0.007-0.23-0.051-1.194-0.11-1.514
					c-0.058-0.31-0.112-0.367-0.386-0.404C20.977,7.869,20.849,7.865,20.675,7.865z"/>
			</g>
			<g id="XMLID_1076_">
				<path id="XMLID_55_" class="st21" d="M26.953,10.339c1.711,0.452,4.083,1.895,4.351,2.045c0.268,0.149,0.464,0.002,0.606-0.112
					s0.276-0.536,0.456-0.949c0.18-0.413,0.222-1.032,0.184-1.28c-0.038-0.248-0.163-0.434-0.163-0.434
					c-0.179-0.162-1.016-1.007-2.654-1.692c-1.638-0.685-2.877-0.748-3.264-0.741c-0.387,0.008-0.375,0.041-0.716,0.125
					c-0.341,0.084-0.555,1.514-0.629,1.67c-0.074,0.156-0.057,0.476-0.096,0.72C24.989,9.936,25.242,9.887,26.953,10.339z
					 M25.542,9.417c0.034-0.211,0.208-1.176,0.312-1.493c0.104-0.317,0.18-0.379,0.479-0.38s2.022,0.274,2.897,0.627
					c0.875,0.352,2.369,1.289,2.548,1.429c0.18,0.14,0.207,0.134,0.32,0.242c0.086,0.082,0.133,0.014,0.035,0.381
					S32,11.297,31.875,11.653c-0.125,0.356-0.427,0.456-0.619,0.278c-0.191-0.178-1.502-1.042-2.365-1.383
					c-0.863-0.342-2.359-0.792-3.057-0.894C25.573,9.615,25.507,9.627,25.542,9.417z"/>
				<path id="XMLID_61_" class="st22" d="M31.528,12.491c-0.075,0-0.157-0.019-0.246-0.069c-0.027-0.015-0.077-0.044-0.145-0.084
					c-1.768-1.03-3.18-1.689-4.196-1.957c-0.515-0.136-0.899-0.227-1.18-0.293c-0.671-0.159-0.811-0.192-0.777-0.403
					c0.014-0.09,0.021-0.192,0.028-0.291c0.011-0.173,0.022-0.336,0.072-0.441c0.017-0.036,0.047-0.168,0.082-0.32
					c0.15-0.66,0.319-1.31,0.577-1.374c0.088-0.022,0.153-0.04,0.207-0.056c0.156-0.044,0.227-0.065,0.519-0.071
					c0.238-0.005,1.522,0.008,3.282,0.744c1.528,0.639,2.348,1.404,2.618,1.655c0.02,0.018,0.036,0.033,0.049,0.045l0.007,0.008
					c0.005,0.008,0.131,0.197,0.17,0.451c0.042,0.269-0.01,0.896-0.187,1.304c-0.048,0.111-0.094,0.223-0.136,0.329
					c-0.123,0.305-0.22,0.546-0.332,0.636C31.844,12.381,31.707,12.491,31.528,12.491z M26.524,7.221c-0.022,0-0.04,0-0.055,0.001
					c-0.28,0.006-0.343,0.024-0.496,0.067c-0.055,0.016-0.12,0.034-0.21,0.056c-0.227,0.056-0.419,0.902-0.512,1.308
					c-0.044,0.193-0.068,0.296-0.088,0.338C25.121,9.081,25.11,9.243,25.1,9.4c-0.007,0.101-0.013,0.205-0.029,0.299
					c-0.02,0.125,0.062,0.149,0.71,0.303c0.281,0.067,0.666,0.158,1.182,0.294l0,0c1.023,0.27,2.442,0.932,4.217,1.966
					c0.068,0.039,0.117,0.068,0.144,0.083c0.23,0.128,0.394,0.022,0.556-0.108c0.094-0.075,0.197-0.33,0.306-0.6
					c0.043-0.107,0.089-0.22,0.137-0.332c0.184-0.423,0.215-1.033,0.181-1.255c-0.033-0.215-0.135-0.383-0.153-0.411
					c-0.012-0.011-0.027-0.025-0.045-0.042c-0.267-0.249-1.079-1.006-2.592-1.638C28.079,7.274,26.862,7.221,26.524,7.221z
					 M31.468,12.062c-0.088,0-0.174-0.034-0.243-0.098c-0.173-0.161-1.476-1.028-2.351-1.374c-0.827-0.327-2.338-0.788-3.047-0.891
					l-0.066-0.01c-0.126-0.018-0.203-0.029-0.244-0.084c-0.034-0.047-0.032-0.111-0.019-0.194l0,0
					c0.037-0.229,0.21-1.184,0.314-1.499c0.111-0.337,0.203-0.41,0.52-0.41c0,0,0.001,0,0.001,0c0.283,0,2.012,0.267,2.913,0.63
					c0.889,0.358,2.374,1.291,2.559,1.435c0.077,0.06,0.125,0.093,0.165,0.119c0.053,0.036,0.092,0.062,0.159,0.126
					c0.014,0.013,0.027,0.022,0.038,0.03c0.085,0.058,0.086,0.106,0.009,0.394c-0.042,0.159-0.073,0.382-0.105,0.619
					c-0.041,0.301-0.083,0.612-0.155,0.816c-0.072,0.204-0.205,0.344-0.364,0.383C31.524,12.058,31.496,12.062,31.468,12.062z
					 M26.333,7.588C26.333,7.588,26.333,7.588,26.333,7.588c-0.278,0-0.339,0.049-0.437,0.349c-0.102,0.31-0.274,1.259-0.311,1.486
					l0,0c-0.011,0.069-0.01,0.109,0.003,0.127c0.019,0.026,0.085,0.035,0.185,0.049l0.067,0.01c0.715,0.104,2.235,0.568,3.067,0.897
					c0.846,0.335,2.173,1.2,2.379,1.392c0.07,0.065,0.156,0.089,0.245,0.067c0.128-0.031,0.241-0.154,0.302-0.327
					c0.069-0.195,0.11-0.502,0.151-0.798c0.032-0.239,0.063-0.465,0.107-0.629c0.071-0.267,0.059-0.276,0.026-0.298
					c-0.014-0.01-0.031-0.021-0.049-0.039c-0.061-0.059-0.095-0.082-0.147-0.117c-0.04-0.027-0.091-0.061-0.17-0.123
					c-0.177-0.138-1.674-1.075-2.538-1.423C28.322,7.853,26.613,7.588,26.333,7.588z"/>
			</g>
			<g id="XMLID_1074_">
				<path id="XMLID_51_" class="st21" d="M12.368,12.051c0,0,1.2-1.034,2.128-1.166c0.221-0.033,0.331-0.955,0-0.807
					c-0.331,0.149-2.365,1.264-2.299,1.814C12.283,11.969,12.368,12.051,12.368,12.051z"/>
				<path id="XMLID_52_" class="st22" d="M12.366,12.111l-0.029-0.028c0,0-0.085-0.081-0.17-0.158l-0.012-0.011l-0.002-0.017
					c-0.074-0.606,2.078-1.749,2.324-1.86c0.089-0.04,0.148-0.013,0.181,0.016c0.122,0.106,0.1,0.417,0.046,0.604
					c-0.027,0.094-0.09,0.254-0.203,0.271c-0.905,0.129-2.094,1.146-2.105,1.156L12.366,12.111z M12.24,11.871
					c0.051,0.046,0.1,0.092,0.13,0.12c0.197-0.165,1.261-1.028,2.12-1.151c0.034-0.005,0.088-0.063,0.131-0.208
					c0.061-0.211,0.052-0.45-0.019-0.512c-0.013-0.012-0.037-0.025-0.087-0.002C14.052,10.326,12.223,11.382,12.24,11.871z"/>
			</g>
			<g id="XMLID_1082_">
				<path id="XMLID_47_" class="st21" d="M34.663,14.262c0,0-1.389-2.289-2.284-2.566c-0.213-0.068-0.177-0.996,0.127-0.797
					c0.304,0.199,2.504,2.7,2.351,3.233C34.759,14.194,34.663,14.262,34.663,14.262z"/>
				<path id="XMLID_48_" class="st22" d="M34.649,14.325l-0.025-0.04c-0.014-0.023-1.39-2.278-2.26-2.547
					c-0.109-0.035-0.146-0.203-0.158-0.3c-0.024-0.193,0.003-0.503,0.141-0.589c0.038-0.024,0.1-0.041,0.182,0.013
					c0.16,0.105,0.787,0.783,1.357,1.501c0.51,0.643,1.1,1.474,1.012,1.781l-0.005,0.016l-0.014,0.009
					c-0.096,0.062-0.192,0.129-0.192,0.129L34.649,14.325z M32.425,10.916c-0.013,0-0.023,0.004-0.03,0.009
					c-0.08,0.05-0.127,0.285-0.1,0.503c0.019,0.15,0.064,0.216,0.097,0.226c0.846,0.262,2.089,2.228,2.284,2.545
					c0.034-0.023,0.087-0.059,0.141-0.094c0.039-0.222-0.323-0.834-1-1.687c-0.555-0.7-1.185-1.383-1.336-1.482
					C32.457,10.921,32.439,10.916,32.425,10.916z"/>
			</g>
		</g>
	</g>
</g>
</svg>
