<?xml version="1.0" encoding="utf-8"?>
<!-- Generator: Adobe Illustrator 19.0.0, SVG Export Plug-In . SVG Version: 6.00 Build 0)  -->
<svg version="1.1" id="Layer_1" xmlns="http://www.w3.org/2000/svg" xmlns:xlink="http://www.w3.org/1999/xlink" x="0px" y="0px"
	 viewBox="0 0 50 50" style="enable-background:new 0 0 50 50;" xml:space="preserve">
<style type="text/css">
	.st0{clip-path:url(#XMLID_2_);}
	.st1{opacity:0.42;fill:#635750;}
	.st2{fill:#FDD3AE;}
	.st3{fill:#F9C397;}
	.st4{fill:#BCD89E;}
	.st5{fill:#A3BC8A;}
	.st6{fill:#403E7A;}
	.st7{fill:#454483;}
	.st8{fill:#F6D421;}
	.st9{fill:#F8A12A;}
	.st10{fill:#7D8180;}
	.st11{fill:#878B89;}
	.st12{fill:#ABABAB;}
	.st13{fill:#3FBEAE;}
	.st14{fill:#37ADA0;}
	.st15{fill:#635750;}
	.st16{fill:#FEDD50;}
	.st17{fill:#C8E9F2;}
	.st18{fill:#E6E7E8;}
	.st19{fill:#D7AA85;}
</style>
<g id="XMLID_263_">
	<defs>
		<ellipse id="XMLID_65_" cx="25" cy="25.046" rx="25" ry="24.954"/>
	</defs>
	<use xlink:href="#XMLID_65_"  style="overflow:visible;fill:#FFFFFF;"/>
	<clipPath id="XMLID_2_">
		<use xlink:href="#XMLID_65_"  style="overflow:visible;"/>
	</clipPath>
	<g id="XMLID_42_" class="st0">
		<path id="XMLID_36_" class="st1" d="M9.822,42.451c0,0-4.37,0.198-3.991,1.194s2.166,2.868,3.991,2.992s3.722,1.123,6.756,0
			s6.044-2.508,7.637-2.314s9.182,0.403,10.635,0.485c1.452,0.083,4.659-0.518,4.659-0.518s-6.703-1.784-8.558-1.839
			c-1.855-0.055-5.731-1.324-7.379-0.464c-1.648,0.86-9.142,0.09-10.533,0S9.822,42.451,9.822,42.451z"/>
		<path id="XMLID_18_" class="st2" d="M43.292,32.407c-0.421-0.374-1.307-0.333-1.307-0.333s-0.674-0.665-1.096-0.665
			s-0.927-0.083-2.15,0.832c-1.222,0.915-0.927,2.994-0.927,2.994s-0.084,0.291-0.295,0.541c-0.211,0.25-0.717,1.539-0.717,1.539
			l-0.337,0.208c0,0-0.253-0.208-0.379-0.291s-0.717,0.291-0.717,0.291s-0.59-0.374-0.969-0.457s-0.548,0.208-0.548,0.208
			s-2.613-1.372-3.203-1.538c-0.59-0.166-1.264-0.042-1.475-0.001c-0.105,0.021-2.169-0.488-4.206-1.003
			c0.595,0.057,1.319,0.031,1.425,0.004c0.169-0.042,1.517-0.832,2.15-1.123c0.632-0.291,2.36,0.333,2.655,0.25
			c0.295-0.083-0.337-0.499-0.337-0.499s0.042-0.25,0-0.416c-0.042-0.166-0.273-0.624-0.273-0.624s-0.106-0.416-0.004-0.541
			c0.102-0.125-1.703-0.915-1.703-0.915l0.042-0.494c0,0-1.18-0.879-1.686-1.087c-0.506-0.208-1.222-0.208-1.939,0.042
			s-1.391,1.123-1.77,1.04c-0.379-0.083-2.192-1.622-2.192-1.622s0.042-1.165-0.253-1.497c-0.295-0.333-0.674-0.416-0.674-0.416
			s-0.717-1.872-0.717-2.329s-0.969-2.329-0.969-2.329v-0.374l1.122,0.645c0.693,0.268,2.169,0.73,4.023,0.463
			c0.537-0.077,1.858-0.324,3.243-1.233c0.923-0.606,1.497-1.259,1.728-1.539c1.168-1.414,1.494-2.874,1.686-3.785
			c0.379-1.795,0.201-3.338-0.014-4.347c0,0,0.267,0.271,0.815,0.354c0.548,0.083,4.088,1.705,4.088,1.705
			c-0.042-0.291-2.697-2.495-2.697-2.495l0.548-0.083c1.012-0.042,1.349-0.541,1.349-0.541c-0.506-0.083-3.751-1.289-3.498-1.289
			c0.253,0,0.717-0.333,0.717-0.333c1.18-0.333,1.812-2.038,1.812-2.038s-0.843,0.457-1.897,0.624
			c-1.054,0.166-1.349-0.125-1.349-0.125c-0.674-0.998-3.498-3.036-5.1-3.785s-3.709-0.457-4.721-0.374
			c-1.012,0.083-2.824,0.957-2.824,0.957c-0.211-0.25,0.042-1.289,0.042-1.289s-0.295,0.208-0.464,0.499
			c-0.169,0.291-0.169,0.938-0.169,0.938L16.865,4.75c-0.59-0.125-1.222,0.416-1.222,0.416c0.295-0.25,1.054,0.25,1.054,0.25
			s-1.812,1.165-3.287,2.579s-1.728,4.159-1.433,6.696s3.709,5.074,3.709,5.074l-0.084,0.707c0,0-0.379-0.042-0.59,0.125
			c-0.211,0.166-0.169,0.541-0.169,0.541l-1.349,1.331c-1.939,1.872-4.13,8.734-4.383,8.9c-0.253,0.166-1.517,2.329-1.517,3.452
			c0,1.123,1.138,1.913,1.138,1.913s-1.096,3.036,0.337,4.866c1.433,1.83,2.487,2.08,4.678,2.454s7.713-1.289,7.713-1.289
			l0.464,0.083C22.345,42.93,25,42.597,25,42.597s0.59,0.333,1.054,0.166s1.517-3.535,1.517-3.535l6.111,2.204
			c0,0,0.126,0.499,0.379,0.749s1.138,0.125,1.138,0.125s0.253,0.291,0.59,0.457c0.337,0.166,0.674,0,0.674,0l0.464,0.541
			c1.18,1.289,2.318,1.165,3.667,0.665s2.15-2.329,2.15-2.329C45.61,36.483,43.713,32.782,43.292,32.407z M26.124,30.345
			c0.021-0.09,0.058-0.148,0.105-0.186c0.107-0.086,0.276-0.099,0.401-0.059c0.109,0.035,0.11,0.08,0.309,0.227
			c0.207,0.153,0.296,0.169,0.295,0.222c-0.001,0.053-0.095,0.127-0.534,0.208c-0.136-0.005-0.272-0.009-0.407-0.014
			c0,0-0.267-0.042-0.347-0.084C25.865,30.617,26.056,30.638,26.124,30.345z M20.912,33.697h-1.054
			c0.042-0.541-0.632-1.206-0.632-1.206v-0.665c0,0,1.391,1.248,1.897,1.539c0.506,0.291,2.782,0.873,3.077,1.165
			c0.005,0.005,0.011,0.009,0.016,0.014C22.459,34.097,20.912,33.697,20.912,33.697z"/>
		<path id="XMLID_24_" class="st3" d="M35.421,38.615c0,0-0.404-0.62-0.404-0.87c0-0.116-0.03-0.291-0.077-0.464
			c-0.177-0.09-0.379-0.18-0.541-0.215c-0.072-0.016-0.137-0.018-0.194-0.011c-0.106,0.103-0.185,0.191-0.185,0.191
			s-0.379,0.305-0.913,0.166c-0.534-0.139-1.967-1.248-2.276-1.58c-0.015-0.016-0.026-0.032-0.038-0.047
			c-0.056-0.021-0.105-0.038-0.145-0.049c-0.516-0.145-1.096-0.069-1.374-0.02l0.63,0.393l4.861,2.506H35.421z"/>
		<path id="XMLID_25_" class="st3" d="M35.284,39.02c0,0-0.126,0.277-0.351,0.527c-0.225,0.25-0.955,0.111-1.602,0
			c-0.646-0.111-2.866-0.665-3.512-1.137c-0.646-0.471-1.321-1.275-1.293-1.83c0.028-0.555,1.124-0.582,1.124-0.582l-0.222-0.307
			c-0.111,0.016-0.2,0.032-0.256,0.043c-0.048,0.009-0.505-0.092-1.18-0.253c-0.503-0.021-0.991-0.002-1.165,0.128
			c-0.406,0.305-0.381,2.274-0.297,2.967c0.037,0.303,0.423,0.792,0.846,1.246c0.119-0.355,0.194-0.595,0.194-0.595l6.111,2.204
			c0,0,0.038,0.147,0.112,0.322c0.753,0.017,0.681-0.394,1.27-0.951C35.709,40.193,35.284,39.02,35.284,39.02z"/>
		<path id="XMLID_23_" class="st3" d="M16.556,14.926c-0.048,0.021,0.149,1.225,0.955,1.636c0.871,0.444,1.166-0.208,1.166-0.208
			c-0.042,0.374-1.307,2.287-2.402,3.286c-0.193,0.176-0.404,0.294-0.62,0.373l-0.055,0.459c0,0-0.379-0.042-0.59,0.125
			c-0.128,0.101-0.162,0.278-0.17,0.402c1.149,0.487,2.884,1.084,4.041,1.5c-0.097-0.195-0.162-0.322-0.162-0.322v-0.374
			l1.122,0.645c0.44,0.17,1.198,0.418,2.168,0.508c0.748,0.078,0.886,0.031,0.897-0.017c0.042-0.17-1.545-0.3-2.585-1.386
			c-1.132-1.183-1.039-2.895-1.012-3.244c0.096-1.218,0.667-2.051,1.124-2.717c0.717-1.044,1.519-1.638,2.164-2.107
			c0.588-0.428,1.539-1.119,2.922-1.525c0,0,0.76-0.223,4.159-0.377l0,0c0,0-0.646-0.676-1.152-0.981
			c-0.506-0.305-2.922,0.166-4.271,0.36c-1.349,0.194-3.793,3.022-3.934,3.161c-0.14,0.139-0.582-1.184-0.582-1.184
			s0.104,0.796,0.189,1.267c0.084,0.471-0.674,1.497-0.871,1.608c-0.197,0.111-0.59,0.333-1.545-0.028
			c-0.459-0.173-0.693-0.49-0.748-0.556C16.609,15.041,16.572,14.919,16.556,14.926z"/>
		<g id="XMLID_7_">
			<path id="XMLID_13_" class="st3" d="M26.062,31.163c0.002,0.003,0.048-0.029,0.123-0.08c-0.038,0.019-0.073,0.04-0.104,0.063
				C26.076,31.15,26.061,31.162,26.062,31.163z"/>
			<path id="XMLID_14_" class="st3" d="M25.849,34.954c-0.291-0.073-0.587-0.147-0.883-0.222c0.595,0.057,1.319,0.031,1.425,0.004
				c0.169-0.042,1.517-0.832,2.15-1.123c0.632-0.291,2.36,0.333,2.655,0.25c0.295-0.083-0.337-0.499-0.337-0.499s0.042-0.25,0-0.416
				c-0.042-0.166-0.273-0.624-0.273-0.624s-0.106-0.416-0.004-0.541c0.102-0.125-1.703-0.915-1.703-0.915
				c-0.084-0.042-0.169-0.083-0.253-0.125c-0.083-0.041-0.208-0.096-0.365-0.139c-0.576-0.157-1.068-0.021-1.25,0.042
				c-0.328,0.112-0.653,0.322-0.824,0.436c0.484-0.248,1.47-0.228,1.47-0.228c0.441,0.009,0.951,0.022,1.307,0.166
				c0.061,0.025,0.19,0.083,0.393,0.152c0.24,0.082,0.282,0.077,0.407,0.139c0.048,0.024,0.218,0.112,0.379,0.291
				c0.131,0.145,0.306,0.404,0.253,0.457c-0.062,0.062-0.342-0.255-0.885-0.444c-0.401-0.139-0.744-0.14-1.026-0.139
				c-0.578,0.003-1.086,0.127-1.082,0.166c0.003,0.027,0.25,0,0.773,0.042c0.269,0.022,0.472,0.05,0.604,0.069
				c0.478,0.069,0.719,0.097,0.941,0.18c0.509,0.191,0.864,0.651,1.04,0.853c0.047,0.054-0.08,0.125-0.142,0.146
				c-0.199,0.065-0.356-0.241-0.743-0.444c-0.264-0.138-0.499-0.158-0.836-0.185c-0.222-0.018-0.548-0.022-0.934,0.061
				c-0.227,0.08-0.473,0.174-0.464,0.208c0.009,0.032,0.237-0.007,0.421-0.028c0.558-0.062,1.093,0.006,1.447,0.111
				c0.608,0.179,1.189,0.624,1.096,0.743c-0.126,0.16-0.379,0.131-0.801,0c-0.421-0.131-1.475-0.036-2.087,0.214
				c-0.612,0.25-1.411,0.624-1.849,0.582c-0.438-0.042-0.616-0.333-0.953-0.796s0.337-0.618,0.379-1.159
				c0.042-0.541-0.253-0.25-0.548-0.208c-0.295,0.042-0.421,0.749-0.843,0.957c-0.421,0.208-1.222-0.042-2.234-0.457
				c-1.012-0.416-2.327-2.121-2.327-2.121s-0.792,0.014-0.974,0.097c-0.183,0.083-0.098,0.457,0,0.693
				c0.055,0.132,0.46,0.584,0.857,1v-0.377c0,0,1.391,1.248,1.897,1.539c0.506,0.291,2.782,0.873,3.077,1.165
				c0.005,0.005,0.011,0.009,0.016,0.014c-0.054-0.014-0.108-0.028-0.162-0.041c0.02,0.024,0.04,0.047,0.062,0.069
				C24.582,35.053,25.382,35.019,25.849,34.954z"/>
		</g>
		<path id="XMLID_3_" class="st3" d="M21.15,29.455c0,0,1.897,1.858,2.557,2.121c0.865,0.345,1.269,0.311,1.461,0.25
			c0.184-0.058,0.357-0.168,0.702-0.388c0.278-0.177,0.327-0.409,0.641-0.558c0.159-0.076,0.333-0.119,0.329-0.135
			c-0.005-0.019-0.245,0.055-0.548,0c-0.191-0.035-0.226-0.088-0.236-0.106c-0.076-0.134,0.101-0.34,0.124-0.365
			c0.033-0.038,0.164-0.191,0.337-0.194c0.163-0.003,0.256,0.167,0.464,0.333c0.179,0.143,0.613,0.226,1.475,0.388
			c0.298,0.056,0.39,0.069,0.393,0.055c0.008-0.03-0.442-0.139-1.082-0.416c-0.586-0.254-0.88-0.38-0.983-0.485
			c-0.069-0.07-0.196-0.199-0.355-0.201c-0.064-0.001-0.137,0.041-0.244,0.16c-0.286,0.319-0.37,0.471-0.399,0.679
			c-0.025,0.185,0.243,0.15,0.275,0.239c0.005,0.014,0.002,0.026,0,0.038c-0.037,0.23-0.43,0.471-0.43,0.471
			c-0.233,0.143-0.439,0.27-0.702,0.319c-0.511,0.095-0.965-0.152-1.335-0.374C22.608,30.691,21.75,29.989,21.15,29.455z"/>
		<path id="XMLID_12_" class="st4" d="M38.951,38.105c-0.169-0.291-0.717-0.374-1.096-0.665c-0.293-0.225-0.586-0.475-0.821-0.692
			c-0.131,0.308-0.233,0.567-0.233,0.567l-0.337,0.208c0,0-0.253-0.208-0.379-0.291s-0.717,0.291-0.717,0.291
			s-0.59-0.374-0.969-0.457c-0.165-0.036-0.291-0.001-0.379,0.049v0.242c0,0,0.801,0.582,0.801,0.915
			c0,0.333,0.337,0.416,0.464,0.749s-0.042,1.58-0.295,1.913c-0.253,0.333-0.674,0.582-0.969,0.624
			c-0.079,0.011-0.192-0.008-0.309-0.03c0.05,0.157,0.167,0.471,0.351,0.654c0.253,0.25,1.138,0.125,1.138,0.125
			s0.253,0.291,0.59,0.457c0.337,0.166,0.674,0,0.674,0l0.464,0.541c0.117,0.127,0.233,0.241,0.349,0.341l0.831-1.007
			c0,0,1.517,1.289,1.18-1.622C38.951,38.105,39.119,38.396,38.951,38.105z"/>
		<path id="XMLID_33_" class="st5" d="M37.181,40.822c0.383-0.401,0.429-0.677,0.393-0.86c-0.04-0.202-0.176-0.266-0.169-0.499
			c0.004-0.149,0.061-0.18,0.169-0.555c0.077-0.268,0.068-0.323,0.056-0.36c-0.064-0.205-0.35-0.282-0.45-0.305
			c-0.416,0.424-0.749,0.508-0.983,0.499c-0.497-0.018-0.821-0.459-1.293-0.333c-0.02,0.005-0.036,0.013-0.054,0.019
			c0.067,0.167,0.233,0.269,0.351,0.437c0.068,0.025,0.141,0.064,0.209,0.126c0.04,0.036,0.18,0.173,0.225,0.527
			c0.078,0.615-0.215,1.22-0.214,1.22c0,0,0.061-0.063,0.144-0.163c0.11-0.131,0.228-0.291,0.281-0.38
			c0.049-0.084,0.171-0.33,0.098-0.788c0.311,0.243,0.393,0.469,0.417,0.61c0.056,0.32,0.202,0.826-0.417,1.192
			c-0.281,0.166-0.311,0.776-0.311,0.776s0.333-0.749,0.729-0.998c0.396-0.25,0.137-1.691,0-1.83
			c-0.137-0.139,0.545-0.25,0.555-0.194c0.005,0.026,0.043,0.016,0.088,0.041c0.137,0.077,0.139,0.27,0.146,0.347
			c0.043,0.465,0.248,0.474,0.225,0.832C37.357,40.498,37.181,40.822,37.181,40.822z"/>
		<path id="XMLID_11_" class="st6" d="M43.292,32.407c-0.421-0.374-1.307-0.333-1.307-0.333s-0.674-0.665-1.096-0.665
			s-0.927-0.083-2.15,0.832c-1.222,0.915-0.927,2.994-0.927,2.994s-0.084,0.291-0.295,0.541c-0.211,0.25-0.717,1.539-0.717,1.539
			l-0.225,0.139c0.239,0.38,0.492,0.766,0.604,0.943c0.211,0.333,0.05,0.541,0.383,0.707s0.375,1.123,0.291,1.539
			c-0.084,0.416-1.433,1.664-1.475,2.038c-0.004,0.04-0.011,0.08-0.018,0.121c0.064-0.019,0.103-0.038,0.103-0.038l0.464,0.541
			c1.18,1.289,2.318,1.165,3.667,0.665s2.15-2.329,2.15-2.329C45.61,36.483,43.713,32.782,43.292,32.407z"/>
		<path id="XMLID_26_" class="st7" d="M39.337,35.054c0.02,0.402,0.137,0.69-0.021,1.127c-0.142,0.393-0.316,0.38-0.534,0.816
			c-0.283,0.568-0.108,0.831-0.335,1.414c-0.095,0.245-0.28,0.594-0.679,0.961c0,0,0.001,0.003,0.002,0.006
			c0.054,0.138,0.088,0.31,0.106,0.488c0.049,0.328,0.064,0.738-0.108,0.97c-0.249,0.411-0.942,1.114-1.244,1.554v0
			c-0.059,0.373,1.107-0.347,1.472-0.847s0.257-0.721,0.452-1.553c0.101-0.431,0.326-1.247,0.978-2.858
			c0.856-2.114,1.161-2.412,1.493-2.604c0.169-0.098,0.746-0.432,1.293-0.222c0.061,0.024,0.309,0.126,0.534,0.444
			c0.243,0.342,0.449,0.92,0.14,2.523c-0.147,0.765-0.324,1.651-0.871,2.773c-0.55,1.127-0.918,1.881-1.798,2.412
			c-0.174,0.105-0.862,0.51-1.77,0.555c-0.524,0.026-1.127-0.068-1.405-0.111c-0.219-0.034-0.404-0.071-0.544-0.101l0.431,0.503
			c1.18,1.289,2.318,1.165,3.667,0.665s2.15-2.329,2.15-2.329c2.866-5.157,0.969-8.859,0.548-9.233s-1.307-0.333-1.307-0.333
			c-0.815,0.056-1.307,0.379-1.517,0.541C39.754,33.165,39.293,34.159,39.337,35.054z"/>
		<path id="XMLID_20_" class="st8" d="M43.376,32.407c-0.185-0.164-0.459-0.248-0.708-0.291c0.205,0.352,0.451,0.838,0.641,1.413
			c0.052,0.158,0.28,0.904,0.306,1.945c0.111,4.435-2.248,7.178-2.248,7.178C41,43.08,40.401,43.693,39.509,44.29
			c0.375-0.054,0.763-0.17,1.17-0.32c1.349-0.499,2.15-2.329,2.15-2.329C45.694,36.483,43.798,32.782,43.376,32.407z"/>
		<path id="XMLID_10_" class="st9" d="M27.697,37.632c-0.169-0.983-0.337-1.565-0.548-1.856c-0.211-0.291-3.667-0.998-4.088-1.123
			c-0.26-0.077-1.068-0.504-1.727-0.848c-0.267-0.069-0.423-0.109-0.423-0.109h-1.054c0.008-0.097-0.008-0.197-0.039-0.297
			c-1.039,0.155-3.059,0.635-4.218,0.921c-1.517,0.374-6.912,1.456-6.912,1.456s-0.228,0.146-0.478,0.478
			c0.267,0.303,0.52,0.479,0.52,0.479s-1.096,3.036,0.337,4.866c1.433,1.83,2.487,2.08,4.678,2.454s7.713-1.289,7.713-1.289
			l0.464,0.083C22.345,42.93,25,42.597,25,42.597s0.59,0.333,1.054,0.166c0.346-0.124,1.021-2.033,1.341-2.992
			C27.608,38.964,27.778,38.102,27.697,37.632z"/>
		<path id="XMLID_4_" class="st10" d="M21.108,33.332c-0.45,0.924-0.899,1.848-1.349,2.773c0,0-0.056,0.883,0.169,0.996
			c0.225,0.113,0.257,0.137,1.407,0c1.15-0.137,12.375-2.079,12.375-2.079s0.548-0.83,0.632-1.108s5.254-10.758,5.254-10.758
			s-0.084-0.188-0.45-0.191c-0.365-0.003-5.451,0-5.451,0l-3.672,8.41c0.173,0.174,0.408,0.454,0.581,0.848
			c0.069,0.157,0.463,1.054,0.14,1.359c-0.269,0.254-0.706-0.216-1.574-0.139c-0.554,0.049-0.988,0.295-1.742,0.721
			c-0.467,0.264-0.715,0.464-1.208,0.555c-0.343,0.063-0.634,0.04-0.787,0.028c-0.445-0.037-0.739-0.148-1.18-0.305
			c-1.034-0.368-0.519-0.148-1.798-0.61C22.124,33.711,21.662,33.542,21.108,33.332z"/>
		<path id="XMLID_30_" class="st11" d="M30.845,32.953c0.046,0.248,0.042,0.495-0.099,0.628c-0.269,0.254-0.706-0.216-1.574-0.139
			c-0.554,0.049-0.988,0.295-1.742,0.721c-0.467,0.264-0.715,0.464-1.208,0.555c-0.343,0.063-0.634,0.04-0.787,0.028
			c-0.445-0.037-0.739-0.148-1.18-0.305c-1.034-0.368-0.519-0.148-1.798-0.61c-0.333-0.12-0.795-0.289-1.349-0.499
			c-0.45,0.924-0.899,1.848-1.349,2.773c0,0-0.013,0.208-0.001,0.435c2.559-0.414,13.432-2.122,13.432-2.122L30.845,32.953z"/>
		<path id="XMLID_31_" class="st12" d="M30.569,33.656c-0.277,0.017-0.696-0.276-1.396-0.214c-0.554,0.049-0.988,0.295-1.742,0.721
			c-0.467,0.264-0.715,0.464-1.208,0.555c-0.343,0.063-0.634,0.04-0.787,0.028c-0.445-0.037-0.739-0.148-1.18-0.305
			c-1.034-0.368-0.519-0.148-1.798-0.61c-0.142-0.051-0.308-0.112-0.494-0.18l-0.813,2l10.124-1.455L30.569,33.656z"/>
		<path id="XMLID_9_" class="st13" d="M20.059,33.697h-0.201c0.042-0.541-0.632-1.206-0.632-1.206c0-0.222,0-0.444,0-0.665
			c-0.052-0.069-0.103-0.139-0.155-0.208c-0.295-0.262-0.641-0.624-0.543-0.852c0.051-0.119,0.2-0.164,0.325-0.188
			c0.781-0.146,1.652-0.95,2.396-1.622c0.053-0.048,0.106-0.096,0.16-0.144c-0.048-0.04-0.075-0.063-0.075-0.063
			s0.042-1.165-0.253-1.497c-0.295-0.333-0.674-0.416-0.674-0.416s-0.717-1.872-0.717-2.329c0-0.354-0.58-1.554-0.843-2.079
			c-0.092-0.016-0.216-0.047-0.422-0.125c-0.355-0.136-0.898-0.391-2.529-1.747c-0.101-0.084-0.194-0.162-0.277-0.232l-0.018,0.149
			c0,0-0.379-0.042-0.59,0.125c-0.211,0.166-0.169,0.541-0.169,0.541l-1.349,1.331c-1.939,1.872-4.13,8.734-4.383,8.9
			c-0.253,0.166-1.517,2.329-1.517,3.452c0,1.123,1.138,1.913,1.138,1.913s-0.009,0.025-0.024,0.071
			c0.857,0.262,1.905,0.51,3.161,0.719c3.98,0.665,7.021-1.913,7.611-2.329C19.833,34.944,19.99,34.228,20.059,33.697z"/>
		<path id="XMLID_27_" class="st14" d="M21.333,28.747c0,0,0.042-1.165-0.253-1.497c-0.295-0.333-0.674-0.416-0.674-0.416
			s-0.717-1.872-0.717-2.329c0-0.299-0.415-1.204-0.702-1.793c-0.888-0.702-2.731-1.159-3.203-1.336
			c-0.479-0.18-0.633,0.399-0.352,0.676c0.281,0.277,0.197,0.776-0.164,1.497c-0.361,0.721,1.12,1.83,1.12,1.608
			s-0.365-1.303,0.337-2.16c0.702-0.857,1.854,0.663,2.332,1.383c0.478,0.721,0.618,2.274,1.264,3.105
			c0.371,0.477,0.483,0.525,0.521,0.611c0.083,0.184,0.055,0.371,0.041,0.443c-0.034,0.169-0.175,0.486-1.433,1.22
			c-0.484,0.282-0.801,0.432-0.955,0.314c-0.075-0.057-0.186-0.197-0.235-0.37c-0.15-0.527-0.609-0.305-1.677-1.497
			c-1.068-1.192-1.658-5.185-1.744-4.27c-0.086,0.915,0.507,3.327,0.058,3.05c-0.45-0.277-1.377-1.22-1.321-0.86
			c0.056,0.36,0.899,0.943,1.433,1.553c0.534,0.61,0.731,0.887,0.843,1.47s0.169,1.248,1.012,1.691
			c0.843,0.444,0.983,0.416,1.293,1.024c0.089,0.175,0.117,0.323,0.097,0.457c-0.017,0.112-0.049,0.511-0.883,0.959
			c-1.091,0.586-1.679,0.265-3.4,0.665c-1.462,0.34-2.194,0.511-2.529,0.665c-0.182,0.084-0.637,0.306-1.124,0.166
			c-0.049-0.014-0.373-0.111-0.562-0.36c-0.33-0.435-0.08-1.114,0.225-1.913c0.878-2.298,1.316-3.447,1.461-3.799
			c0.436-1.057,0.444-1.152,0.702-1.775c0.492-1.183,1.308-2.865,2.696-4.88c0.026-0.186,0.071-0.601-0.005-0.909l-1.342,1.325
			c-1.939,1.872-4.13,8.734-4.383,8.9c-0.253,0.166-1.517,2.329-1.517,3.452c0,1.123,1.138,1.913,1.138,1.913
			s-0.009,0.025-0.024,0.071c0.62,0.19,1.34,0.371,2.165,0.537c0.886,0.221,1.63,0.267,2.144,0.266
			c1.619-0.002,2.826-0.459,3.737-0.804c0.067-0.025,0.758-0.291,1.602-0.776c0.838-0.483,1.11-0.77,1.293-1.054
			c0.205-0.318,0.294-0.626,0.338-0.834c0.015-0.072,0.029-0.148,0.042-0.226c0.012-0.074,0.023-0.146,0.032-0.216h-0.201
			c0.042-0.541-0.632-1.206-0.632-1.206c0-0.19,0-0.38,0-0.57c-0.243-0.29-0.415-0.55-0.534-0.747
			c-0.133-0.222-0.172-0.32-0.14-0.416c0.079-0.243,0.544-0.275,0.59-0.277c0.297-0.101,0.703-0.275,1.124-0.582
			C20.813,29.498,21.147,29.047,21.333,28.747z"/>
		<path id="XMLID_8_" class="st15" d="M11.976,14.69c0.461,1.731,1.478,2.968,1.965,3.488c0.89,0.951,1.744,1.586,1.744,1.586
			l-0.013,0.105c0.362-0.051,0.93-0.231,1.403-0.854c0.632-0.832,1.602-2.662,1.602-2.662s-1.054,0.042-1.475-0.499
			c-0.707-0.907-0.409-2.325,0.253-3.036c0.142-0.152,0.413-0.435,0.843-0.499c0.421-0.062,0.762,0.12,0.927,0.208
			c0.149,0.08,0.445,0.247,0.638,0.59c0.092,0.164,0.145,0.352,0.163,0.575c0.042,0.541,0,0.957,0,0.957s-0.042,0.25,0.421-0.166
			c0.464-0.416,2.023-2.246,3.667-2.745c1.644-0.499,3.793-0.79,4.973-0.416c0.841,0.267,1.254,0.555,1.422,0.698
			c-0.001-0.004-0.002-0.008-0.002-0.012c0,0,0.267,0.271,0.815,0.354c0.548,0.083,4.088,1.705,4.088,1.705
			c-0.042-0.291-2.697-2.495-2.697-2.495l0.548-0.083c1.012-0.042,1.349-0.541,1.349-0.541c-0.506-0.083-3.751-1.289-3.498-1.289
			c0.253,0,0.717-0.333,0.717-0.333c1.18-0.333,1.812-2.038,1.812-2.038s-0.843,0.457-1.897,0.624
			c-1.054,0.166-1.349-0.125-1.349-0.125c-0.444-0.738-1.839-2.83-4.566-3.84c-2.301-0.852-4.349-0.49-5.254-0.319
			c-1.223,0.232-2.184,0.636-2.824,0.957c-0.211-0.25,0.042-1.289,0.042-1.289s-0.295,0.208-0.464,0.499
			c-0.169,0.291-0.169,0.938-0.169,0.938L16.865,4.75c-0.59-0.125-1.222,0.416-1.222,0.416c0.295-0.25,1.054,0.25,1.054,0.25
			c-0.712,0.293-1.938,0.909-3.007,2.135C11.978,9.514,11.335,12.281,11.976,14.69z"/>
		<path id="XMLID_22_" class="st16" d="M38.81,35.748c-0.582-0.25-0.874-0.341-0.987-0.61c-0.015-0.036-0.024-0.067-0.028-0.085
			c0.009,0.114,0.018,0.182,0.018,0.182s-0.084,0.291-0.295,0.541c-0.147,0.174-0.438,0.854-0.6,1.25
			c0.209,0.366,0.542,0.821,0.764,0.912c0.337,0.139,1.068,0.388,1.433,0.194c0.376-0.2,0.893-0.484,0.859-0.804
			c-0.024-0.222-0.276-0.219-0.434-0.581c-0.139-0.318-0.011-0.473-0.169-0.693C39.329,35.994,39.281,35.951,38.81,35.748z"/>
		<path id="XMLID_6_" class="st8" d="M39.425,36.053c0,0-0.699,0.8-0.811,1.079c-0.112,0.279-0.028,0.835,0,1.07
			c0.028,0.235,0.618,1.205,0.955,1.344c0.337,0.139,1.068,0.388,1.433,0.194s0.791-0.444,0.859-0.804s0.129-1.054,0-1.275
			c-0.129-0.222-0.129-0.194-0.803-0.388c-0.674-0.194-1.293-0.33-1.349-0.526C39.653,36.553,39.425,36.053,39.425,36.053z"/>
		<polygon id="XMLID_21_" class="st17" points="30.313,31.562 33.387,33.4 38.136,23.576 34.034,23.576 		"/>
		<path id="XMLID_28_" class="st18" d="M29.565,16.715c-0.324,0.611-0.907,0.94-1.302,0.736s-0.453-0.865-0.13-1.475
			c0.324-0.611,0.907-0.94,1.302-0.736S29.889,16.104,29.565,16.715z"/>
		<ellipse id="XMLID_29_" class="st15" cx="28.774" cy="17.109" rx="0.407" ry="0.402"/>
		<g id="XMLID_34_">
			<path id="XMLID_54_" class="st19" d="M27.046,21.248c-0.579-0.307-1.101-0.871-1.402-1.44c-0.108-0.206-0.456-0.112-0.445,0.119
				c0.031,0.663,0.113,1.34,0.54,1.867c0.044,0.054,0.147,0.01,0.142-0.058c-0.051-0.609-0.221-1.19-0.204-1.81
				c-0.148,0.04-0.297,0.079-0.445,0.119c0.172,0.353,0.425,0.672,0.727,0.926c0.3,0.253,0.643,0.345,1.02,0.433
				C27.072,21.426,27.136,21.295,27.046,21.248L27.046,21.248z"/>
		</g>
		<g id="XMLID_35_">
			<path id="XMLID_52_" class="st15" d="M17.684,14.127c0.215-0.286,0.583-0.356,0.918-0.417c-0.036-0.046-0.071-0.092-0.107-0.137
				c-0.243,0.339-0.663,0.767-0.352,1.191c0.216,0.294,0.65,0.296,0.861,0.006c0.042-0.058-0.04-0.133-0.097-0.096
				c-0.258,0.165-0.688,0.138-0.687-0.253c0.001-0.268,0.286-0.544,0.439-0.754c0.052-0.072-0.034-0.152-0.107-0.137
				c-0.387,0.079-0.771,0.183-1.011,0.515C17.478,14.131,17.621,14.21,17.684,14.127L17.684,14.127z"/>
		</g>
		<g id="XMLID_37_">
			<path id="XMLID_51_" class="st15" d="M30.504,14.839c-0.045-0.239-0.107-0.421-0.262-0.613c-0.152-0.188-0.337-0.304-0.574-0.359
				c-0.112-0.026-0.229,0.126-0.123,0.209c0.296,0.228,0.636,0.492,0.822,0.82C30.41,14.973,30.519,14.918,30.504,14.839
				L30.504,14.839z"/>
		</g>
		<g id="XMLID_32_">
			<path id="XMLID_5_" class="st19" d="M27.78,19.95c0.074,0.263,0.358,0.418,0.627,0.377c0.246-0.037,0.488-0.276,0.408-0.536
				c-0.012-0.04-0.069-0.06-0.099-0.026c-0.096,0.11-0.192,0.227-0.341,0.267c-0.168,0.044-0.306-0.071-0.404-0.192
				C27.897,19.748,27.751,19.848,27.78,19.95L27.78,19.95z"/>
		</g>
		<path id="XMLID_15_" class="st11" d="M30.447,31.336c1.195-2.587,2.391-5.173,3.586-7.76h4.102L33.387,33.4l-3.074-1.838
			c0.087,0.067,0.174,0.134,0.261,0.201c-0.004,0.024-0.007,0.049-0.011,0.073c0.309,0.224,0.618,0.449,0.927,0.676
			c0.678,0.497,1.348,0.994,2.009,1.49c1.901-3.668,3.803-7.336,5.704-11.005H33.71l-3.686,8.41c0.06,0.032,0.12,0.064,0.181,0.096
			c0.035,0.021,0.07,0.042,0.105,0.062C30.356,31.489,30.402,31.413,30.447,31.336z"/>
	</g>
</g>
</svg>
