<?xml version="1.0" encoding="utf-8"?>
<!-- Generator: Adobe Illustrator 19.0.0, SVG Export Plug-In . SVG Version: 6.00 Build 0)  -->
<svg version="1.1" id="Layer_2" xmlns="http://www.w3.org/2000/svg" xmlns:xlink="http://www.w3.org/1999/xlink" x="0px" y="0px"
	 viewBox="224 -165.9 948 831.9" style="enable-background:new 224 -165.9 948 831.9;" xml:space="preserve">
<style type="text/css">
	.st0{fill:#FFFFFF;}
	.st1{clip-path:url(#SVGID_2_);}
	.st2{fill:#232223;}
	.st3{fill:#B6A9B4;}
	.st4{fill:#421C12;}
	.st5{fill:#CC9466;}
	.st6{fill:#F7B27F;}
	.st7{fill:#13110F;}
	.st8{fill:#594847;}
	.st9{fill:#2D1B33;}
	.st10{fill:#A87E7C;}
	.st11{fill:#EF8678;}
	.st12{fill:#7A362E;}
	.st13{fill:#FCF5F0;}
	.st14{fill:#845938;}
</style>
<g>
	<path d="M256.6,650.2c-4.4,0-8-3.6-8-8V538.9c0-4.1,3.1-7.5,7.1-8c0,0,8.6-1.1,17.4-6.9c8.2-5.4,16.6-9.4,26.4-14.1
		c3.7-1.8,7.4-3.6,11.5-5.6c8.8-4.4,24.5-9.3,41.1-14.5c12.9-4,26.3-8.2,36.8-12.2c7.7-3,16.2-6.7,25.3-10.7
		c19.5-8.5,39.7-17.4,57.7-21.5c12.4-2.8,20.3-6.1,24.9-8.4c0.4-0.3,0.7-0.6,1.1-0.9c0.3-0.3,0.6-0.5,0.9-0.8
		c0.1-0.1,0.3-0.2,0.4-0.3c1-0.7,1.9-1.3,2.7-1.8c0.4-0.2,0.7-0.5,1.1-0.7c0,0,0.1-0.1,0.1-0.1c0.4-0.3,0.9-0.6,1.3-0.8
		c0.6-0.4,1.3-0.8,1.9-1.2c4-2.8,7.7-6,11.9-9.7c4-3.6,7.9-7.4,11.6-11.1c6.4-6.5,12.9-13.2,19.1-20.1c-4.7-14.4-8.5-26.9-11-35.4
		c-14.1-22.1-24.1-52.5-29.5-71.6c-2.8,1.7-5.5,2.1-7.5,2.1c-5.6,0-11.4-3.3-15.5-8.9c-3.9-5.3-5.3-11.2-3.8-16
		c1.1-3.6,0.1-6-4.6-14.6c-0.6-1-1.1-2.1-1.8-3.2c-5.8-10.7-9.2-24.7-12-36l-0.4-1.7c-3.4-13.8-0.7-31.8,1.8-39.9
		c0.6-2,0.2-4-0.6-7.7c-0.9-4.3-2.1-9.8-1.1-16.7c1.4-9.3,7.6-12.6,12.9-12.6c0,0,0,0,0.1,0c-5.8-26.4-15.2-82.7-1.9-124
		c16.2-50.4,30.4-78.4,49.1-96.8c18.9-18.5,60.2-36.6,113.2-49.5c14.8-3.6,26.5-5.3,36.7-5.3c18.9,0,31.1,5.9,46.5,13.3
		c6.4,3.1,13.6,6.6,22.3,10.2c7.9,3.2,14.5,5.5,20.3,7.5c26.7,9.3,38.8,14.8,73.2,59.9c36.2,47.5,38.4,121.8,35.7,154.3
		c0.1,0,0.3,0,0.4,0c0.4,0,0.8,0,1.2,0c4.2,0,8.1,1.9,10.9,5.2c3,3.6,4.5,8.7,3.7,12.9c-0.9,4.9-2.2,6.6-5.9,11.3
		c0,0-0.6,0.8-0.7,0.9c0.1,0.2,0.1,0.3,0.2,0.5c0.2,0.5,0.5,1.1,0.8,1.8c0.5,1.3,1.1,2.5,1.9,3.9c2,4,4.4,9,7,17.7
		c4,13.4,1.3,31.1-1.7,43.5c-1.1,4.6-2,8.6-2.7,12.2c-1.3,5.9-2.3,10.6-3.8,14.9c-0.1,0.5,0.4,2.2,0.7,3.3
		c1.2,4.4,3.1,11.1-1.2,19.3c-1.8,3.6-6.6,9.5-17.9,9.5c-1.4,0-2.8-0.1-4.2-0.2c-3.3,20.6-6.4,36.4-9.7,49.1
		c-1,7.3-5.5,39.2-10.2,72.7c7.6,9,14.7,17.2,21.6,25c4.3,4.9,8.2,9.3,12.1,13.6c4.5,4.9,8.3,9,12.3,12.8c0.1,0,0.1,0.1,0.2,0.2
		c0.2,0.2,0.5,0.5,0.9,0.8c0,0,0.8,0.7,1,0.9c0.2,0.2,0.5,0.4,0.7,0.6c0,0,3.8,3,3.8,3l7.2,5.8c4.8,3.9,8.8,7.2,12.4,10.3
		c5.6,1.5,13.4,3.6,22.4,6c7.5,2,23.5,5.4,40.5,9c31.1,6.7,53.7,11.6,61,14.4c3.8,1.4,9,3.3,15.1,5.5c13.4,4.8,30.1,10.8,43.6,16.6
		c11.5,4.9,24.3,11.4,34.3,17.3c19,11.3,23.2,17.6,24.7,21.9c0.3,0.9,0.5,1.8,0.5,2.7v100.7c0,4.4-3.6,8-8,8l-231,0H256.6z"/>
	<path class="st0" d="M673.1-140.4c24.5,0,36.1,10.8,65.8,22.9c40.8,16.7,47.5,8.9,90.2,64.9c42.7,56,35.7,152.2,32.2,161.9
		c0,0,5.7-4,10.9-4.5c0.2,0,0.3,0,0.5,0c4.8,0,7.3,5.7,6.7,8.6c-0.6,3.1-1,3.5-4.7,8.3c-3.7,4.8-2.6,5.6-0.4,10.8
		c2.2,5.2,5.2,9.6,8.5,20.8c3.3,11.1,1.1,27.1-1.9,39.3c-3,12.2-4.1,20-6.3,26.3c-2.2,6.3,4.8,12.2,0,21.5
		c-2.1,4.1-6.5,5.2-10.8,5.2c-3.8,0-7.6-0.9-9.4-1.5c-0.5,0.8-1.1,1.3-1.6,1.7c-3.8,24.3-7.2,41.6-10.7,55.1
		c-0.8,5.7-5.8,40.8-10.7,76.7l0,0.1c-1.2,8.4-2.3,16.9-3.4,25.1l3.4-25.1c0,0,0-0.1,0-0.1c7.9,9.4,15.9,18.7,24,27.9
		c4,4.6,8.1,9.2,12.3,13.7c4.1,4.5,8.3,9,12.7,13.2c0.5,0.5,1.1,1,1.7,1.5c0.6,0.5,1.1,1,1.7,1.5l3.6,2.8l7.2,5.7
		c4.6,3.7,9.1,7.4,13.5,11.3c5.7,1.5,14.2,3.8,24.2,6.5c18.9,5,88.5,18.5,100.7,23.2c12.2,4.7,39,13.6,58.4,21.9
		c19.5,8.3,51.2,25,54.5,34.5c0,29.5,0,100.7,0,100.7h-231h-95.7H604.1h-17.1h-92.4h-28.8H256.6V538.9c0,0,10.2-1.1,21-8.2
		c10.8-7.1,22.3-11.9,37.1-19.3c14.8-7.4,53.1-17.1,77.2-26.4c24.1-9.3,56.2-25.9,81.8-31.8c13.7-3.1,22.4-6.8,27.6-9.6
		c0.9-0.8,1.8-1.5,2.7-2.2c1.1-0.8,2.3-1.5,3.5-2.3c1.1-0.7,2.3-1.4,3.4-2.2c4.5-3.1,8.6-6.7,12.7-10.4c4.1-3.7,8-7.5,11.9-11.4
		c7.7-7.8,15.3-15.7,22.6-23.9l0,0l0,0c-5.5-16.5-9.9-30.9-12.7-40.7c-16.9-25.9-27.8-64.5-32-81.2c-1.2-0.5-2.3-1.4-3.3-2.6
		c-2.2,7.1-5.6,9.6-9,9.6c-6.6,0-13.2-9.6-11.7-14.5c2.5-8.1-1.4-13.6-7-23.9c-5.6-10.3-8.9-24.5-11.7-35.9
		c-2.8-11.4-0.8-27.6,1.7-35.6c2.5-8.1-3.1-14.5-1.4-25.6c0.6-4.3,2.7-5.7,5-5.7c3.7,0,8.3,3.8,9.5,5.8c0.6,1.1,2.3,3.1,4.4,5.2
		c-0.2-0.2-0.4-0.5-0.7-0.7c-0.4-1.1-0.9-2.7-1.6-4.8l0,0l0,0c0-0.2-0.1-0.3-0.1-0.5l-0.1-0.4h0C481,118,467.4,50.2,481.7,5.7
		c16-49.7,29.7-76.4,47.1-93.5s56.4-34.5,109.5-47.5C652.8-138.9,663.8-140.4,673.1-140.4 M831.5,377.9
		C831.5,377.9,831.5,377.9,831.5,377.9C831.5,377.9,831.5,377.9,831.5,377.9C831.5,377.9,831.5,377.9,831.5,377.9
		C831.5,377.9,831.5,377.9,831.5,377.9 M558.1,391.4c0,0-0.2,0.2-0.5,0.5c-0.3,0.3-0.6,0.6-0.8,0.9c0.3-0.4,0.6-0.7,0.8-0.9
		C557.8,391.7,557.9,391.6,558.1,391.4 M827.9,403C827.9,403,827.9,403,827.9,403C827.9,403,827.9,403,827.9,403
		C827.9,403,827.9,403,827.9,403 M565.5,412.6c-0.4-1-0.7-1.9-1.1-2.9l0,0.1c0,0-0.3,0.7-0.8,2.1L565.5,412.6 M673.1-156.4
		C673.1-156.4,673.1-156.4,673.1-156.4c-10.9,0-23.2,1.8-38.6,5.5c-55.1,13.5-96.6,31.8-116.9,51.6C497.9-80,483.1-51,466.5,0.8
		c-6.9,21.4-8.7,49-5.6,82c1.3,14,3.4,27.4,5.7,38.7c-5.5,2.8-10.1,8.4-11.4,17.1c-1.3,8.4,0.1,14.9,1.2,19.6
		c0.3,1.3,0.7,3.1,0.7,3.8c-2.9,9.4-5.7,28.7-1.9,44l0.4,1.7c2.9,11.7,6.5,26.4,12.8,37.9c0.6,1.1,1.2,2.2,1.8,3.3
		c1.7,3,3.7,6.8,4,8.2c0,0,0,0.1,0,0.1c-2.3,7.3-0.4,15.7,5,23.1c5.7,7.7,13.7,12.2,22,12.2c0.6,0,1.3,0,2.1-0.1
		c6,19.9,15.2,45.1,27.6,64.9c2.2,7.6,5.4,18.1,9.3,30.1c-5.2,5.6-10.4,11.1-15.8,16.4c-3.8,3.7-7.4,7.3-11.3,10.8
		c-3.9,3.4-7.4,6.5-11,9c-0.5,0.3-1.1,0.7-1.7,1c-0.5,0.3-0.9,0.6-1.4,0.9c-0.1,0.1-0.2,0.1-0.3,0.2c-0.3,0.2-0.6,0.4-1,0.6
		c-0.9,0.6-2,1.3-3.2,2.2c-0.3,0.2-0.5,0.4-0.8,0.6c-0.3,0.2-0.6,0.5-0.8,0.7c-0.1,0.1-0.3,0.2-0.4,0.4c-4.3,2.1-11.4,4.9-22.3,7.4
		c-18.7,4.3-40.2,13.7-59.1,21.9c-9,3.9-17.4,7.6-24.9,10.5c-10.2,4-23.5,8.1-36.3,12.1c-16.9,5.3-32.9,10.2-42.3,14.9
		c-4,2-7.8,3.8-11.4,5.6c-10,4.8-18.7,9-27.3,14.7c-7.1,4.7-13.9,5.6-13.9,5.6c-8.1,0.9-14.3,7.7-14.3,15.9v103.3
		c0,8.8,7.2,16,16,16h209.3h28.8h92.4h17.1h215.2h95.7h231c8.8,0,16-7.2,16-16V541.5c0-1.8-0.3-3.6-0.9-5.3
		c-2.9-8.3-11.4-16.1-28.1-26.1c-10.3-6.1-23.4-12.7-35.2-17.8c-13.8-5.9-30.6-11.9-44.1-16.7c-6-2.2-11.2-4-14.9-5.4
		c-7.8-3-29.7-7.8-62.2-14.7c-16.9-3.6-32.8-7-40.2-9c-8.2-2.2-15.4-4.1-20.6-5.5c-3.3-2.8-6.9-5.8-11.1-9.2c0,0-0.1,0-0.1-0.1
		l-7.2-5.7c0,0,0,0-0.1-0.1l-3.6-2.8c-0.1-0.1-0.1-0.1-0.2-0.2c-0.1-0.1-0.2-0.2-0.3-0.3c-0.2-0.2-0.5-0.4-0.7-0.6l-0.3-0.3
		c-0.1-0.1-0.3-0.3-0.4-0.4c-0.1-0.1-0.2-0.2-0.3-0.3c-3.8-3.6-7.6-7.6-12-12.4c-3.9-4.2-7.8-8.6-12-13.4
		c-6.1-7-12.5-14.3-19.2-22.2c4.4-32,8.7-62.3,9.6-68.7c2.9-11.5,5.7-25.2,8.6-42.6c10.1-0.7,18.2-5.6,22.4-13.7
		c5.7-10.9,3.1-20.1,1.8-25.1c-0.1-0.2-0.1-0.4-0.2-0.6c1.3-4.2,2.3-8.7,3.4-13.8c0.7-3.5,1.6-7.4,2.7-12
		c3.3-13.4,6.2-32.6,1.6-47.7c-2.8-9.3-5.5-14.8-7.5-18.9c-0.3-0.6-0.5-1.1-0.8-1.6c2.6-3.5,4.2-6.5,5.2-11.9
		c1.2-6.5-0.9-14-5.4-19.4c-2.7-3.3-6.2-5.6-10-6.9c0.6-12.6,0.4-28.7-1.2-45.8c-3-30.6-11.8-73.8-36.6-106.5
		c-17.5-23-29.9-36.5-41.6-45.4c-12.1-9.2-22.9-12.9-35.3-17.3c-5.7-2-12.3-4.3-19.9-7.4c-8.5-3.5-15.6-6.9-21.9-10
		C707.4-149.9,693.8-156.4,673.1-156.4L673.1-156.4z"/>
</g>
<g>
	<defs>
		<rect id="SVGID_1_" x="256.6" y="-151.7" width="889.4" height="793.9"/>
	</defs>
	<clipPath id="SVGID_2_">
		<use xlink:href="#SVGID_1_"  style="overflow:visible;"/>
	</clipPath>
	<g class="st1">
		<path class="st2" d="M507.7,439.6c0,0-8.3,7.8-34,13.6c-25.6,5.9-57.7,22.5-81.8,31.8c-24.1,9.3-62.3,19-77.2,26.4
			c-14.8,7.4-26.3,12.2-37.1,19.3s-21,8.2-21,8.2v382.9h238L507.7,439.6z"/>
		<path class="st2" d="M900.1,453.2c0,0,13.4,3.6,32.3,8.6c18.9,5,88.5,18.5,100.7,23.2c12.2,4.7,39,13.6,58.4,21.9
			c19.5,8.3,51.2,25,54.5,34.5c0,29.5,0,380.3,0,380.3H884.9L900.1,453.2z"/>
		<path class="st3" d="M819.4,921.8c0,0,70.5-292.4,65.3-348.8s-36.4-155.1-46.8-169.2S719.5,469,719.5,469l-165.9-60.7l-20.8,86.8
			l23.7,178.9l30.4,247.9H819.4z"/>
		<path class="st3" d="M555.9,564.1c-5.4-19.2-12-61.6-16.8-95.1l-6.2,26.1l23.7,178.9l30.4,247.9h46
			c-0.7-39.3-37.8-240.4-46.8-265.3C577.4,631.6,565.6,598.2,555.9,564.1z"/>
		<path class="st3" d="M884.7,573c-3.1-33.8-15.6-82.9-27.3-119.8l0,0c-2.1,32.4-6.8,58.9-14.3,95.3c-7.4,36.4-17.8,75-54.2,168.5
			c-36.4,93.5-27.5,204.8-27.5,204.8h57.9C819.4,921.8,889.9,629.4,884.7,573z"/>
		<path class="st3" d="M604.1,691c0,0,12.9-76.3,80.8-136.5c25.6,0.6,33.1,12.5,36.7,17.8c3.6,5.3,77.5,102.7,80.3,110.4
			c-18.9,7.4-28-0.2-34.4-6c-6.4-5.8-0.6-11.7-3.9,33.7c-3.3,45.4-0.3,62.1-6.1,90.4s-6.1,121-6.1,121h-145c0,0,33.4-116,39.5-156.9
			c6.1-40.9,31.7-99.4,35.3-103.8c-5.3-11.7-3.6-13.1-8.6-9.2c-5,3.9-17.3,3.6-17.8,15.9C641,665.6,625.2,674.1,604.1,691z"/>
		<path class="st4" d="M716.2,668c8.9-16.7,24.7-44.7,28.8-63.9l0,0c-12.5-16.9-22.2-29.9-23.4-31.7c-3.5-5.8-18.3-21.3-32.4-19.3
			c-13.3,1.9-19.5,16.7-23.9,20.7c-0.2,0.2-4.4,5.4-4.7,5.3c-3.6,4.2-7,8.4-10.1,12.6c8.1,19.4,23.5,56.2,25.6,58.4c0,0,0,0,0,0
			c1.2,0.4,1.8,3.7,5.1,11.1c-3.6,4.5-29.2,62.9-35.3,103.8c-6.1,40.9-39.5,156.9-39.5,156.9H747c0,0-3.3-104.3-6.3-139.1
			C737.7,747.8,722.5,690.3,716.2,668z"/>
		<path class="st5" d="M541.7,337.4c0,0,18.2,69.4,44.2,124.7s92.3,87.6,98,90.2s26.3,9.3,52.3-13.7s83.5-72.7,89.8-120.2
			c6.3-47.5,16.3-118,16.3-118l-124.7,56c0,0-108,13-115.4,10C594.7,363.4,541.7,337.4,541.7,337.4z"/>
		<path class="st5" d="M826.5,417.4l-11.3,23.9c0,0-11.7,32.1-102.1,111.4c7-2.4,14.9-6.7,23.4-14.2c26-23,83.5-72.7,89.8-120.2
			C826.4,418,826.5,417.7,826.5,417.4z"/>
		<path class="st5" d="M566.7,414.5c5.8,15.7,12.4,32.2,19.6,47.6c26,55.3,92.3,87.6,98,90.2c1.9,0.9,5.6,2.2,10.6,2.7
			c-8-2.9-21.1-8.9-36.2-20.2c-24.9-18.6-55.5-44.2-73.5-81.5C580.6,443.3,572.8,427.1,566.7,414.5z"/>
		<path class="st6" d="M511.4,261.3c0,0,14.5,67.2,40.8,98.7c0,0,36.4,49.4,63.1,59s80.9,7.1,111.7,0c30.8-7.1,71.2-21.2,89.1-56
			s25.6-44.5,37.1-119.1c0,0,16.7,5.9,21.5-3.3c4.8-9.3-2.2-15.2,0-21.5c2.2-6.3,3.3-14.1,6.3-26.3s5.2-28.2,1.9-39.3
			c-3.3-11.1-6.3-15.6-8.5-20.8c-2.2-5.2-3.3-5.9,0.4-10.8c3.7-4.8,4.1-5.3,4.7-8.3c0.6-3.1-2.1-9-7.2-8.6
			c-5.1,0.4-10.9,4.5-10.9,4.5l-2.6-12.7l-16-52.7c0,0-40.4-67.9-40.4-69s-84.2-39.7-84.2-39.7h-69.8h-80.5c0,0-57.5,28.2-58.6,31.2
			c-1.1,3-4.5,43.4-8.2,51.2c-3.7,7.8-12.6,54.5-12.6,54.5l10.4,83.1c0,0-11.5-10.8-13.4-14.1c-1.9-3.3-12.8-11.2-14.5-0.1
			c-1.7,11.1,3.9,17.5,1.4,25.6c-2.5,8.1-4.5,24.2-1.7,35.6c2.8,11.4,6.2,25.6,11.7,35.9c5.6,10.3,9.5,15.9,7,23.9
			C486.8,270.1,506.2,290.6,511.4,261.3z"/>
		<path class="st7" d="M516,270c0,0-6.8-47.2-8.6-64.3c-1.8-17.1-3.6-36.5-0.1-51.2c3.5-14.7-7.4-35.1-1.9-56.5
			c5.4-21.4,18.5-33.1,9.7-56.6c-8.8-23.5,22-51.2,30.3-52.7s14.7-27.1,47.3-26.4s40.6,29.8,106.4,9c24.1-8.3,46.9-8.6,66.1,16.3
			c19.2,24.9,28.7,2.4,46.3,25s23.9,29.4,28.1,54.3c4.2,24.9,8.1,24.2,3.1,46.8c-1.5,8.2,5.4,25,5.8,36.9
			c0.4,11.8,2.2,40.6,1.8,56.5s-0.8,40.2-0.8,40.2s5.8,0.4,7.1-9.6c1.3-10,2.2-55.4,0-75.1c-2.2-19.8-7.2-42.7,4.6-53.2
			c3.4-9.7,10.4-105.8-32.2-161.9s-49.4-48.2-90.2-64.9s-47.5-30.8-100.6-17.8s-92,30.4-109.5,47.5c-17.4,17.1-31.2,43.8-47.1,93.5
			s2.9,128.5,7.4,139.9c4.6,4.7,6.3,9.2,7.8,18.9c1.5,9.6,1.5,31.5,3,43C501.4,219,500.6,270.5,516,270z"/>
		<path class="st7" d="M547.4,143.7c0,0,10.8-16,29.3-16c18.6,0,59,10,70.1,10c11.1,0,17.1-6.7,14.5-13c-2.6-6.3-11.9-16-32.3-16
			c-20.4,0-25.6,4.8-45.6,5.6c-20,0.7-45.3,20.8-51.9,34.5C538.1,144.1,543.4,148.3,547.4,143.7z"/>
		<path class="st7" d="M691.9,124.8c0,0-2.8,23.7,29.8,6.3s59-20.4,73.1-14.1c14.1,6.3,28.2,15.6,33.4,15.6s-8.9-18.2-17.8-23.7
			c-8.9-5.6-32.3-15.6-66.4-9.6C709.9,105.1,694.4,111.4,691.9,124.8z"/>
		<polygon class="st8" points="487.3,139.9 525.8,140.5 527.1,160.7 521.3,160.7 487.5,140.8 		"/>
		<path class="st9" d="M836.9,113.8c0,0-76.3-1.9-137,18.9c0,0-17.9-1.2-34.3,1.9c-10.1-2.5-64.7-8.5-125.8,4.9l-14,0.9l1.3,20.2
			l13.9-2.5l-0.7-10.9l0,0c0,0,0.2-6.4,5.2-7.4c4.9-1,50.6-10,95.2-5.9c21.7,1.9,20.1,3,19.8,9.8c-0.4,6.9,0.3,21.2-3.3,35
			c2.8-6,9.2-19.9,9.1-31.4c0-3.7,0.6-4.5,2.5-4.6c1.9-0.1,11.2-0.2,22.8-1c3.2-0.2,4.4,0,4.5,3.2c0.1,3.2,10,24.9,19.9,31.8
			c-3.1-5.8-12.7-36.9-9.5-39.7c3.2-2.8,2.5-6.9,41.9-13.8c22-4.4,67.4-9,72.1-2c2.3,3.7,3.7,17.6,3.7,17.6l16-8.8L836.9,113.8z"/>
		<path class="st10" d="M541,158.2c0,0,0.4,2.3,1.1,6.3c0.3,2,0.8,4.4,1.3,7.2c0.5,2.8,1.1,5.9,1.9,9.3c0.8,3.3,1.9,7,4.6,9.7
			c1.3,1.3,3,2.4,4.8,3.1c1.9,0.7,3.9,1.1,6,1.3c4.3,0.4,8.8,0.6,13.3,0.8c4.6,0.2,9.2,0.3,13.8,0.3c4.6,0,9.3,0,13.8-0.2
			c4.6-0.2,9-0.4,13.4-0.8c8.6-0.8,16.7-2,23.3-3.9c3.3-1,6.3-2.1,8.8-3.3c2.5-1.3,4.5-2.7,6-4c1.5-1.3,2.5-2.6,3.1-3.5
			c0.6-0.9,0.7-1.5,0.7-1.5s-0.1,0.6-0.6,1.6c-0.5,1-1.4,2.3-2.9,3.8c-1.5,1.4-3.5,3-6,4.4c-2.5,1.4-5.5,2.7-8.8,3.8
			c-6.7,2.2-14.8,3.7-23.5,4.6c-4.4,0.5-8.9,0.8-13.5,1c-4.6,0.2-9.3,0.3-13.9,0.3c-4.7,0-9.3-0.2-13.9-0.4c-4.6-0.2-9.1-0.5-13.5-1
			c-2.2-0.3-4.4-0.7-6.5-1.6c-2-0.8-3.9-2.1-5.4-3.6c-1.5-1.6-2.5-3.4-3.2-5.2c-0.7-1.8-1.1-3.6-1.5-5.4c-0.7-3.5-1.1-6.6-1.5-9.4
			c-0.4-2.8-0.7-5.3-0.9-7.3C541.2,160.5,541,158.2,541,158.2z"/>
		<path class="st10" d="M715.8,176.8c0,0,0.4,0.4,1.2,1c0.8,0.6,2.2,1.3,3.9,2c1.8,0.7,4,1.2,6.6,1.6c2.6,0.4,5.6,0.6,8.8,0.7
			c3.3,0,6.8-0.1,10.5-0.3c3.7-0.2,7.7-0.5,11.7-0.9c4.1-0.3,8.3-0.8,12.5-1.2c4.3-0.4,8.6-0.9,12.9-1.4c4.3-0.5,8.6-1.1,12.9-1.7
			c4.2-0.6,8.4-1.2,12.4-2.1c2-0.4,3.9-0.8,5.7-1.4c1.6-0.6,3-1.8,4.1-3.2c2.1-2.9,3.1-6.3,3.7-9.4c0.6-3.2,1-6.1,1.2-8.8
			c0.2-2.6,0.2-5,0.2-6.9c0-3.8-0.2-6-0.2-6s0.1,0.5,0.2,1.6c0.1,1,0.3,2.5,0.4,4.4c0.1,1.9,0.2,4.2,0.2,6.9c0,2.7-0.2,5.7-0.7,9
			c-0.6,3.2-1.4,6.9-3.6,10.2c-1.1,1.6-2.7,3.1-4.8,4c-1.9,0.7-3.9,1.1-5.9,1.6c-8.1,1.8-16.7,2.9-25.4,4c-4.3,0.5-8.7,1-13,1.4
			c-4.3,0.4-8.5,0.7-12.6,1c-4.1,0.3-8,0.5-11.8,0.6c-3.8,0.1-7.3,0.1-10.6,0c-6.6-0.4-12-1.6-15.5-3.2c-1.8-0.8-3-1.6-3.8-2.3
			C716.2,177.3,715.8,176.8,715.8,176.8z"/>
		<path class="st5" d="M728.8,211.3c0,0,0.1,0.1,0.4,0.3c0.3,0.2,0.7,0.5,1.2,0.9c0.5,0.4,1.1,0.9,1.7,1.5c0.6,0.6,1.3,1.3,2,2.2
			c0.7,0.8,1.4,1.8,2.1,2.8c0.4,0.5,0.7,1.1,1,1.6c0.3,0.6,0.7,1.2,0.9,1.8c0.3,0.6,0.6,1.3,0.8,1.9c0.2,0.7,0.5,1.3,0.7,2.1
			c0.2,0.7,0.4,1.4,0.5,2.1c0.1,0.7,0.2,1.5,0.3,2.2c0,0.7,0,1.5,0,2.2c0,0.7-0.1,1.5-0.2,2.2c0,0.4-0.1,0.7-0.1,1.1
			c-0.1,0.3-0.2,0.7-0.2,1c-0.2,0.7-0.3,1.3-0.5,2c-0.4,1.4-0.9,2.6-1.5,3.7c-0.3,0.6-0.6,1.1-1,1.6c-0.2,0.2-0.4,0.5-0.6,0.7
			c-0.2,0.2-0.4,0.4-0.6,0.6c-0.4,0.4-0.9,0.7-1.3,1c-0.5,0.2-0.9,0.5-1.4,0.6c-0.9,0.3-1.7,0.3-2.3,0.3c-0.6,0-1.1-0.2-1.5-0.3
			c-0.3-0.1-0.5-0.2-0.5-0.2s0.2,0,0.5,0.1c0.3,0,0.8,0,1.4-0.1c0.6-0.1,1.3-0.3,2-0.7c0.7-0.4,1.5-0.9,2.1-1.7
			c0.2-0.2,0.3-0.4,0.5-0.6c0.1-0.2,0.3-0.4,0.4-0.7c0.3-0.4,0.5-1,0.8-1.5c0.5-1.1,0.8-2.2,1.1-3.5c0.2-0.6,0.3-1.3,0.4-2
			c0.1-0.3,0.1-0.7,0.2-1l0.1-1c0-0.7,0.2-1.3,0.1-2l-0.1-2l-0.3-2c-0.1-0.7-0.3-1.3-0.4-2c-0.4-1.3-0.7-2.6-1.2-3.8
			c-0.2-0.6-0.5-1.2-0.8-1.7c-0.3-0.6-0.5-1.1-0.8-1.6c-0.6-1.1-1.2-2-1.7-2.9c-0.6-0.9-1.1-1.7-1.6-2.4c-0.5-0.7-1-1.3-1.4-1.8
			C729.3,211.8,728.8,211.3,728.8,211.3z"/>
		<path class="st5" d="M648.8,255.1c0,0-0.2,0.1-0.5,0.2c-0.3,0.1-0.8,0.3-1.4,0.5c-1.2,0.4-3.1,1-5.5,0.8c-1.2-0.1-2.4-0.4-3.7-1.1
			c-1.2-0.6-2.4-1.5-3.4-2.6c-0.3-0.3-0.5-0.6-0.7-0.8l-0.4-0.4l-0.2-0.2l0,0l0,0l-0.1-0.1l0-0.1l-0.1-0.1c-0.3-0.6-0.7-1.3-1-1.9
			c-0.3-0.7-0.6-1.5-0.8-2.2c-0.2-0.8-0.4-1.5-0.6-2.3c-0.3-1.5-0.4-3-0.5-4.5c-0.1-0.8,0-1.5,0-2.2c0-0.7,0.1-1.5,0.1-2.2
			c0.1-1.4,0.3-2.8,0.5-4c0.2-1.3,0.5-2.5,0.8-3.5c1.1-4.3,2.5-7,2.5-7s-0.1,0.7-0.4,2c-0.1,0.6-0.2,1.4-0.4,2.3
			c-0.1,0.9-0.3,1.9-0.4,3c-0.1,1.1-0.3,2.3-0.4,3.5c-0.1,1.2-0.2,2.6-0.2,3.9c0,0.7,0,1.4,0,2.1c0,0.7,0,1.4,0.1,2.1
			c0.1,1.4,0.3,2.8,0.5,4.2c0.2,0.7,0.3,1.4,0.5,2c0.2,0.6,0.4,1.3,0.6,1.9c0.3,0.7,0.6,1.3,1,1.9l0.1,0.1l0,0.1
			c0,0,0.1,0.1-0.1-0.1l0,0l0,0l0.1,0.2l0.3,0.4c0.2,0.3,0.4,0.5,0.6,0.8c0.8,1,1.8,1.8,2.7,2.5c1,0.6,2,1,3.1,1.3
			c2,0.4,3.9,0.2,5.2,0C648,255.2,648.8,255.1,648.8,255.1z"/>
		<path class="st6" d="M672.6,254.8c0,0-5.3-6.1-16.7-4.2c-6.5,1.4-7.3,4.4-7.1,4.8C649.4,254.7,660.9,251.1,672.6,254.8z"/>
		<path class="st6" d="M728.8,247.7c0,0-10.3-8-24.4,5.2C711.8,248.2,724.6,245.6,728.8,247.7z"/>
		<path class="st11" d="M610.3,296.3c0,0,12.3-7.4,24-10.2c11.7-2.8,28.9-2.5,45.7,1c5.5,1,14.1,2.5,23.8-2.2
			c9.7-4.7,30.1-7.1,47.1-4.8s16.4,4.1,17,5.2c0.6,1.1-10,33.8-43.1,44.4s-56.2,8.2-75.1-0.8s-32.7-22.4-36.1-25
			C610.2,301.1,608.6,297.2,610.3,296.3z"/>
		<path class="st12" d="M768,285.3c-0.2-0.5-0.3-1-1.4-1.7c-4.6,0.5-11.9,1.8-15.4,2.7c-4.8,1.2-2.9,1.9-33.1,9.7
			c-36.1,8-72.5,4.8-78.8,4.3s-7.5-2.9-11.7-3.9c-2.9-0.7-10.5-1.2-14.9-1.5c-1.6,0.9-2.5,1.4-2.5,1.4c-1.6,0.9-0.1,4.8,3.3,7.5
			c0.7,0.5,1.7,1.5,3.1,2.7c1.9-0.4,3.6-0.8,4.9-0.8c3.6,0,8.3-5.4,18.2-4.4c18.3,1.5,36.6,2,62.8-1.5c26.2-3.4,41.4-10.4,47.8-11.2
			c5.1-0.7,11,2.3,15.5,3C767.5,288,768.1,285.6,768,285.3z"/>
		<path class="st11" d="M634.7,305.4c0,0,30.3,2.8,38.8,3.8c8.6,1,23.5-0.8,25.7-1.8c2.2-0.9,9.8,0.9,6.9,4.9
			c-2.9,3.9-23,7.5-29.5,7.6c-6.4,0-31.1-2.6-37.6-5.5C632.4,311.5,630.7,305.1,634.7,305.4z"/>
		<path class="st11" d="M635.1,306.2c0,0,22.9,3.7,29.4,4.9s17.9,0.9,19.6,0.4c1.7-0.5,7.4,1.2,5.1,3.6c-2.3,2.4-17.8,3.5-22.7,3.1
			c-4.9-0.4-23.6-3.6-28.4-5.9S632.2,305.7,635.1,306.2z"/>
		<path class="st11" d="M635.5,306.5c0,0,15.3,3.5,19.6,4.5c4.3,1.1,12,1.4,13.2,1.1c1.1-0.2,4.9,1.1,3.3,2.6
			c-1.7,1.5-12.1,1.6-15.4,1.2c-3.3-0.5-15.7-3.4-18.9-5.2C634.1,309,633.5,306,635.5,306.5z"/>
		<polygon class="st8" points="836.9,113.8 861.8,106.9 861.2,109.3 840,130.1 		"/>
		<path class="st13" d="M556.8,163.5c0,0-0.5,1.1,0.8,0.6s9.1-3.5,13.5-3.9c4.3-0.4,16.9,0.9,23.4,1.4c6.4,0.5,18.8,1.6,24.3,1.2
			c5.5-0.5,12.4-4.9,13.1-5.4c0.8-0.5,5.3-3.9,5.6-4.2c0.3-0.3,0.7-2-0.3-2.7c-1-0.8-6.5-4.4-14.9-5.8c-6.5-1.9-25.7-2.6-34.1-0.1
			c-8.5,2.5-16,6-20,9C564.3,156.5,560.7,159.2,556.8,163.5z"/>
		<path class="st7" d="M588.2,144.5c-0.8,0.2-1.6,0.5-2.4,0.8c-0.7,1.6-1,3.4-1,5.3c0,4.2,1.8,7.9,4.6,10.5c1.9,0.2,3.7,0.3,5.1,0.4
			c3.3,0.3,8.1,0.7,12.7,0.9c3.8-2.6,6.3-7,6.3-11.9c0-2.8-0.8-5.3-2.1-7.5C603.3,142.6,593.6,142.9,588.2,144.5z"/>
		<path class="st14" d="M554.3,165.6c0,0,0.1-0.4,0.3-1.1c0.2-0.7,0.6-1.7,1.1-3c0.6-1.3,1.4-2.8,2.5-4.4c1.1-1.6,2.4-3.4,4.1-5.1
			c0.9-0.8,1.7-1.8,2.7-2.6c1-0.8,2-1.7,3.2-2.5c2.2-1.6,4.8-3.1,7.4-4.4c1.4-0.6,2.8-1.2,4.2-1.8c1.5-0.5,2.9-1,4.4-1.5
			c0.7-0.3,1.5-0.5,2.3-0.6c0.8-0.2,1.5-0.4,2.3-0.6l2.3-0.6c0.8-0.2,1.6-0.3,2.4-0.4c1.6-0.2,3.1-0.5,4.7-0.7
			c1.6-0.2,3.1-0.3,4.7-0.4c0.8,0,1.6-0.1,2.4-0.1c0.8,0,1.6,0,2.3,0c1.5,0,3.1,0.1,4.6,0.2c3,0.3,5.9,0.6,8.5,1.3
			c0.7,0.1,1.3,0.3,2,0.5c0.6,0.2,1.3,0.4,1.9,0.6c1.2,0.5,2.4,0.9,3.5,1.4c2.2,0.9,4.1,2.2,5.6,3.3c0.8,0.6,1.5,1.2,2.1,1.8
			c0.6,0.6,1.1,1.2,1.6,1.7c0.4,0.6,0.8,1.1,1.1,1.5c0.3,0.4,0.5,0.9,0.7,1.2c0.4,0.6,0.6,1,0.6,1s-0.2-0.3-0.7-0.9
			c-0.2-0.3-0.5-0.7-0.8-1.1c-0.4-0.4-0.8-0.8-1.2-1.3c-0.5-0.5-1.1-1-1.7-1.5c-0.7-0.5-1.4-1-2.1-1.5c-0.8-0.5-1.6-1-2.6-1.5
			c-0.5-0.2-1-0.5-1.5-0.7c-0.5-0.2-1-0.4-1.6-0.6c-1.1-0.5-2.2-0.8-3.4-1.2c-1.2-0.3-2.4-0.7-3.8-0.9c-2.6-0.6-5.4-0.8-8.3-1
			c-2.9-0.1-5.9-0.1-8.9,0.1c-1.5,0.1-3.1,0.3-4.6,0.4c-1.5,0.2-3.1,0.5-4.6,0.7c-0.8,0.1-1.5,0.2-2.3,0.4l-2.3,0.5
			c-0.8,0.2-1.5,0.4-2.3,0.5c-0.8,0.2-1.5,0.3-2.2,0.6c-1.5,0.5-2.9,0.9-4.3,1.4c-1.4,0.6-2.7,1.1-4.1,1.7c-2.6,1.2-5.1,2.5-7.3,4
			c-1.2,0.7-2.1,1.5-3.1,2.2c-1,0.7-1.9,1.6-2.8,2.3c-0.9,0.7-1.6,1.6-2.4,2.4c-0.8,0.7-1.3,1.6-2,2.3c-1.2,1.5-2.1,2.9-2.7,4.1
			c-0.7,1.2-1.1,2.2-1.4,2.8C554.4,165.2,554.3,165.6,554.3,165.6z"/>
		<path class="st14" d="M556.2,164.3c0,0,0.8-1.2,2.4-3c0.8-0.9,1.9-2,3.1-3.2c0.6-0.6,1.3-1.2,2-1.9c0.7-0.6,1.5-1.3,2.4-1.9
			c1.7-1.3,3.6-2.7,5.6-3.9c2.1-1.3,4.4-2.5,6.8-3.6c1.2-0.5,2.5-1,3.8-1.5c1.3-0.4,2.6-0.8,4-1.3c2.7-0.7,5.5-1.4,8.4-1.7
			c0.7-0.1,1.4-0.2,2.1-0.3l2.1-0.1c0.7,0,1.4-0.1,2.1-0.1l1.1,0l1,0c1.4,0,2.8,0.1,4.1,0.1c1.4,0.1,2.7,0.2,4.1,0.3
			c2.7,0.2,5.2,0.5,7.6,1c2.4,0.4,4.7,0.9,6.7,1.5c2.1,0.6,3.9,1.3,5.5,2c1.6,0.7,2.9,1.4,4,2.1c1.1,0.6,1.8,1.3,2.3,1.8
			c0.5,0.5,0.7,0.7,0.7,0.7s-0.2-0.3-0.8-0.7c-0.5-0.4-1.3-0.9-2.4-1.5c-1.1-0.6-2.4-1.1-4-1.7c-1.6-0.5-3.5-1-5.5-1.5
			c-1-0.2-2.1-0.5-3.2-0.6c-1.1-0.2-2.3-0.4-3.4-0.5c-2.4-0.3-4.9-0.5-7.5-0.7c-1.3-0.1-2.6-0.1-4-0.2c-1.4,0-2.7,0-4.1,0l-1,0l-1,0
			l-2.1,0.1l-2.1,0.1c-0.7,0.1-1.4,0.2-2,0.3c-2.7,0.3-5.4,0.9-8.1,1.5c-1.3,0.4-2.6,0.8-3.9,1.2c-1.2,0.5-2.5,0.9-3.7,1.4
			c-2.4,1-4.7,2.1-6.7,3.2c-1.1,0.5-2,1.2-3,1.8c-1,0.6-1.9,1.2-2.7,1.8c-0.9,0.6-1.7,1.2-2.4,1.7c-0.8,0.6-1.5,1.1-2.2,1.6
			c-1.3,1.1-2.4,2.1-3.3,2.9C557.1,163.2,556.2,164.3,556.2,164.3z"/>
		<path class="st14" d="M557.1,164.3c0,0,1.2-0.6,3.3-1.5c2.1-0.9,5.2-2.1,9.2-3c1-0.2,2-0.4,3.1-0.5c1.1-0.1,2.3-0.1,3.4,0
			c2.3,0.1,4.7,0.3,7.1,0.4c4.9,0.4,10.2,0.8,15.5,1.2c2.6,0.2,5.3,0.4,7.8,0.6c2.6,0.2,5.1,0.4,7.6,0.4c1.2,0.1,2.5,0.1,3.6,0.1
			c0.6,0,1.2,0,1.7-0.1c0.5-0.1,1.1-0.2,1.6-0.3c2.1-0.5,4.1-1.2,5.9-2c3.5-1.6,6.3-3.4,8.2-4.7c1.9-1.3,2.9-2.1,2.9-2.1
			s-0.9,1-2.7,2.5c-0.9,0.7-2,1.6-3.3,2.6c-1.3,0.9-2.8,2-4.6,2.9c-1.8,0.9-3.8,1.9-6.1,2.5c-0.6,0.2-1.2,0.3-1.8,0.4
			c-0.6,0.1-1.2,0.1-1.8,0.2c-1.3,0.1-2.5,0.1-3.7,0.1c-5,0-10.3-0.4-15.6-0.8c-2.6-0.2-5.3-0.5-7.9-0.7c-2.6-0.2-5.1-0.5-7.6-0.7
			c-2.5-0.3-4.8-0.5-7.1-0.7c-2.2-0.3-4.2-0.1-6.2,0.2c-3.9,0.6-7,1.5-9.2,2.2C558.4,163.9,557.1,164.3,557.1,164.3z"/>
		<path class="st5" d="M566.7,174.8c0,0,1.2,0.8,3.4,2.1c1.1,0.6,2.5,1.4,4,2.2c1.6,0.8,3.4,1.7,5.4,2.6c1,0.4,2,0.9,3.1,1.3
			c1.1,0.4,2.2,0.9,3.4,1.3c1.2,0.4,2.4,0.8,3.6,1.2c1.3,0.3,2.5,0.7,3.9,1.1c2.6,0.6,5.4,1.2,8.2,1.4c0.7,0.1,1.4,0.1,2.1,0.2
			c0.7,0,1.4,0,2.1,0c1.4,0,2.8-0.1,4.3-0.2c1.5-0.1,2.9-0.4,4.3-0.5c1.4-0.3,2.8-0.5,4.2-0.9c1.4-0.4,2.8-0.7,4.1-1.1
			c0.7-0.2,1.3-0.4,2-0.6c0.6-0.2,1.3-0.5,1.9-0.7c2.5-1,4.9-2.1,7.1-3.3c2.2-1.2,4.2-2.4,5.9-3.7c0.9-0.6,1.7-1.3,2.5-1.9
			c0.4-0.3,0.8-0.6,1.1-0.9c0.3-0.3,0.7-0.6,1-0.9c0.3-0.3,0.6-0.6,0.9-0.9c0.3-0.3,0.6-0.6,0.8-0.9c0.5-0.6,1-1.1,1.4-1.6
			c0.4-0.5,0.8-0.9,1.1-1.3c0.3-0.4,0.5-0.7,0.7-1c0.4-0.6,0.6-0.9,0.6-0.9s-0.2,0.3-0.6,0.9c-0.2,0.3-0.4,0.6-0.7,1.1
			c-0.3,0.4-0.6,0.9-1,1.4c-0.4,0.5-0.9,1-1.4,1.6c-0.3,0.3-0.5,0.6-0.8,0.9c-0.3,0.3-0.6,0.6-0.9,0.9c-0.3,0.3-0.6,0.6-1,1
			c-0.4,0.3-0.7,0.6-1.1,1c-0.7,0.7-1.6,1.3-2.4,2c-1.7,1.4-3.7,2.6-5.9,3.9c-1.1,0.6-2.2,1.2-3.4,1.8c-1.2,0.6-2.4,1.2-3.7,1.6
			c-0.6,0.3-1.3,0.5-1.9,0.8c-0.7,0.2-1.3,0.4-2,0.7c-1.3,0.5-2.7,0.8-4.1,1.2c-1.4,0.4-2.8,0.6-4.3,0.9c-1.5,0.2-2.9,0.5-4.4,0.6
			c-1.4,0.1-2.9,0.3-4.4,0.2c-0.7,0-1.5,0-2.2,0c-0.7-0.1-1.5-0.1-2.2-0.2c-2.9-0.2-5.7-0.8-8.4-1.5c-1.3-0.3-2.6-0.7-3.9-1.1
			c-1.2-0.4-2.5-0.9-3.6-1.3c-1.2-0.5-2.3-0.9-3.4-1.4c-1.1-0.5-2.1-0.9-3.1-1.4c-2-1-3.7-1.9-5.3-2.8c-1.5-0.9-2.9-1.7-4-2.4
			C567.8,175.7,566.7,174.8,566.7,174.8z"/>
		<path class="st13" d="M717.4,142c0,0-2.1,2.1,0.7,3.3c2.8,1.2,11.4,4.9,18.3,5.7c6.9,0.8,16.3,1,26.3-2.6
			c10-3.6,17.2-5.5,18.4-5.9s9.5-0.6,7.4-1.5c-2.1-0.9-17-6.6-28.9-7.5c-11.9-1-21.7,0.5-29.8,3.2C721.7,139.5,717.4,142,717.4,142z
			"/>
		<path class="st7" d="M738.2,134.6c-0.4,1.3-0.7,2.7-0.7,4.2c0,5.8,3.6,10.7,8.7,12.7c4.2-0.1,8.9-0.7,13.7-2.1
			c3.1-2.5,5-6.3,5-10.6c0-1.6-0.3-3.2-0.8-4.7c-1.5-0.2-3-0.4-4.4-0.5C751.6,132.9,744.5,133.3,738.2,134.6z"/>
		<path class="st14" d="M720.2,131.9c0,0,1.1-0.8,3.2-1.9c1.1-0.5,2.4-1.1,3.9-1.8c1.5-0.6,3.3-1.2,5.3-1.8c2-0.5,4.1-1.1,6.4-1.5
			c1.2-0.2,2.3-0.4,3.6-0.6c1.2-0.2,2.5-0.3,3.8-0.4c1.3-0.1,2.6-0.2,3.9-0.3c0.7,0,1.3-0.1,2-0.1c0.7,0,1.3,0,2,0
			c1.3,0,2.7,0,4.1,0.2c1.4,0.1,2.8,0.2,4.1,0.5c1.4,0.2,2.7,0.4,4,0.8c1.3,0.3,2.7,0.6,4,1c1.3,0.4,2.6,0.7,3.8,1.2
			c1.2,0.4,2.5,0.9,3.7,1.3c2.4,0.9,4.6,2,6.8,3c2.1,1,4.1,2.1,5.8,3.1c3.6,2,6.4,3.9,8.3,5.3c2,1.3,3.1,2.1,3.1,2.1
			s-1.2-0.6-3.3-1.8c-2.1-1.2-5.1-2.7-8.7-4.5c-1.8-0.9-3.8-1.8-5.9-2.7c-1.1-0.5-2.2-0.9-3.3-1.4c-1.1-0.5-2.3-0.9-3.5-1.3
			c-1.2-0.5-2.4-0.8-3.6-1.2c-1.2-0.4-2.5-0.7-3.8-1.1c-1.3-0.4-2.6-0.6-3.9-0.9c-1.3-0.3-2.6-0.5-3.9-0.7c-1.3-0.3-2.6-0.4-3.9-0.5
			c-1.3-0.2-2.6-0.2-4-0.2c-0.6,0-1.4,0-1.9,0c-0.7,0-1.3,0-2,0c-1.3,0-2.6,0.1-3.8,0.2c-1.3,0.1-2.5,0.2-3.7,0.3
			c-1.2,0.1-2.4,0.3-3.5,0.4c-2.3,0.3-4.4,0.7-6.4,1.1c-2,0.4-3.8,0.9-5.3,1.3c-1.6,0.5-2.9,0.9-4,1.4c-1.1,0.4-2,0.8-2.5,1.1
			C720.5,131.7,720.2,131.9,720.2,131.9z"/>
		<path class="st14" d="M715.8,142.8c0,0,1-0.7,2.9-1.7c0.9-0.5,2.1-1.1,3.4-1.8c1.3-0.7,2.9-1.4,4.5-2.1c1.7-0.7,3.5-1.5,5.5-2.1
			c2-0.7,4.1-1.3,6.4-1.8c2.3-0.5,4.6-1,7.1-1.2c2.4-0.2,4.9-0.2,7.4-0.2c2.5,0.1,4.9,0.3,7.3,0.6c1.2,0.2,2.4,0.3,3.6,0.5
			c1.2,0.2,2.3,0.4,3.4,0.6c2.3,0.4,4.4,1,6.4,1.5c2,0.5,3.9,1.1,5.7,1.8c1.7,0.6,3.3,1.2,4.7,1.8c1.4,0.6,2.6,1.1,3.5,1.6
			c1,0.4,1.7,0.9,2.2,1.2c0.5,0.3,0.8,0.4,0.8,0.4s-0.3-0.1-0.8-0.3c-0.5-0.2-1.3-0.5-2.3-0.9c-1-0.4-2.2-0.8-3.6-1.2
			c-1.4-0.4-3-0.9-4.8-1.4c-7-1.8-16.5-3.7-26.1-4.1c-2.4-0.1-4.7-0.1-7.1,0.1c-2.3,0.2-4.6,0.5-6.8,0.9c-2.2,0.5-4.3,0.9-6.3,1.5
			c-2,0.6-3.9,1.2-5.6,1.7c-3.4,1.2-6.3,2.2-8.2,3.1C716.9,142.3,715.8,142.8,715.8,142.8z"/>
		<path class="st14" d="M716.7,144.6c0,0,1,0.4,2.8,1c1.8,0.6,4.3,1.4,7.4,2.3c1.5,0.4,3.2,0.8,5,1.2c1.8,0.4,3.7,0.7,5.6,1
			c2,0.3,4,0.5,6.1,0.5c1.1,0.1,2.1,0,3.1-0.1c1-0.1,2.1-0.2,3.1-0.3c2.1-0.3,4.2-0.7,6.2-1.2c2-0.5,4-1,6-1.6
			c3.9-1.1,7.5-2.2,10.6-3.1c3.1-0.9,5.7-1.5,7.6-1.9c1.9-0.4,2.9-0.6,2.9-0.6s-1,0.4-2.8,1c-1.8,0.7-4.3,1.6-7.3,2.7
			c-3,1.1-6.5,2.5-10.4,3.7c-1.9,0.6-3.9,1.3-6,1.8c-2.1,0.5-4.2,1-6.4,1.3c-1.1,0.2-2.2,0.2-3.3,0.3c-1.1,0-2.3,0.1-3.3,0
			c-2.2,0-4.3-0.4-6.3-0.7c-4-0.8-7.7-1.9-10.7-3C720.5,146.9,716.7,144.6,716.7,144.6z"/>
		<path class="st5" d="M713,153.6c0,0,0.2,0.3,0.5,0.9c0.4,0.5,1,1.3,1.8,2.2c0.8,0.9,1.9,1.9,3.2,3c1.3,1.1,2.9,2.2,4.7,3.2
			c0.5,0.3,0.9,0.5,1.4,0.8c0.5,0.2,1,0.5,1.5,0.7c1,0.5,2.1,0.9,3.2,1.3c1.1,0.4,2.3,0.7,3.5,1.1c1.2,0.3,2.5,0.6,3.7,0.9
			c1.3,0.2,2.6,0.4,3.9,0.7c1.3,0.1,2.7,0.3,4.1,0.4c1.4,0,2.7,0,4.1,0.1c1.4-0.1,2.8-0.1,4.2-0.2c1.4-0.1,2.8-0.3,4.1-0.4
			c1.4-0.2,2.7-0.4,4.1-0.6c1.3-0.3,2.7-0.5,4-0.8c1.3-0.3,2.6-0.6,3.9-1c2.5-0.7,4.9-1.4,7.2-2.2c2.3-0.8,4.4-1.5,6.3-2.3
			c1-0.4,1.9-0.8,2.8-1.2c0.9-0.4,1.7-0.7,2.5-1.1c1.6-0.7,2.9-1.4,4-1.9c1.1-0.6,1.9-1,2.5-1.4c0.6-0.3,0.9-0.5,0.9-0.5
			s-0.3,0.2-0.8,0.6c-0.5,0.4-1.4,0.9-2.4,1.5c-1.1,0.6-2.4,1.3-3.9,2.1c-1.5,0.8-3.3,1.6-5.2,2.4c-1.9,0.8-4.1,1.7-6.3,2.5
			c-1.1,0.4-2.3,0.8-3.5,1.2c-1.2,0.4-2.5,0.8-3.7,1.1c-1.3,0.3-2.6,0.7-3.9,1c-1.3,0.3-2.7,0.6-4,0.9c-1.4,0.2-2.7,0.5-4.1,0.7
			c-1.4,0.2-2.8,0.3-4.2,0.5c-1.4,0.1-2.8,0.1-4.2,0.2c-1.4,0-2.8-0.1-4.2-0.1c-1.4-0.1-2.7-0.3-4.1-0.4c-1.3-0.2-2.7-0.5-4-0.7
			c-1.3-0.3-2.6-0.6-3.8-1c-1.2-0.4-2.4-0.7-3.5-1.2c-1.1-0.5-2.2-0.9-3.2-1.4c-0.5-0.3-1-0.5-1.5-0.8c-0.5-0.3-0.9-0.6-1.4-0.8
			c-0.9-0.5-1.7-1.1-2.5-1.7c-0.8-0.6-1.5-1.2-2.1-1.7c-1.3-1.1-2.3-2.2-3.1-3.2c-0.8-1-1.3-1.8-1.6-2.3
			C713.2,153.9,713,153.6,713,153.6z"/>
		<path class="st2" d="M827.9,403l3.4-25.2c0,0,40.7,49,51.6,57.8s24.3,19.5,32.3,27.3s53.8,70.9,72.7,95.9
			c18.9,25,33.1,42.6,33.1,42.6l-64.3,51.8l59.6,48.7l-101.3,220l-105.8,0c0,0,25.6-168.8,35.6-230.1c10-61.2,18.9-123.6,9.5-192.6
			C845,430.2,827.9,403,827.9,403z"/>
		<path d="M809.3,921.8c0,0,1.2-8.1,3.3-22.4c2.1-14.2,5.1-34.6,8.7-59c3.7-24.4,8-52.9,12.6-83.4c4.7-30.5,9.7-63,14.7-95.5
			c2.4-16.3,4.6-32.6,6.1-48.7c1.6-16.1,2.5-32,2.7-47.4c0.2-15.4-0.3-30.3-1.4-44.4c-1.1-14.1-2.9-27.3-5-39.5
			c-2-12.1-4.3-23.2-6.8-32.9c-2.4-9.7-5-18.1-7.4-24.9c-2.4-6.8-4.6-12-6.2-15.5c-1.6-3.5-2.7-5.2-2.7-5.2s1.1,1.7,2.8,5.2
			c1.7,3.5,4,8.6,6.5,15.4c2.5,6.8,5.2,15.1,7.8,24.8c0.6,2.4,1.3,4.9,1.9,7.5c0.6,2.6,1.2,5.3,1.9,8c1.2,5.5,2.4,11.3,3.4,17.4
			c2.1,12.2,4.1,25.4,5.3,39.5c1.3,14.1,1.9,29.1,1.7,44.5c-0.1,15.5-1,31.4-2.5,47.6c-1.5,16.2-3.6,32.5-6,48.8
			c-5.1,32.5-10.2,65-15,95.5c-4.8,30.5-9.4,58.9-13.2,83.3c-4,24.4-7.3,44.7-9.6,58.9C810.7,913.7,809.3,921.8,809.3,921.8z"/>
		<path d="M831.4,377.8c7.9,9.4,15.9,18.7,24,27.9c4,4.6,8.1,9.2,12.3,13.7c4.1,4.5,8.3,9,12.7,13.2c0.5,0.5,1.1,1,1.7,1.5
			c0.6,0.5,1.1,1,1.7,1.5l3.6,2.8l7.2,5.7c4.8,3.9,9.5,7.8,14.1,11.8c2.3,2,4.6,4.1,6.8,6.2c1.1,1.1,2.1,2.2,3.1,3.4
			c1,1.2,2,2.4,3,3.6c3.9,4.8,7.6,9.6,11.3,14.5c14.9,19.5,29.5,39.2,44.1,58.8c7.3,9.8,14.7,19.6,22.2,29.3
			c7.5,9.7,15,19.3,22.7,28.9l0.7,0.8l-0.8,0.7l-64.3,51.8l0-1.7L1017,701l0.6,0.5l-0.3,0.7l-25.4,55l-25.5,54.9L940.8,867
			l-25.7,54.9l25-55.2l25.1-55.1l25.1-55.1l25.2-55.1l0.3,1.2l-59.6-48.6l-1-0.8l1-0.8l64.3-51.7l-0.2,1.5
			c-7.7-9.6-15.2-19.2-22.7-29c-7.5-9.7-14.8-19.5-22.1-29.4c-14.6-19.7-29-39.5-43.8-59.1c-3.7-4.9-7.4-9.8-11.2-14.5
			c-0.9-1.2-1.9-2.4-2.9-3.5c-0.9-1.2-2-2.3-3-3.4c-2.2-2.1-4.4-4.2-6.7-6.2c-4.6-4-9.3-8-14-11.9l-7.1-5.8l-3.6-2.9
			c-0.6-0.5-1.2-1-1.8-1.5c-0.6-0.5-1.2-1-1.7-1.6c-4.4-4.3-8.5-8.8-12.6-13.4c-4.1-4.6-8.1-9.2-12.1-13.9
			C847,396.7,839.2,387.3,831.4,377.8z"/>
		<path d="M956.8,653.1c0,0-1.6-1.1-4.4-3c-2.7-1.9-6.7-4.6-11.4-8c-4.7-3.3-10.1-7.2-16-11.4c-2.9-2.1-5.9-4.3-8.9-6.5
			c-3-2.2-6.1-4.5-9.2-6.8c-3.1-2.3-6.1-4.6-9.2-6.9c-3-2.3-6-4.5-8.8-6.7c-5.7-4.4-11-8.4-15.6-12c-4.5-3.5-8.3-6.6-10.9-8.6
			c-2.6-2.1-4.1-3.3-4.1-3.3s1.6,1.1,4.4,3c2.7,1.9,6.7,4.6,11.4,8c4.7,3.3,10.1,7.2,16,11.4c2.9,2.1,5.9,4.3,8.9,6.5
			c3,2.2,6.1,4.5,9.2,6.8c3.1,2.3,6.1,4.6,9.2,6.9c3,2.3,6,4.5,8.8,6.7c5.7,4.4,11,8.5,15.6,12c4.5,3.5,8.3,6.6,10.9,8.6
			C955.3,651.9,956.8,653.1,956.8,653.1z"/>
		<path class="st2" d="M564.5,409.8l-6.4-18.4c0,0-34,38.9-50.4,48.2c-16.4,9.3-30.1,39.8-57.6,84.6c-27.6,44.8-45.9,77.6-45.9,77.6
			l54.5,40.4l-63.2,46.5l70.4,233.1h138.2c0,0-30.8-214.5-34.7-240.1c-3.9-25.6-18.9-137.5-20-185.3
			C548.3,448.5,556,432.1,564.5,409.8z"/>
		<path d="M604.1,921.8c0,0-1.2-8-3.4-22c-2.1-14-5.3-34-8.8-58c-3.6-24-7.7-52-12.2-82c-4.4-30-9.1-62-13.7-94.1
			c-2.2-16-4.3-32.1-6.2-47.9c-1.9-15.8-3.8-31.4-5.4-46.5c-1.6-15.1-3-29.7-4-43.6c-1.1-13.9-1.8-27-1.7-39.2
			c0-12.2,0.7-23.3,2.1-33.1c1.4-9.8,3.6-18.1,5.8-24.9c2.2-6.7,4.3-11.9,5.7-15.4c1.4-3.5,2.1-5.4,2.1-5.4s-0.7,1.9-2,5.4
			c-1.3,3.6-3.3,8.7-5.4,15.5c-2.1,6.8-4.2,15.1-5.4,24.9c-1.2,9.8-1.8,20.9-1.7,33c0.1,12.1,0.9,25.2,2.1,39.1
			c1.2,13.8,2.7,28.4,4.3,43.5c1.6,15.1,3.5,30.6,5.5,46.4c2,15.8,4.1,31.8,6.3,47.9c4.6,32,9.1,64.1,13.4,94.1
			c4.2,30,8.2,58.1,11.5,82.1c3.4,24,6,44.1,8,58.1C603.1,913.8,604.1,921.8,604.1,921.8z"/>
		<path d="M558.1,391.4c-7.2,8.3-14.6,16.4-22.3,24.2c-3.8,3.9-7.7,7.8-11.8,11.5c-4,3.7-8.1,7.4-12.6,10.6
			c-1.1,0.8-2.3,1.5-3.5,2.3c-1.1,0.7-2.3,1.5-3.4,2.3c-1,0.9-2.1,1.7-3.1,2.6c-0.9,1-1.9,1.9-2.9,2.9c-3.7,4-6.8,8.5-9.9,13
			c-3.1,4.5-5.9,9.2-8.7,13.9c-2.8,4.7-5.5,9.5-8.3,14.2c-5.5,9.5-11,19-16.6,28.4l-17,28.2c-11.3,18.8-22.4,37.7-33.1,56.8
			l-0.3-1.3l54.6,40.3l1.2,0.9l-1.2,0.9l-63.2,46.4l0.4-1.1l17.5,58.3l17.4,58.3l17.3,58.4l17.2,58.4l-18-58.2L430,805.5l-17.8-58.2
			L394.5,689l-0.2-0.7l0.6-0.4l63.1-46.6l0,1.8l-54.5-40.4l-0.7-0.5l0.4-0.8c10.8-19.1,22-38,33.3-56.8c5.6-9.4,11.5-18.7,17.2-28.1
			c5.7-9.4,11.2-18.8,16.8-28.3c2.8-4.7,5.6-9.5,8.4-14.2c2.9-4.7,5.7-9.4,8.8-13.9c3.1-4.5,6.3-9,10.1-13.1c0.9-1,2-1.9,2.9-2.9
			c1-1,2.1-1.8,3.2-2.7c1.1-0.8,2.3-1.5,3.5-2.3c1.1-0.7,2.3-1.4,3.4-2.2c4.5-3.1,8.6-6.7,12.7-10.4c4.1-3.7,8-7.5,11.9-11.4
			C543.2,407.5,550.8,399.6,558.1,391.4z"/>
		<path d="M458.7,642.2c0,0,1.5-1.4,4.1-3.7c2.6-2.4,6.4-5.7,10.8-9.7c9-8,21-18.7,33.1-29.3c3-2.7,6-5.3,9-8
			c2.9-2.7,5.9-5.2,8.6-7.7c2.8-2.5,5.5-4.9,8-7.3c2.5-2.3,5-4.5,7.1-6.6c2.2-2.1,4.2-3.9,6-5.6c1.7-1.7,3.3-3.2,4.5-4.4
			c2.4-2.5,3.8-4,3.8-4s-1.3,1.6-3.5,4.3c-1.1,1.4-2.6,2.9-4.2,4.7c-1.6,1.8-3.6,3.8-5.7,6c-2.1,2.2-4.4,4.5-6.9,6.9
			c-2.5,2.4-5.1,4.9-7.9,7.5c-5.5,5.2-11.5,10.6-17.5,15.9c-3,2.6-6.1,5.3-9,7.9c-3,2.6-6,5.1-8.8,7.6c-5.8,4.9-11.2,9.4-15.8,13.2
			c-4.7,3.8-8.6,6.9-11.4,9.1C460.3,641,458.7,642.2,458.7,642.2z"/>
	</g>
</g>
</svg>
