<?xml version="1.0" encoding="utf-8"?>
<!-- Generator: Adobe Illustrator 19.0.0, SVG Export Plug-In . SVG Version: 6.00 Build 0)  -->
<svg version="1.1" id="Isolation_Mode" xmlns="http://www.w3.org/2000/svg" xmlns:xlink="http://www.w3.org/1999/xlink" x="0px"
	 y="0px" viewBox="0 0 75.1 94.1" style="enable-background:new 0 0 75.1 94.1;" xml:space="preserve">
<style type="text/css">
	.st0{fill:#8E643B;}
	.st1{fill:#774F25;}
	.st2{fill:#F9DCCC;}
	.st3{fill:#C2292D;}
	.st4{fill:#DE5B5F;}
	.st5{fill:#F3F3F3;}
	.st6{fill:#872C1B;}
</style>
<g id="XMLID_6649_">
	<g id="XMLID_6368_">
		<path id="XMLID_6369_" class="st0" d="M72,88.1c0,1.5-0.6,2.8-1.3,2.8h-0.3c-0.7,0-1.3-1.3-1.3-2.8V58.4c0-1.5,0.6-2.8,1.3-2.8
			h0.3c0.7,0,1.3,1.3,1.3,2.8V88.1z"/>
	</g>
	<g id="XMLID_6370_">
		<path id="XMLID_6371_" class="st0" d="M7.2,88.1c0,1.5-0.6,2.8-1.3,2.8H5.6c-0.7,0-1.3-1.3-1.3-2.8V58.4c0-1.5,0.6-2.8,1.3-2.8
			h0.3c0.7,0,1.3,1.3,1.3,2.8V88.1z"/>
	</g>
	<g id="XMLID_6372_">
		<rect id="XMLID_6373_" x="7.2" y="55.6" class="st1" width="62.2" height="17.7"/>
	</g>
	<g id="XMLID_6374_">
		<path id="XMLID_6375_" class="st0" d="M75.1,55.6c0,1.5-1.2,2.6-2.6,2.6H4.7C3.2,58.2,2,57,2,55.6c0-1.5,1.2-2.6,2.6-2.6h67.8
			C73.9,52.9,75.1,54.1,75.1,55.6"/>
	</g>
	<g id="XMLID_6376_">
		<path id="XMLID_6377_" class="st2" d="M47.7,86.3c0.3-0.4,0.5-0.8,0.6-1.2c-1-0.2-1.8-0.3-1.8-0.3l-0.8-14l-5.9-0.2
			c0,0,0.9,11.2,1.9,16.1C43.3,86.9,47,87.2,47.7,86.3"/>
	</g>
	<g id="XMLID_6378_">
		<path id="XMLID_6379_" class="st3" d="M52.3,88c0.4-1.6-2.1-2.5-4-2.9c-0.1,0.4-0.3,0.8-0.6,1.2c-0.7,1-4.5,0.6-6.1,0.4
			c0.2,1.2,0.5,2,0.7,2.2C43.6,89.8,51.6,90.5,52.3,88"/>
	</g>
	<g id="XMLID_6380_">
		<path id="XMLID_6381_" class="st2" d="M26.6,86.3c-0.3-0.4-0.4-0.8-0.4-1.2C27.2,85,28,85,28,85l2.4-13.9l5.8,0.5
			c0,0-2.1,11-3.6,15.8C30.9,87.4,27.2,87.3,26.6,86.3"/>
	</g>
	<g id="XMLID_6382_">
		<path id="XMLID_6383_" class="st3" d="M22,87.5c-0.2-1.7,2.4-2.2,4.2-2.4c0,0.4,0.2,0.8,0.4,1.2c0.6,1,4.3,1.1,5.9,1.1
			c-0.4,1.1-0.7,1.9-1,2.1C30.3,90.3,22.4,90,22,87.5"/>
	</g>
	<g id="XMLID_6384_">
		<path id="XMLID_6385_" class="st2" d="M54.8,34.9L66.1,25c0,0,2.6,3.4,2.8,2c0.2-1.5-0.6-2.3-0.6-2.3s4,0.4,3.6-1.1
			c-0.5-1.6-3.1-1-3.1-1s3.1-1.6,2.3-2.9c-0.8-1.4-3,0.3-3,0.3s1.5-1.9,0.3-2.6c-1.2-0.8-2.6,3.2-2.6,3.2s-0.3-2.9-1.4-2.9
			c-1.1,0-1,1.6-0.7,3.1c0,0.1,0.1,0.2,0.1,0.4c0.5,1.6-12.6,10.4-12.6,10.4L54.8,34.9z"/>
	</g>
	<g id="XMLID_6386_">
		<path id="XMLID_6387_" class="st2" d="M22.3,47.4L8,52.3c0,0,1.6,4,0.3,3.5c-1.4-0.6-1.7-1.7-1.7-1.7s-1.7,3.8-2.8,2.6
			c-1.1-1.2,0.7-3.3,0.7-3.3s-2.9,1.9-3.7,0.6c-0.8-1.4,1.7-2.5,1.7-2.5s-2.4,0.4-2.5-1c-0.1-1.4,4-0.7,4-0.7S1.8,48.1,2.3,47
			c0.5-0.9,1.9-0.1,3,1c0.1,0.1,0.2,0.2,0.3,0.3c1.1,1.2,15.5-5.7,15.5-5.7L22.3,47.4z"/>
	</g>
	<g id="XMLID_6388_">
		<path id="XMLID_6389_" class="st3" d="M52.9,28.4c0,0-10.4,8.4-20.3,10.8c-9.9,2.3-15.8,4-15.8,4l2.2,6.3l7.2-1.3
			c0,0-4.8,22.8-6.4,27l38.6-2.5l-9.1-32l8.3-6.7L52.9,28.4z"/>
	</g>
	<g id="XMLID_6390_">
		<path id="XMLID_6391_" class="st4" d="M25.4,51.8c0,0-4,19.2-5.6,23.4l38.6-2.5l-7.3-25.9L25.4,51.8z"/>
	</g>
	<g id="XMLID_6392_">
		<path id="XMLID_6393_" class="st5" d="M51.4,46.2c-4.8,1-21,4.2-25.9,5.1c-0.1,0.5-0.1,0.9-0.2,1.4l26.4-5.2L51.4,46.2z"/>
	</g>
	<g id="XMLID_6394_">
		<path id="XMLID_6395_" class="st6" d="M52.8,24.4c0,0,6.7,0.2,7.5,10.3c0,0-0.7,2.9-6.2-1.5c-5.5-4.4-5.6-7.3-5.6-7.3L52.8,24.4z"
			/>
	</g>
	<g id="XMLID_6396_">
		<path id="XMLID_6397_" class="st6" d="M20.4,30.8c0,0,1.8,7.2-9.1,10.6c0,0-2.4-1.1-0.1-7.8c2.3-6.7,5-7.8,5-7.8L20.4,30.8z"/>
	</g>
	<g id="XMLID_6398_">
		<path id="XMLID_6399_" class="st6" d="M26.1,1.2C8.2,6.3,14,24.7,14,24.7l2.2,6c0,0,4.4,9.3,18.6,8.7C49,38.8,52.1,27.8,52.1,27.8
			l1.6-5.6C53.7,22.2,52.2-6.2,26.1,1.2"/>
	</g>
	<g id="XMLID_6400_">
		<rect id="XMLID_6401_" x="23.2" y="60.2" class="st1" width="31" height="16.3"/>
	</g>
	<g id="XMLID_6402_">
		<path id="XMLID_6403_" class="st0" d="M55.3,76.5c0,0.3-0.5,0.6-1.2,0.6H23.3c-0.6,0-1.2-0.3-1.2-0.6c0-0.3,0.5-0.6,1.2-0.6h30.8
			C54.7,75.9,55.3,76.2,55.3,76.5"/>
	</g>
	<g id="XMLID_6404_">
		<path id="XMLID_6405_" class="st0" d="M24.3,91.3c0,1.5-0.4,2.8-1,2.8h-0.2c-0.6,0-1-1.3-1-2.8V61.6c0-1.5,0.4-2.8,1-2.8h0.2
			c0.6,0,1,1.3,1,2.8V91.3z"/>
	</g>
	<g id="XMLID_6406_">
		<path id="XMLID_6407_" class="st0" d="M55.3,91.3c0,1.5-0.4,2.8-1,2.8h-0.2c-0.6,0-1-1.3-1-2.8V61.6c0-1.5,0.4-2.8,1-2.8h0.2
			c0.6,0,1,1.3,1,2.8V91.3z"/>
	</g>
</g>
</svg>
