<?xml version="1.0" encoding="utf-8"?>
<!-- Generator: Adobe Illustrator 19.0.0, SVG Export Plug-In . SVG Version: 6.00 Build 0)  -->
<svg version="1.1" id="Layer_1" xmlns="http://www.w3.org/2000/svg" xmlns:xlink="http://www.w3.org/1999/xlink" x="0px" y="0px"
	 viewBox="0 0 500 500" style="enable-background:new 0 0 500 500;" xml:space="preserve">
<style type="text/css">
	.st0{fill:#D5463C;}
	.st1{clip-path:url(#XMLID_105_);}
	.st2{fill:#161616;}
	.st3{fill:#FCCBAD;}
	.st4{fill:#E05E86;}
	.st5{fill:#F7F8F8;}
	.st6{fill:#63C4E5;}
	.st7{fill:#F6F1F8;}
	.st8{fill:#363534;}
	.st9{fill:#FFFFFF;}
</style>
<circle id="XMLID_1_" class="st0" cx="250" cy="250" r="250"/>
<g id="XMLID_103_">
	<defs>
		<circle id="XMLID_101_" cx="250" cy="250" r="250"/>
	</defs>
	<clipPath id="XMLID_105_">
		<use xlink:href="#XMLID_101_"  style="overflow:visible;"/>
	</clipPath>
	<g id="XMLID_102_" class="st1">
		<path id="XMLID_100_" class="st2" d="M92.1,500.1c0,0-10.3-26.4-12.3-35.2c-2.1-8.8-2.6-17.7-2.6-17.7s-11.1-9.3-12-9.7
			c-1-0.4-5.6-4.5-8.2-7c-1.3-1.2-2-3.1-2.9-4.5c-0.5-0.8-1.1-1.6-1.8-2.2c-0.9-0.7-1.9-1-2.9-1.4c-3-1.1-5.9-2.4-8.7-4
			c-0.2-0.1-0.5-0.3-0.6-0.5c-0.1-0.2-0.1-0.4-0.2-0.7c-0.1-0.9-0.4-1.8-0.9-2.6c-0.8-1.2-2-2.1-2.9-3.2c-1.4-1.7-2.1-3.8-2.4-5.9
			c-0.3-2.1-0.3-4.3-0.3-6.4c0-1,0-2,0.3-3c0.1-0.6,0.4-1.1,0.6-1.7c0.6-1.6,1.1-3.1,1.4-4.8c0.4-1.8-0.9-3.4-1.5-5.2
			c-1.3-3.8-2-7.7-2.2-11.7c-0.1-1.6-0.1-3.1-0.2-4.7c-0.3-3.1-1-6.1-1.6-9.2c-0.8-4.8-0.9-9.8-0.4-14.6c0.1-0.9,0.2-1.8,0.5-2.7
			c0.3-0.9,0.8-1.8,1.3-2.6c1.5-2.7,2.6-5.5,3.3-8.5c0.6-2.3,1-4.8,2.3-6.8c3.3-4.7,4-11.3,7.7-15.7c0.2-0.3,0.5-0.6,0.8-0.7
			c0.3-0.1,0.5-0.2,0.8-0.3c1.3-0.6,1.2-2.4,0.9-3.8c-1.2-5.5-2.7-11-4.7-16.3c-0.4-1-0.8-2-0.9-3.1c-0.2-1.1-0.1-2.2-0.3-3.3
			c-0.3-1.9-1.3-3.5-2.1-5.3c-2.3-5.5-1.9-12.1,1-17.3c0.4-0.8,1.6-1.2,2.3-1.8c0.5-0.4,1-0.8,1.6-1.1c0.5-0.2,1.1-0.2,1.7-0.3
			c9-0.4,18,1.4,27,1.5c1.9,0,3.7,0,5.6,0.1c2.2,0.1,4.3,0.4,6.4,0.7c1.6,0.2,3.2,0.4,4.8,0.6c1.3,0.2,2.5,0.3,3.8,0.6
			c2.3,0.5,4.5,1.3,6.9,1.6c0.2-0.9-0.2-1.8-0.9-2.3c-0.1,0.2-0.1,0.5-0.1,0.8c-0.8-0.1-1.3-0.8-1.7-1.5c-1.4-2.3-2.8-4.6-3.1-7.2
			c-0.6-4.5,1.9-8.8,4.9-12.3c0.3-0.3,0.5-0.6,0.9-0.8c0.4-0.2,0.9-0.3,1.3-0.5c0.9-0.4,1.6-1.3,1.7-2.3c0.1-1.3,1.2-2.8,1.9-4
			c0.1-0.2,0.3-0.5,0.4-0.7c0.1-0.2,0.2-0.4,0.2-0.6c0.1-0.3,0.4-0.6,0.6-0.8c0.6-0.7,1.1-1.4,1.7-2c1.7-2.2,3.4-4.3,6-5.4
			c0.2-0.1,0.5-0.2,0.6-0.4c0.1-0.2,0.1-0.4,0.1-0.5c0-0.6-0.1-1.3,0-1.9c0.2-0.9,0.7-1.8,1.2-2.6c1.1-1.7,2.2-3.4,3.3-5.2
			c0.6-1,1.3-2,2.2-2.8c0.7-0.7,1.6-1.1,2.4-1.7c0.9-0.6,1.6-1.3,2.5-2c1.8-1.4,3.7-2.6,5.8-3.6c0.2-0.1,0.4-0.2,0.5-0.4
			c0.1-0.1,0.1-0.3,0.1-0.4c0.3-2-0.2-4-1.2-5.7c-2.8-4.6-1.7-10.9-1.5-16.3c0.2-5.4,1.4-10.8,4.2-15.3c1-1.6,2.1-3,3.2-4.6
			c1.3-1.9,2.3-3.9,3.5-5.8c0.9-1.4,1.9-2.7,2.9-4.1c5.4-7.6,9.8-15.8,14.1-24.1c6.5-12.5,13.7-25.2,24.8-33.8c2-1.5,4.1-3,6-4.7
			c1.3-1.1,2.4-2.4,3.7-3.5c3.7-3.1,8.3-4.9,12.6-7.2c8.4-4.5,16.1-11.2,25.6-12.7c4.4-0.7,8.3-2.9,12.6-3.6c4.4-0.7,9-0.6,13.1,1.2
			c0.9,0.4,1.9,0.9,2.9,0.9c1,0,2.2-0.5,2.4-1.5c0-0.2,0-0.4,0.2-0.6c0.3-0.4,0.9-0.2,1.3,0c2.1,1,4.1,1.9,6.2,2.9
			c-0.2-1.4-1.4-2.7-2.8-2.8c3.8-1.8,8.5,2.4,12.2,0.4c0.6-0.3,1.1-0.7,1.7-0.8c1.5-0.3,2.8,1.2,4.3,1.1c1.9-0.1,3.1-2.8,5-2.5
			c2.1,0.3,2.5,3.7,4.5,4c0.2-0.4,0.3-0.9,0.5-1.3c3.9,2.2,8.8,0.1,13.2,0.9c3.1,0.5,5.8,2.5,8.4,4.3c3,2.2,6,4.4,8.6,7.1
			c2.3,2.4,4.4,5.3,7.5,6.6c1.7,0.8,3.9,0.7,5.7,1.3c1.8,0.5,3.2,1.8,4.6,2.9c1.9,1.6,3.8,3.2,5.1,5.3c1.6,2.4,2.4,5.2,3.9,7.6
			c0.7,1,1.5,1.9,2.2,2.9c1.1,1.5,2.1,3.2,3.1,4.8c1.3,2.2,2.5,4.3,3.8,6.5c1,1.7,1.9,3.3,2.8,5c3.8,7.1,6.6,14.8,8.1,22.7
			c1.2,6,3.4,11.6,3.5,17.7c0,1.1,0,2.3,0.1,3.4c0.1,0.9,0.4,1.7,0.5,2.6c0.6,2.4,0.8,4.9,0.8,7.4c0,1.1-0.1,2.2,0.2,3.3
			c0.2,0.7,0.4,1.3,0.6,1.9c0.7,2.5,0.4,5.1,0.5,7.7c0.1,2.1,0.6,4.2,1,6.3c0.6,2.9,1.3,5.9,1.9,8.8c1.2,5.4,4.8,9.8,7.2,14.7
			c0.5,1,0.9,2,1.2,3.1c0.2,1.3,0.1,2.7,0.1,4c0,2.4,0.6,4.7,1.2,7.1c1.5,6.7,2.4,13.5,2.7,20.4c0,1.1,0.1,2.3,0.6,3.2
			c0.7,1.2,2.1,1.9,3.4,2.4c2.8,1.2,5.6,2.4,8.4,3.7c-1-0.8-1.6-1.9-1.8-3.1c3.3,0.2,6.4,2.2,8.1,5.1c0.6,1,1,2.2,1.9,3
			c0.9,0.8,2.1,1,2.9,1.9c0.9,0.9,1.2,2.2,1.7,3.4c1.5,3.2,5.4,5.3,5.7,8.8c0.2,2.3,1.6,4,1.5,6.3c0.5-1.9,0.6-4,0.3-5.9
			c0.9,0.7,1.3,1.8,1.5,2.9c0.5,2.2,0.6,4.5,0.4,6.8c-0.2,2.1-0.8,4.2-1.3,6.3c-0.3,1.2-0.7,2.5-1.4,3.5c-0.3,0.4-0.6,0.7-0.8,1.1
			c-0.3,0.9,0.3,1.9,0.6,2.8c0.4,1.7-0.4,3.4-1.2,4.9c-1.3,2.3-2.7,4.8-5.2,5.7c-1.4,0.6-3.1,0.6-4.1,1.8c0.5,2,0.9,4.1,2.1,5.8
			c0.4,0.5,0.8,1,1.1,1.6c0.9,1.4,1.3,3.1,1.2,4.7c1.1,0.7,1.4,2.1,1.8,3.3c0.4,1.3,0.8,2.5,1.3,3.8c0.4,1.2,0.8,2.5,0.9,3.7
			c0.1,0.8,0,1.6,0.1,2.4c0.2,0.9,0.7,1.6,1,2.4c0.3,1,0.4,2.1,0.4,3.2c0.1,4.3,0.3,8.6,0.4,12.9c0.2,5.5,0.3,11-0.3,16.4
			c-0.7,6.1,0.8,12.2-0.7,18.1c-0.4,1.6-0.9,3.2-1.2,4.8c-1,5.6,0.5,11.2,1,16.9c0.9,8.5-0.3,17.2,1.1,25.6c0.6,3.5,0.9,7.3,1,10.8
			c0,1.4,0,2.7,0.1,4.1c0.2,3.3,0.9,6.6,1.8,9.8c0.3,1.1,0.6,2.3,0.9,3.4c1.5,6.4,1.2,13,2,19.6c0.4,3.5,1.1,6.9,2,10.3l0.4,7.5
			H92.1z"/>
		<path id="XMLID_99_" class="st3" d="M95.8,499.9c0,0,20.1,0.3,20.4,0c-0.2-3.1,0.1-6.7-0.3-9.8c-0.3-2.1-0.6-4.2-1-6.3
			c-0.2-1.1-0.4-2.3-0.6-3.4c-0.5-2.4-1-4.8-1.7-7.2c-0.3-1-0.7-2.1-1.5-2.8c-0.6-0.5-1.4-0.7-2.2-0.9c-7.6-2-14-7.1-20.1-12.1
			c-2-1.6-4-3.3-5.8-5.2c-0.5-0.5-0.9-1-1.4-1.3c-0.8,2.4,0.5,5,1.1,7.5c0.3,1.2,0.4,2.5,0.6,3.8c0.3,2.3,0.7,4.6,1.3,6.8
			c0.8,3.2,1.8,6.3,2.9,9.5c0.5,1.4,0.9,2.8,1.5,4.2c2.1,5.7,5.1,11,6.8,16.9"/>
		<path id="XMLID_201_" class="st3" d="M117.7,500.1h51.8c0-0.3-0.1-0.9-0.1-1.2c-0.2,0-0.3,0-0.5,0c0.1,0.2-0.2,0.5-0.4,0.4
			c-0.2-0.6-0.5-1.2-0.7-1.8c-0.4-0.9-0.7-1.8-0.7-2.8c0.1-1.7-0.8-3.3-1.6-4.8c-0.6-1.2-1-2.4-1.4-3.6c-0.6-1.8-1.3-3.7-1.9-5.5
			c-2-5.7-4-11.4-5.8-17.2c-0.7-2.3-1.4-4.7-2-7c-0.9-3.7-1.8-7.4-2.2-11.1c-0.4-3.8-0.4-7.7-0.8-11.5c-0.4-3.8-1.3-7.5-2.6-11.1
			c-1.3,5.6-0.5,11.4,0.2,17c0.2,1.4,0.4,2.9,0.6,4.3c0.2,1.3,0.3,2.7,0.2,4c-0.1,1.7-0.7,3.3-0.7,5c0,1.4,0.3,2.9,0.5,4.3
			c0.2,1.5,0.3,3,0.2,4.5c0,0.5-0.4,1.2-0.8,0.9c-0.3-0.1-0.3-0.5-0.3-0.8c-0.1-0.3-0.4-0.6-0.6-0.4c-0.1,1.7,0.4,3.5,1.4,4.9
			c0.4,0.5,0.8,1,1.1,1.5c0.7,1.4,0.4,3.1,0.7,4.7c0.2,0.9,0.5,1.7,0.8,2.5c1.9,4.9,3,10.1,3.1,15.3c-3.2-10.8-6.4-21.6-9.6-32.3
			c-0.2-0.7-0.4-1.5-0.8-2.1c-0.3-0.5-0.6-0.9-0.9-1.4c-0.5-0.9-0.5-2-0.9-2.9c-0.4-1-1.2-1.9-2.2-1.8c1.4,4.8,0.2,10-1,14.9
			c-0.3,1.1-0.6,2.3-1.2,3.2c-1.4,2.2-4.1,3.1-6.6,3.3c1.4-2.1,2.1-4.5,2.8-7c1.5-5.1,3-10.5,1.9-15.7c-0.2-1-0.6-2.1-1.4-2.7
			c-0.5-0.4-1.2-0.6-1.6-1.2c-0.3-0.4-0.4-1-0.8-1.4c-0.5-0.5-1.3-0.5-2-0.6c-1.9-0.2-3.7-1.1-4.9-2.5c-1.8-2-4.4-3.7-6.5-5.4
			c-0.7-0.6-1.4-1.1-2.2-1.6c-0.8-0.4-1.6-0.7-2.3-1.2c-0.7-0.5-1.3-1-2-1.6c-3.5-3.1-7.8-5.3-12.1-7.4c-1.2-0.6-2.4-1.2-3.7-1.5
			c-0.8-0.2-1.6-0.2-2.3-0.6c-0.8-0.4-1.4-1.3-2.1-1.9c-0.7-0.6-1.8-1-2.6-0.5c0.4,0.5,0.8,0.9,1.2,1.5c1.5,2.2,1.6,5.1,1.6,7.8
			c0,1.5,0,3.1-0.5,4.6c-0.6,1.4-1.8,2.7-3.3,2.9c-0.2-2.5,0.5-5.1,0.6-7.6c0.2-2.5-0.2-5.4-2.1-7.1c0.2,1.9,0.4,3.8,0.2,5.7
			c-0.2,1.9-1,3.8-2.5,5c-0.6,0.6-1.4,1-2.2,1.3c-1.1,0.5-2.3,1-3.4,1.3c0.1-0.6,0.4-1.3,0.9-1.7c-0.6-0.3-1.4,0-2.1,0
			c-0.7,0-1.6-0.7-1.2-1.3c1.7-0.6,2.4-2.5,2.8-4.2c0.9-4.2,0.6-8.7,2.2-12.7c0.1-0.3,0.2-0.6,0.2-0.8c-0.1-0.6-1-0.9-1.2-1.5
			c-0.3-0.7,0.5-1.4,1.2-1.8c6.1-3.7,10-10,14.7-15.3c0.5-0.6,1.1-1.1,1.8-1.4c0.4-0.2,0.9-0.2,1.3-0.3c1.4-0.3,2.7-0.8,3.9-1.6
			c1.9-1.3,4.4-0.8,6.4-1.7c2.3-1.1,4.5-2.3,6.4-4c1.9-1.7,3.3-4,3.6-6.5c0.1-0.8,0.1-1.8-0.5-2.3c-0.7-0.7-1.9-0.5-2.4,0.3
			c-0.4,0.6-0.3,1.3-0.5,2c-0.3,1.3-1.2,2.3-2.1,3.3c-0.6,0.7-1.3,1.3-2,1.9c-1.8,1.5-4.1,2.2-6.4,2.9c-1.3,0.4-2.9,0.8-4.1,0.1
			c-0.9-0.5-1.3-1.4-1.6-2.4c-0.4-1.2-0.5-2.4-0.3-3.7c-2.4-0.9-4.9-1.2-7.4-1c-0.2,0-0.4,0-0.5,0.1c-0.2,0.2-0.2,0.4-0.2,0.7
			c-0.1,1.5-0.2,3-0.1,4.5c0,0.3,0,0.5,0.1,0.8c0.1,0.4,0.5,0.8,0.8,1.1c0.3,0.4,0.5,0.9,0.2,1.3c-0.3,0.4-1,0.4-1.4,0.1
			c-0.4-0.3-0.6-0.9-0.8-1.4c-0.4-1.3-0.9-2.6-1.3-3.9c-2,0.2-3.2,2.4-4.9,3.6c-0.6,0.4-1.3,0.7-1.9,1.2c-0.4,0.3-0.7,0.8-1.1,1.2
			c-0.7,0.6-1.5,1.1-2.3,1.5c-2.1,1.2-4,2.5-5.9,4c-0.4,0.3-0.8,0.6-1.1,1c-0.4,0.6-0.6,1.2-0.7,1.9c-0.4,1.9-0.2,3.9,0.4,5.8
			c0.1,0.2,0.1,0.4,0.3,0.5c0.2,0.2,0.5,0.2,0.8,0.2c0.9,0.1,1.9,0.3,2.6,0.9c-1.6,0.3-3.1,0.4-4.7,0.4c0.1,1.4-1.1,2.6-1.7,3.9
			c-0.5,1.3-0.2,2.8-0.6,4.1c-0.4,1.2-1.4,2-2.2,3c-1.6,1.9-2.3,4.4-3.7,6.5c-0.2,0.3-0.4,0.6-0.7,0.6c-0.4,0.1-0.8-0.2-0.9-0.6
			c-0.1-0.4-0.1-0.8,0-1.2c0.2-1.2,0.8-2.3,1.2-3.4c0.9-2.1,1.7-4.4,2.5-6.6c0.4-1.2,0.8-2.4,1.3-3.6c0.8-2.2,1.6-4.5,2-6.9
			c0.5-2.5,0.5-5.3,2-7.4c1.1-1.5,2.8-2.5,4.3-3.5c2.6-1.8,4.9-3.9,7.1-6.1c3.1-3,6.5-6.1,10.3-8.1c-0.4,0.5,0,1.3,0.5,1.7
			c0.6,0.3,1.3,0.3,1.9,0.3c2.8-0.1,5.5-0.2,8.3-0.4c2.9-0.1,5.9-0.3,8.5-1.7c1.5-0.8,2.7-2,3.9-3.1c0.9-0.9,1.9-2.2,1.3-3.3
			c-4.1,1.9-9,2.1-13.2,0.4c-0.8-0.3-1.7-0.7-2.3-1.4c-1.1-1.1-1.5-2.8-2.4-4.2c-1.6-2.5-4.6-3.8-7.4-4.8c0,1.2,0,2.4-0.1,3.6
			c-0.7-0.8-1-1.8-1.4-2.7c-0.5-0.9-1.5-1.8-2.5-1.5c-0.3,0.1-0.6,0.3-0.9,0.5c-7.1,5.3-14.9,9.7-23.1,13c-0.8,0.3-1.9,1-1.7,1.8
			c3.3,1.5,5.1,5.6,4.1,9c-0.4,0-0.7,0-1.1,0c0.9-3-1.7-6-4.4-7.7c-0.8-0.5-1.7-0.9-2.7-0.9c-1,0.1-1.9,0.8-1.9,1.8
			c0,0.4,0.2,0.7,0.3,1.1c1.8,3.6,4.9,6.6,8.7,8.1c-1.7,0.3-3.5,0.5-5.2,0.1c-1.7-0.4-3.3-1.7-3.8-3.3c0.1,2.4,0.1,4.9,0.2,7.3
			c0.2,8.8,0.4,17.7-2.2,26.1c-0.2,0.6-0.4,1.2-0.8,1.6c-0.4,0.4-1.2,0.6-1.7,0.2c0.1-14.3,0.8-28.5,2-42.8c2.5-1.1,4.9-2.3,7.4-3.4
			c0.8-0.4,1.7-0.8,2.5-1.3c2.2-1.6,3.3-4.5,2.7-7.2c-0.1-0.4-0.2-0.9-0.1-1.4c0.1-0.4,0.3-0.7,0.6-1c1.1-1.2,2.4-2.3,3.8-3.1
			c4.5-2.7,7.3-7.6,10.8-11.5c1-1.1,2.1-2.3,3.2-3.3c4.5-4.1,10.3-6.4,15.5-9.5c2.3-1.4,4.5-2.9,6.7-4.4c2-1.4,4.1-3.1,4.3-5.5
			c-3.7,3-8.2,5-13,5.8c-1.5,0.2-3.1,0.3-4.3-0.4c-1.3-0.7-2-2.1-2.6-3.4c-0.3-0.6-0.7-1.3-1.4-1.6c-0.4-0.1-0.8-0.1-1.2-0.1
			c-2.6,0.1-5.3,0.6-7.7,1.4c-0.5,0.2-1,0.3-1.3,0.7c-0.7,0.6-0.9,1.6-0.7,2.5c0.2,0.9,0.6,1.7,1,2.5c0.2,0.4,0.5,0.9,0.7,1.3
			c-0.7,0.1-1.3,0.1-2,0.2c-0.2-1.4-0.4-2.8-0.7-4.1c0-0.3-0.1-0.6-0.3-0.9c-0.6-0.5-1.4,0.1-1.9,0.6c-6.7,7.4-14.5,13.6-22.3,19.8
			c-1,0.8-2,1.6-3.1,2c-0.6,0.2-1.4,0.4-1.8,0.9c-0.6,0.6-0.6,1.6-0.3,2.4c0.3,0.8,0.8,1.5,1.2,2.2c0.7,1.2,1,2.6,1,4.1
			c0,0.5,0,1.1,0.3,1.5c0.7,1.1,3,0.7,3.1,1.9c-1.5-0.4-2.6,1-4.1,1.4c-1.1,0.3-2.3-0.1-3.3-0.5c-0.3,7-0.3,13.9,0,20.9
			c0,0,0.2-0.1,0.2,0c-0.3,1-0.2,2.1-0.3,3.1c0,2.8-0.9,5.6-0.5,8.3c0.2,1.1-0.6,2-1,3.1c-1.1,3.2-2.1,6.5-3.2,9.8
			c-0.1,0.5-0.3,1-0.2,1.4c1.6,0.4,2.9,1.7,3.5,3.2c-0.4,0-0.9,0-1.3,0c0.1,0.4,0.6,0.6,1,0.7c3.1,1,5.5,3.4,7.9,5.7
			c1,1,2.1,2.1,2.6,3.5c0.2,0.7,0.3,1.4,0.9,1.8c0.7,0.4,1.7,0.1,2.1,0.8c0.7,1.2,2.6,1.3,3.5,2.4c0.4,0.4,0.7,1,1,1.5
			c0.6,0.9,1.3,1.7,2,2.4c0.8,0.8,1.6,1.7,2.4,2.5c0.7,0.7,1.3,1.4,2.1,1.9c1,0.7,2.2,1,3.2,1.5c1.1,0.6,2.2,1.3,3.2,2
			c0.5,0.4,1.1,0.7,1.6,1.1c0.8,0.6,1.6,1.1,2.3,1.8c1.4,1.3,2.6,2.9,4.3,3.7c0.8,0.4,1.7,0.6,2.2,1.2c0.2,0.2,0.3,0.5,0.5,0.6
			c0.2,0.2,0.5,0.2,0.8,0.3c1.1,0.3,2,1.1,2.9,1.8c1.2,1,2.4,2.1,3.7,3.1c1.1,0.9,2.2,1.9,3.3,2.9c0.9,0.8,1.8,1.5,2.8,2
			c0.9,0.5,1.9,0.7,2.8,1.2c0.7,0.4,1.3,0.9,1.9,1.3c3,2.4,6,4.9,9,7.3c0.6,0.5,1.2,1,1.8,1.5c3.2,2.7,6.5,5.3,9.4,8.4
			c-1.8,0.1-3.3-1.4-4.6-2.6c-1.8-1.6-3.9-2.9-5.9-4.2c0.5,1.1,1.4,1.8,2.1,2.8c1,1.5,1.4,3.4,1,5.2c-0.2,1.1,0.3,2.3,0.6,3.3
			c1,4.6,1.5,5.5,1.4,10.1c-0.5,2.6-1.5,4.4-1.5,4.9L117.7,500.1z M152.9,464.3c-0.7-2.9-1.3-6.9-1.3-6.9s6.3,12.6,7.5,16.7
			c1.2,4.1,3.9,10.4,4,14.3c0,1.2,1.2,5.4,1.2,5.4s-2.9-4.7-4.1-8.8C158.9,480.8,153.6,467.2,152.9,464.3z M91.3,366
			c0,0,1.8-1.6,2.2,0s-1.8,2.8-3.6,2.4C88,368.1,91.3,366,91.3,366z M68.8,387.1c1.2-1.6,3.1-3.3,3.1-3.3s-1.1,6.5-4.4,9.8
			S67.6,388.6,68.8,387.1z M55.7,360.3c0,0,2.4,1,1.5,4.2c-1,3.3-3.3,3.4-3,0.7S54.5,361.8,55.7,360.3z M74.9,399.3
			c-1.2-1.5-1.2-3.1,0-2.2c0,0,2.4,1.6,3.1,3.3C78.8,402.1,76.2,400.7,74.9,399.3z"/>
		<path id="XMLID_92_" class="st4" d="M116.9,380.7c0,0,2.3-4.2,1.1-3.5c-1.1,0.7-6.3,2.9-9.6,2.9c-3.3,0-5.9,0.1-5.8,2.4
			c0.1,2.3,2,4.4,7.9,0.8C116.3,379.8,116.9,380.7,116.9,380.7z"/>
		<path id="XMLID_91_" class="st4" d="M116.8,370.5c0,0,0.6-1.2-1.1-0.9c-1.7,0.4-10.4,0-12.3-1.1c-1.9-1.2-4.7-4.6-1.6-3.2
			c3.1,1.4,11.5,3.5,14.4,3.2c2.9-0.3,1.2,3,1.2,3L116.8,370.5z"/>
		<path id="XMLID_90_" class="st4" d="M94.4,325.4c0,0-3.1-0.1,0-2.5s9-4.5,10.3-4.8c1.3-0.4,3-1.6,5-0.7c1.9,0.8-0.2,3-1.1,3.9
			c-0.8,0.9-5,3.8-8.2,4.2S94.4,325.4,94.4,325.4z"/>
		<path id="XMLID_89_" class="st4" d="M70.2,282.4c0,0-1.7,4.6-6,9.6c-4.4,5-7.6,9-3.6,9s7.7-1.3,9.7-4.6c1.9-3.3,4.4-8.6,4.4-8.6
			s-1.3,0.7-1.2-1.6C73.5,283.9,70.2,282.4,70.2,282.4z"/>
		<path id="XMLID_88_" class="st3" d="M39.9,409.7c0,0,1.3-5.8,2.3-18.6c0.2-2.2-0.1-4.2,0.4-6.3c0.3-1.7,0.8-3.3,1-4.9
			c0.2-1.6,0.3-3.1,0.3-4.7c0.1-4.2,0.1-8.4,0.1-12.6c-0.1-5.4,4-12.8,8.7-15.5c0.1-3.2-0.2-4.6,0.4-7.8c0.4-2.2,0.7-4.8,1.8-6.8
			c0.4-0.7,0.8-1.4,1.1-2.2c0.3-0.8,0.4-1.6,0.6-2.4c1.2-5.7,3.7-11.1,7.8-15.2c0.7-0.7,1.4-1.3,2.1-2c1.9-2,3.3-4.6,4.6-7
			c1-2,2.1-3.9,3-6c0.9-2,1.7-4.1,3.2-5.6c0.1-0.4-0.3-1.1-0.7-1c-2.8,5.6-6.9,11.4-13.1,12.6c-1.8,0.3-3.9,0.1-5-1.3
			c-0.4-0.5-0.7-1.1-1.3-1.3c-0.6-0.1-1.2,0.3-1.6,0.8c-2.5,2.4-5,4.7-7.5,7.1c-1,1-2.1,2-2.9,3.2c-0.9,1.4-1.4,3-1.9,4.6
			c-2.9,9.2-5.8,18.3-8.7,27.5c2.2,1.1,4,3,5.2,5.1c-2.3-0.4-4.4-1.4-6.1-3c-1.5,3.5-1.5,7.4-1,11.2c0.5,3.7,1.6,7.4,2.3,11.1
			c0.8,4.3,1.1,8.7,1.3,13.1c0.4,5.9,1.2,11.7,0.5,17.6c-0.2,1.8-0.6,3.6-0.5,5.4c0.1,1.8,0.9,3.7,2.5,4.6"/>
		<path id="XMLID_87_" class="st3" d="M47.8,355.4c0,0-0.2,3.4,1.1,6s1.2,3.4-1.1,1.3C45.5,360.7,46.5,353.7,47.8,355.4z"/>
		<path id="XMLID_86_" class="st5" d="M40.8,263.1c0,0,1.1-2.2,8.9-1.8s37.7,1.2,50.6,5.8c7.8,1.5,7.7,9.1,7.7,9.1l36.5,133.5
			c0,0,4.7-2.4,2.9-8.5c-1.8-6.1-8.7-29.7-8.7-29.7l-2.4,1.1c0,0-3.4-6-4.9-14.3c-1.5-8.3,1.6-3.6,2-1.6c0,0,2,1.3,0.4-4.2
			c-1.6-5.4-21.6-81.3-21.6-81.3s0.2-6.9-8.3-8.7s-29.6-3.6-40.8-4.2c-11.3-0.5-16.7-2.7-19.8,0C40.2,260.9,40.8,263.1,40.8,263.1z"
			/>
		<path id="XMLID_190_" class="st5" d="M140.5,402.7c0,0-30.7-113.1-33.2-121.4s-0.9-10.7-8.7-12.7c-13.4-3.3-37.2-4.4-47.4-5.3
			c-10.2-0.9-11.4,2-9.8,8.2c0.4,7.6,5.1,22.5,8.3,32.7C63,288.7,64.8,283.8,69,281.5c4.2-2.4,7.1,5.8,7.1,5.8l3.3,1.9
			c0,0,2.7,9.5-1.2,16.4c-3.9,6.9-10.4,12.3-12.1,18.6c-1.7,6.3,0,11.4,0,11.4l13.8-12.6c0,0-3,3.7,0,2.5c3-1.2,19.7-7.9,25.5-8.6
			c5.8-0.7,8.9-0.8,7.2,4.3c-1.7,5.1,0,5.8,0,9c0,3.2-8.6,10.3-15.3,14.5s-8.1,5.6-8.1,5.6s-3.4,5.5-6.4,11.2
			c4.5-4.6,6.9-3.4,10.1-3.4c3.3,0,18.2,8.4,20.4,8.9c2.2,0.5,5.4-0.3,6.4,3.2c1,3.4-1.8,7.1-1.8,7.1l1.1,6.6c0,0,5.9,2.8-3.7,10.6
			s-16,4.3-16,6.8c0,2.5-6.4,11-6.4,11s32.4,2.7,43,3.6C146.5,416.7,140.5,402.7,140.5,402.7z M57.4,278c-2.4,2.7-7.4-1.3-9.3-4.4
			c-1.8-3.1,0.2-6.9,4.4-6.5s6.2,1.8,6.2,5.4C58.8,276.2,57.4,278,57.4,278z M104.8,409.7c-1.9-1.6-0.3-3.5,0.6-5.1
			c0,0,2.7-0.2,3.7,2.2C110.2,409.2,106.8,411.3,104.8,409.7z"/>
		<path id="XMLID_185_" class="st6" d="M345.2,498c-4.2-9.3-8.4-18.7-12.7-28c-1.7-3.7-3.4-7.4-4.5-11.3c-2.7,3.1-6.5,5.2-10.5,5.9
			c2-3,4.4-5.7,7.1-8.1c0.4-0.4,0.8-0.8,0.9-1.3c0.1-0.4,0-0.7-0.1-1.1c-0.4-1.9-0.9-3.7-1.4-5.6c-0.8-0.3-1.5,0.3-2.1,0.9
			c-1.9,2-3.6,4.2-5.6,6.2c-2,2-4.4,3.7-6.8,5.3c-2,1.4-4,2.8-5.9,4.2c-1.3,0.9-2.5,1.8-3.8,2.6c-4.1,2.5-8.9,3.5-13.3,5.3
			c-2,0.8-4,1.7-6,2.2c-1.5,0.4-3.1,0.7-4.6,0.9c-1.5,0.2-2.9,0.5-4.4,0.7c2.6,0.3,5.2,0.5,7.8,0.6c-4.1,0.3-8.1,1.4-12.1,1.8
			c-2.2,0.2-4.5,0.2-6.7,0.3c-4.3,0-8.5,0-12.8-0.5c-5.8-0.7-11.2-3.8-17-4.7c-7.1-1.1-13.6-4.7-19.9-8.3c-2.4-1.4-4.8-2.7-7.3-4.1
			c-0.6-0.4-1.4-1.1-0.9-1.7c2.7,1,5.3,2.5,7.4,4.5c0.9,0.8,2,1,3,1.7c1.5,1,3.1,2.2,4.8,2.7c5,1.4,9.9,2.9,15,4
			c1.8,0.4,3.5,0.8,5.2,1.5c1.2,0.5,2.4,1.3,3.6,1.8c4.1,1.8,8.8,1.6,13.2,0.9c-4.1,0.1-8.2-1-11.7-3.1c-1.4-0.8-2.7-1.8-4.3-2.3
			c-0.7-0.2-1.4-0.3-2-0.7c-1-0.6-1.4-1.8-2.1-2.6c-1-1.2-2.5-1.8-3.9-2.5c-2.5-1.3-4.6-3.1-6.7-4.9c-2.2-1.9-4.4-3.7-6.6-5.6
			c-2.3-2-4.6-3.9-6.5-6.3c-2.4-3-4.1-6.6-6.6-9.6c-1-1.3-2.2-2.5-3.3-3.8c-3.3-3.9-5.6-8.5-7.8-13c-0.7-1.4-1.2-3.5-2.6-4.3
			c-4.8-10.9-8.3-22.3-11.5-33.7c-2.4-8.3-4.7-16.6-7-24.9c-0.7-2.5-1.4-5-2.1-7.5c-1.1-4-2.2-7.9-3.1-12
			c-1.6-6.9-2.8-13.9-3.5-20.9c-0.3-2.9-0.4-6.1,1.6-8.2c0.6-0.7,1.5-1.7,0.9-2.4c-2.8,3-7,4.3-11.1,4.3c-4.1,0.1-8.1-1-12-2.1
			c-0.4,2.2,0.2,4.5,1.6,6.3c0.6,0.7,1.3,1.4,1.7,2.2c0.6,1,0.6,2.2,0.7,3.4c0.2,3.8,0.3,7.6,0.6,11.4c1.6,17,2,34,1.2,51
			c-0.6,0.1-1-0.7-1.1-1.4c-1.4-14.4-2.6-28.8-3.5-43.3c-0.1-1.8-0.2-3.7-0.4-5.5c-0.3-3.7-0.8-7.3-1.3-10.9
			c-0.6-4.7-1.2-9.3-1.8-14c0-0.3-0.1-0.7-0.3-1c-0.4-0.7-1.4-0.7-2.2-0.9c-2-0.4-3.6-1.8-5.1-3.2c-2.2-2-4.4-4.2-5.4-7
			c-0.2-0.7-0.5-1.5-1.2-1.6c-0.3,0-0.7,0.1-1,0.3c-0.6,0.3-1.2,0.6-1.8,0.8c-0.4,0.2-0.9,0.4-1.2,0.8c-0.3,0.5-0.2,1.2-0.2,1.7
			c0.8,5.2,1.5,10.4,3.3,15.3c0.5,1.3,1.1,2.6,1.5,3.9c0.4,1.2,0.8,2.5,1.1,3.8c1,3.9,2.1,7.8,3.1,11.7c0.8,2.9,1.5,5.8,2.3,8.7
			c0.9,3.2,1.8,7.1,2.8,10.3c2.3,7.1,4.2,14.4,6.1,21.6c0.5,1.8,1,3.6,1.4,5.4c0.7,2.5,0.3,5,1.4,7.4c1.3,3,2.6,5.9,3.9,8.9
			c0.7,1.6,1.5,3.4,1.3,5.1c-0.1,2-1.3,3.7-1.9,5.6c-1.1,3.8,0.2,7.8,1.9,11.3c1.7,3.5,5.1,7.2,5,11.1c-0.2,5.3-0.3,10.7-0.5,16
			c0,1.2-0.1,2.3,0.1,3.5c0.2,1.6,0.8,3.1,1.4,4.6c2.2,5.8,4.2,11.7,6.2,17.6c1,3,2,6,3,9c0.8,2.4,1.4,5.1,2.1,7.5
			c2.4,8.3,2,11.2,2,11.2s171.8,0,174.9,0C348.3,500.1,345.2,498,345.2,498z M153.9,341.7c-0.6-3.4-1.8-11.4-2.6-19.2s1,2.8,1.4,5.4
			c0.4,2.5,4,25.6,4,25.6S154.5,345.1,153.9,341.7z M163.7,366.2c-0.7-3.2-3.4-15-6.4-32.9c-2.9-17.9-0.9-9.1,0-4.1
			c0.9,5,4.4,21.2,5.8,28.9c1.4,7.6,4.8,25.1,4.8,25.1C168.3,385,164.4,369.4,163.7,366.2z M189.9,429.6
			c-2.8-4.9-11.2-22.9-16.7-43.2c-5.5-20.3-6-24.2-6-24.2s-3.8-19.3,1.5,2.6c5.3,22,20.1,60.1,28,73.5S192.7,434.5,189.9,429.6z"/>
		<path id="XMLID_78_" class="st3" d="M148.9,391c-0.2-1.3-0.3-3.3-0.5-5.3c-0.5-0.1-0.8-0.8-0.8-1.4c-1.4-14.4-2.6-28.8-3.5-43.3
			c-0.1-1.8-0.2-3.7-0.4-5.5c-0.3-3.7-0.8-7.3-1.3-10.9c-0.6-4.7-1.2-9.3-1.8-14c0-0.3-0.1-0.7-0.3-1c-0.4-0.7-1.4-0.7-2.2-0.9
			c-2-0.4-3.6-1.8-5.1-3.2c-2.2-2-4.4-4.2-5.4-7c-0.2-0.7-0.5-1.5-1.2-1.6c-0.3,0-0.7,0.1-1,0.3c-0.6,0.3-1.2,0.6-1.8,0.8
			c-0.4,0.2-0.9,0.4-1.2,0.8c-0.3,0.5-0.2,1.2-0.2,1.7c0.8,5.2,1.5,10.4,3.3,15.3c0.5,1.3,1.1,2.6,1.5,3.9c0.4,1.2,0.8,2.5,1.1,3.8
			c1,3.9,2.1,7.8,3.1,11.7c0.8,2.9,1.5,5.8,2.3,8.7c0.9,3.2,1.8,7.1,2.8,10.3c2.3,7.1,4.2,14.4,6.1,21.6c0.5,1.8,1,3.6,1.4,5.4
			c0.7,2.5,0.3,5,1.4,7.4c1,2.3,2,4.5,3,6.8C148.9,394.1,149.1,392.6,148.9,391z"/>
		<path id="XMLID_77_" class="st3" d="M276.4,472.4c4.8-0.8,21.2-6,23.3-7.1c2.8-1.3,6.8-3.6,8.5-5.1c1.1-0.9,2.2-1.8,3.2-2.9
			c3.5-3.8,5.3-8.9,9.1-12.4c0.6-0.6,1.3-1.1,1.7-1.8c0.7-1.2,0.6-2.8,0.4-4.2c-0.3-3.6-0.3-7.1,0.4-10.6c1.2-6,2.4-12,2.3-18
			c0-1.2-0.1-2.3-0.6-3.4c-0.5-1-1.5-1.9-2.7-1.9c-1.2,0-2.2,1.2-1.9,2.3c0.4,1.1,1.9,1.5,2.3,2.6c0.2,0.5,0.2,1.1,0.1,1.7
			c-0.3,3.7-0.6,7.3-1,11c-0.1,1.1-0.2,2.2-0.9,3.1c-0.8,1.1-2.3,1.5-3.6,1.4c-1.4-0.1-2.6-0.6-3.9-1c-8.4-2.7-17.5-1.8-26.4-2.2
			c-4-0.2-8.1-0.7-11.5-2.6c-5.4-3-8.4-8.9-11.3-14.3c-0.9-1.7-1.9-3.5-3.7-4.3c-1.9-0.9-4.2-0.4-6.3-0.6c-3.5-0.3-6.6-2.5-9-5.1
			c-2.4-2.6-4.3-5.6-6.6-8.2c-2.6-3-4.5-6.1-6.4-9.6c-2.1-3.7-4-7.5-5.7-11.4c-3.9,0.9-7.9,0.6-11.9,0.3c-2.1-0.2-4.2-0.3-6.3-0.7
			c-4.6-1-8.8-3.3-12.3-6.3c-7.7-6.5-12.4-16.5-12.6-26.7c0-2.4,0.2-4.8,1.1-7c1.1-2.7,3-4.9,5-7.1c2-2.2,4-4.4,5.9-6.6
			c0.7-0.7,1.5-1.6,2.5-1.5c-1.9-2.9-4.4-5.3-7.4-7c-1.1,1.7-3.8,1.9-4.7,3.7c-0.5,1.1-0.2,2.4-0.8,3.4c-0.5,0.8-1.5,1.2-2.4,1.5
			c-3,1.1-6,2.2-9,3.3c-2.5,0.9-5.2,1.8-7.7,1.2c1,4,2,7.9,2.9,11.9c1.4,5.5,2.7,10.9,4,16.4c0.8,3.2,1.5,6.5,2,9.8
			c0.3,2.1,0.6,4.1,1.1,6.2c1.6,6.5,3.3,13.1,6,19.2c0.7,1.5,1.4,3.1,1.9,4.7c0.5,1.6,0.7,3.2,1.2,4.8c0.3,1,0.8,1.9,1.2,2.8
			c3,6.2,5.2,12.7,7.8,19.1c0.3,0.7,0.6,1.4,1,2.1c0.4,0.7,1,1.3,1.4,2c1.4,2.1,1.6,5,1.8,7.5c0.1,1.3,0.9,2.5,1.6,3.5
			c3.1,4.3,6.4,8.5,9.8,12.6c2.7,3.3,5.3,6.5,8,9.8c0.9,1.1,1.8,2.2,2.8,3.2c1.1,1,2.3,1.9,3.6,2.7c7.4,5.1,14.7,10.9,23,14.5
			c1.8,0.8,3.8,1.2,5.8,1.3c0.5,0,1,0,1.5,0.1c0.3,0.1,0.7,0.2,1,0.3c1.3,0.5,2.7,0.8,4.1,0.9c1.3,0.2,2.7,0.2,4,0.2
			c2.4,0,4.9,0,7.3-0.4c0.7-0.1,1.5-0.3,2.1-0.8c0.1-0.1,0.2-0.2,0.3-0.3c0-0.1,0-0.2,0-0.4c0-0.8,0.2-1.6-0.1-2.3
			c-0.4-1.3-0.6-2.6-0.7-4c-0.6-5.1-1.4-10.2-2.5-15.3c-0.1-0.6-0.3-1.2-0.3-1.8c0-0.4,0-0.9-0.1-1.3c-0.1-0.3-0.2-0.6-0.3-0.9
			c-0.1-0.6-0.2-1.1-0.1-1.7c0.6,0.5,1,1.2,1.5,1.9c0.7,1.2,1.5,2.5,2,3.8c0.5,1.2,0.9,2.5,1.2,3.8c0.2,0.7,0.4,1.3,0.5,2
			c0.2,1.3,0,2.6,0.4,3.8c0.2,0.6,0.5,1.1,0.6,1.6c0.2,0.6,0.2,1.2,0.2,1.8c0,0.5,0.1,0.8,0.1,1.3c0.1,2.8,0.5,6.9,0.5,6.9
			S276,472.5,276.4,472.4z"/>
		<path id="XMLID_76_" class="st3" d="M203.2,325.4c0,0,11.6,16.4,13.2,18.8c1.6,2.4,5.1,7.4,4.1,8c-1,0.6-1.8-0.2-2.6,1.4
			s-0.6,3.3-4.3,2.1c-3.7-1.2-13.7-7.3-13.9-17.9C199.6,327.2,202.3,324.2,203.2,325.4z"/>
		<path id="XMLID_75_" class="st7" d="M222.3,214.2c0,0-0.6,0.3,0.2,0.4s15.5,0.9,16.5,0.2c1-0.7,1.8-0.7,1.3-2.3
			c-0.5-1.5-0.9-1.3-2.6-1.6c-1.7-0.3-4.3-1.2-6.7-2.8s-5.7-2.8-7.1-2.8c-1.5,0-2.5,0.2-1.8,1C222.8,207,223.4,212.1,222.3,214.2z"
			/>
		<path id="XMLID_74_" class="st7" d="M218.8,206.6c0,0,0.8,0,0.9,0.8c0.1,0.8,0.7,3.4-1.9,3.5c-2.6,0.1-3.1-0.2-3.6-0.5
			c-0.5-0.3,0,0.5,0.2,0.7c0.2,0.2,3.2,2.7,4.4,2.7s2.6-0.7,2.6-2.4s0.2-4.6-1.4-6.3c-1.5-1.7-3.6,0.3-3.6,0.8
			S217.3,207.1,218.8,206.6z"/>
		<path id="XMLID_73_" class="st8" d="M221.3,211.5c0-1.5,0.1-3.9-0.9-5.6l-0.9,1c0.1,0.1,0.2,0.3,0.2,0.5c0.1,0.8,0.7,3.4-1.9,3.5
			c-2.6,0.1-3.1-0.2-3.6-0.5c-0.5-0.3,0,0.5,0.2,0.7c0.2,0.2,3.2,2.7,4.4,2.7S221.3,213.3,221.3,211.5z"/>
		<path id="XMLID_72_" class="st8" d="M213.1,209.2c0,0-0.1-0.5-0.3-2c-0.2-1.5,0.6-2.5-0.4-2.5s-1.7-0.3-1.4,0.9
			S213.3,210.3,213.1,209.2z"/>
		<path id="XMLID_71_" class="st7" d="M208,206.7c0,0,2.1,2.5,1.8,0.8c-0.4-1.7-0.8-3.4-1.8-3.5c-1-0.1-2.9,0.2-2.1,0.8
			S208,206.7,208,206.7z"/>
		<path id="XMLID_70_" class="st3" d="M241.7,213.7c0,0-0.4,0.7,0.2,1c0.5,0.3,2,0.6,1.5,0C242.7,214.1,241.9,213.1,241.7,213.7z"/>
		<path id="XMLID_69_" class="st7" d="M290.2,226.1c3.1,1.8-0.2-0.9-1.1-2.1c-0.9-1.2-0.9-4-0.8-4.5c0-0.4-1.4,0.5-2.7,1.4
			c0.5,0.9,1.3,2.5,2,3.8C288.2,224.9,289,225.4,290.2,226.1z"/>
		<path id="XMLID_172_" class="st7" d="M313.6,222.3c-3.5-0.3-12-2-14-2.3c-1.9-0.4-2.6-0.5-3.5-0.6c-0.9-0.1-1.4,0.6-2.5,0.7
			c-1.1,0.1,0.9,1.2,1.4,1s1.2-0.1,1.6,0.8c0.4,0.8-0.3,2.4-1.9,2.6c-1.6,0.2-2.4-2.1-2.7-3.7c-0.2-1.6-1-0.9-1.8-1
			c-0.9-0.1-0.7,2.6,0.9,4.7c1.6,2.1,2.8,1.4,2.3,2c-0.4,0.5,1.3,1.1,1.3,1.1s0.1,0.5,2.5,1.2c4.9,1.3,8.9,1.3,14.5,0.3
			c5.7-1.1,9.5-4.6,10.2-5.4C322.7,222.8,317.2,222.6,313.6,222.3z M300.1,224.5c-0.3,0.5-2.1,2.4-3,2.3c-0.8,0,0-1.1,0-1.1
			c1.9-1.3,2.2-2.6,1.9-3.4c-0.3-0.8,0.7-0.5,1.1,0.2C300.5,223.3,300.4,224.1,300.1,224.5z"/>
		<path id="XMLID_66_" class="st8" d="M297.1,225.8c1.9-1.3,2.2-2.6,1.9-3.4c-0.2-0.5,0.1-0.5,0.4-0.4c0-1.1,0.3-2.3-0.8-1.5
			c-0.8,0.5-1.4,1-2,1.3c0,0,0,0,0,0.1c0.4,0.8-0.3,2.4-1.9,2.6c-1.6,0.2-2.4-2.1-2.7-3.7c-0.2-1.6-1-0.9-1.8-1
			c-0.9-0.1-0.7,2.6,0.9,4.7c1.6,2.1,2.8,1.4,2.3,2c-0.4,0.5,1,1,1.2,1.1c0.7-0.2,1.5-0.4,2.2-0.8
			C296.6,226.5,297.1,225.8,297.1,225.8z"/>
		<path id="XMLID_156_" class="st3" d="M335.4,165.5c0.1-2.7-1.7,0.5-3.4,0.4c-1.7-0.1-6.3,1.1-9.8,1.9c-3.5,0.7-2.5-0.9-5.3,1.7
			c-4.1,3.5-7,2.1-8.9,1.1c-1.9-1-2.6-0.3-5.3-1.6c-2.7-1.3-3-1-5.9,0.4c-2.9,1.5,0.2-1.4,3.1-4.4c8.8-11.1,7.8-22,8.1-27.2
			c0.3-5.2-1-7.2-1.6-8s-5.4,0-9.8,1.3c-4.3,1.3-5.9-0.5-8.1-1.6c-2.3-1.1-4.4-0.9-7.8-1c-3.4-0.1-4.8-0.3-8.3-2
			c-3.6-1.7-12.1-2.6-16.4,5.5c-4.3,8.1-0.4,19,0.5,21.3s2.5,7.1,4.2,5.4c1.7-1.6-0.2,1,0.2,2.4c0.5,1.5,0.3,1.3-1.3,0.1
			s-2,3.2-4.9,1.2c-2.9-2-8.2-2.1-9.6-2.9c-1.4-0.8-2.8-2.2-6.6-2.5c-3.8-0.4-2.9,1.3-5.4,0.4c-2.5-0.9-6.3-4.3-7.7-5.1
			c-1.4-0.8-5.7-2.9-8.6-5.4c-2.9-2.5-1.5,0.1,0,1.3c1.5,1.2-1.3,1.4-4.8-1.3s-2.2-1-4.7-2.5c-2.5-1.5-3.5,2.3-4.2,6.5
			c-0.6,4.2-8.2,14.1-13.6,25.1c-5.4,11-6.4,22.5-6.4,25.2c0,2.6-2.4,0.7-2.7,5.3c-0.7,10.8,0.4,21.5,5.5,31.8
			c5.1,10.2,5.3,12.8,5.8,14.9c0.5,2.1-6.4-9.8-9.8-18c-3.4-8.2-3.9-19.1-3.7-22.7c0.2-3.5-1.3-3.3-2.7-6.8s-2.8,1.6-3,5.3
			c-0.2,3.7,2.3,7.5,4.2,10.6c2,3,1.7,7.2,1,8.5s-4-0.9-2.7,1.5c1.4,2.4,0.5,1.9-3.2-2.6c-3.6-4.4-7.3-18.8-5-26.2
			c2.3-7.4,1,6.5,2.3,13.7c1.3,7.2,5.3,11.3,6.3,11.8c1,0.4,0.2-1.7,0.1-4.1c-0.1-2.4-4.2-6-4.9-10.3c-0.7-4.3,0.8-8.8,2.2-10.4
			c1.5-1.6,1.5-1.9,0.6-4.4c-0.9-2.4-0.5-3.1-0.9-4.5c-0.4-1.4-1.7-1.7-3-0.6c-1.3,1.1-0.2,1.5,1,1.5s1.8,0.4,1.5,1.2
			c-0.3,0.8-2.6,0.6-4.4-0.9c-1.8-1.5,2.4-3.7,3.3-4c1-0.3-1.4-4.3-2.1-5.6c-0.7-1.4-2,0.3-2.9,1.5s0-2.8,0.8-3.8
			c0.9-1,4.8-0.9,7,4.2c2.2,5.1,3.8,13.2,4.4,16.2c0.5,2.9,1-1.2,0.9-3.1c-0.1-1.9-0.6-3.8-1.4-6.2c-0.7-2.4-0.3-10.1-0.3-11.7
			c0-1.6,0-0.7-2.9-2.5s-6.7-0.4-10,3c-3.3,3.4-3.6,6.7-2.4,14.2c1.2,7.5,2.4,12.2,2.9,13.7c0.5,1.6,0.5,6.2,1.4,7.7
			s3.4,11.9,5.2,17.8s6.4,11.3,6.9,11.5c0.5,0.2-1.4-11.8-1.6-14.8c-0.2-3,1.3-2.6,1.8,0.5s2.5,16.1,5,29.5
			c2.5,13.4,4.9,14.8,8.3,21.4s13.5,22.5,14,23.1c0.5,0.7-0.9,2,0,2.2c2.7,0,10.8,3.8,10.8,3.8c0.3,0.1,0.4-2.1,1-4.1
			c0.6-2-0.5-2.6,5.3-4.5c5.8-1.9,15.3-2.9,16.1-2.9c0.8,0,2.3,0,1.9-0.3c-1-0.7-1.5-1.9,1.6-4.5c3.1-2.6,11-7.6,12-8
			c1-0.4,1.1-0.6,2.2-0.7c1.1-0.1,7.4,1.9,8.5,2.1c1.1,0.2,2.9-1.3,4-1.3c1.1,0,1.5-1.5,2.2-1.1c6.3,2.6,7.6,5.5,8.7,8.2
			c1.1,2.7,1.2,2.9,4.8,2.5c3.6-0.3,19.5-0.2,20.1-0.2c0.5,0,5.2-12.7,6.8-16.7c1.6-4,9-16.1,10.9-19.9c1.9-3.8,8.2-17.2,8.6-19
			c0.5-1.8,2.3-23.8,2.3-28.6c0-4.8,1.4-5-2,0.1c-3.3,5.1-2.2-0.5-1-4.9c1.2-4.5,5-7.8,1.6-11.8s-8.8-1.1-12.2-0.2
			c-3.4,0.9-9.2,0.5-12.7,0c-3.4-0.6-8.9-1.5-10.2-0.8c-1.2,0.7-6.5-1.8-7.9-2s-5.5,0.8-6.4-2.5c-0.8-3.3,1.3-0.7,1.6-0.5
			c0.3,0.3,4.4,1.9,3.6,0s-1.3-3.2,0.9-1.5c2.1,1.7,2.7-0.4,4.8-0.3c2,0.1,13.8,1.2,16.8,2.1s6.9-4.7,13-4.3
			c6.1,0.4,9.1,7.3,10.7,8.8c1.6,1.4,1.6-17.1,1.8-20.2C336.5,174.5,335.3,168.3,335.4,165.5z M257.1,217.2c0.7-1.8-0.5-4-0.5-4
			c-0.6-2.3,2.4,1.6,2.4,4.6c0,3-3.8,6.5-6.5,7.9c-2.7,1.4-3.2,0.6,0.3-2.4C256.4,220.4,256.4,219,257.1,217.2z M210.1,157
			c0,0-0.5,0.1,2.6-1c3.1-1.1,5.6-1.1,7.3-0.8c1.8,0.3-1.1,1-3.1,1.1c-2,0.1-6.1,1.7-7.2,1.8C208.6,158.1,210.1,157,210.1,157z
			 M204.9,164.8c0,0,8.5-4.4,14.4-6.7c6-2.3,6.4,0.7,7.7,1.3c1.3,0.6-0.5,1.6-1.2,0.3c-0.6-1.3-4.9-0.4-7.8,0.6
			c-3,1-11.9,4.6-13.4,5.1C203.2,165.9,204.9,164.8,204.9,164.8z M197.5,176.7c0,0,0.9-0.5,2.4-1.5c1.5-1,4.1-3.8,7.5-6.1
			c3.4-2.3,7.7-2.7,9.7-3.1s3.6-0.5,6.3-2c2.7-1.5,5.4,2.3,10.8,5.4c5.4,3.1,15.8,12.4,18.5,13.5c2.7,1.1-2.7,2.5-5.7,2.2
			c-3-0.4-9.6-2.8-11.2-3.6c-1.6-0.8-3.9-4.6-5.4-5.2c-1.5-0.6-9.9-6-11.3-7.1c-1.5-1.1-3.8-0.1-5.9,1.4c-2.2,1.5-10.3,6.5-12.2,7.5
			c-1.9,1-3.2,2.2-3.8,0.5C196.1,176.8,197.5,176.7,197.5,176.7z M230.3,220.5c-0.4,1-1.8,1.4-4.8,1c-3-0.5-8.6-1.5-9.8-2.1
			c-1.2-0.6-1.9-1.7,2.1-0.7c0,0,4.9,0.7,7.7,1C228.2,219.9,230.7,219.6,230.3,220.5z M239.4,215.9c-1.6,0.4-7.1,1.8-14.1,1.1
			c-7-0.7-9.3-1.5-12.5-4.2c-0.8-0.9-0.7,1.2-0.7,1.2s-1.1,2.4-1.2,1c-0.2-1.4,0.2-1.7,0.6-2.6c0.4-0.8,0.1-1.8-1.1-1.1
			c-1.2,0.6-2.1,1.3-2.5,2.6c-0.4,1.2-1.4,2.8-1.3,0.5c0.2-2.3,1.3-2.8,1.6-3.8c0.4-0.9,0.8-1.2-0.5-0.4c-1.3,0.8-2.6,0.9-2.9,3.2
			c-0.3,2.3-1.1-1.8-0.5-2.7c0.6-0.8,3.4-2.7,2.5-2.8c-0.9-0.1-3.3,0.3-4.1,1.1c-0.8,0.7-1.5,1.5-1.9,0.6c-0.4-0.8,0.8-2.1,1.5-3.2
			c0.7-1.1,3.8-1.3,2.9-1.8c-1.6-0.9-5.6-2.6-7.7-4.9c-2.2-2.3-2.4-4.9-2-4.1c0.5,0.7,1.2,1.4,1.5,0.9c0.2-0.5,0.5-1.3,1-0.7
			c0.5,0.7,5.7,3.3,8.1,3.7c1,0.2,0.7-0.6,0.8-1.2c0.2-0.6,3.2-6,11.3-10.3c1.6-0.8-0.1-0.8-1.3-0.7c-1.1,0.1-5,2.8-4.9,1.9
			c0.1-0.9,1.8-2.8,3.9-3.4c2.1-0.5,11.6-0.4,16.5,2.1c5,2.4,7.9,5.2,8.8,6.6c0.9,1.4,6.1,9.4,5.6,9.6c-0.6,0.3-0.4,0-2.8-3.6
			c-2.4-3.6-4.9-7-7.3-8.1c-2.4-1.1-11.7-5.5-16.2-4.2c-4.5,1.3-7.2,5.2-9.2,6.9c-2,1.7-4.7,4.2-3.8,4.5c0.9,0.2,6.7,0.8,11.2,1.3
			c4.4,0.5,9.7,1.5,12.5,3c2.8,1.5,9,4.1,10,5.7c1,1.5,2.1,4,2.8,4.4c0.8,0.4,1.3,0.6,0.5,1.1c-0.8,0.5-2,1.2-3.3,0.4
			C240.3,215,241,215.6,239.4,215.9z M247,268c-1.4-0.4-5.3-2.3-6.2-6c-0.9-3.7,0.4-1.5,3-8.3c2.6-6.8,6.3-7,6.3-7s-4,5.5-7.6,13.6
			c0,0-0.8,1.2,0,2.2c0.8,1,5,4.1,5.4,4.6C248.3,267.6,248.4,268.4,247,268z M251.5,267.1c-1.6-1.7-5.4-3.2-5.4-3.2
			c-3.8-0.6-0.8-2.2,2.1-1.1c2.9,1.1,5.1,3.4,5.7,5.6C254.5,270.5,253.1,268.8,251.5,267.1z M257.5,244c-0.2,1-1.9,3.3-3.8,5
			c-1.8,1.8-2.3,0.8-1.2,0c0,0,2.5-2.3,3.6-4.2C257.2,243,257.8,242.9,257.5,244z M261,287c-3-0.7-3.5-4.7-3.4-8.7
			c0.2-4.1,1.1-2.7,0.9,2c-0.2,4.7,1.5,5.4,3,6.3C263,287.4,261,287,261,287z M329.6,219.1c2.4-0.5,1.8,0.9,0.2,2.2
			c-1.6,1.3-2.4,1.5-4.8,1.5c-2.4,0.1-2.2,1.2-1.1,1.1c1.1-0.1,2.6,0.5,4.1,1.6c1.5,1.1,2.2,1.8-0.5,1.2c-2.7-0.6-1.8,0.3-0.3,1.5
			c1.5,1.2-0.1,1.2-1.9,1.1c-1.9-0.2-4.4-0.1-5,0.5c-0.6,0.6,2.7,1,3.6,2.5c0.9,1.5-5.5-0.5-6.8-1.3c-1.4-0.8-0.4,1,0.2,2.3
			c0.6,1.3-0.2,0.8-1.5,0c-1.3-0.8-1.8-2.3-4.7-1.5c-3,0.7-7.4,0.1-9.7-0.6c-2.4-0.6-9.8-1.8-10.9-2.1c-1.1-0.4-3.8-3.1-3.8-4.2
			c0-1.1,0.6-0.5,3.7,1.2c3.1,1.8-0.2-0.9-1.1-2.1c-0.9-1.2-0.9-4-0.8-4.5c0.1-0.5-3.1,1.6-4.2,2.5c-1.1,0.9-1.5,0.4-1.5,0.4
			c-0.9-1.2,0.9-1.7,1.3-1.9c0.4-0.2-1.2-2,2.1-3.6c3.3-1.7,11.3-1.7,17.6,0c6.4,1.7,14.9,3,17.2,3.1
			C323.1,220,327.2,219.5,329.6,219.1z M288.3,209c1.8-1.1,3.8-1.8,5.4-2.5c1.5-0.7,1.9-1.5,1.1-1c-0.8,0.4-1.2,0.4-5.2,0.8
			s8.7-3.3,13.9-3.1c5.1,0.2,7.1,1.4,9.3,2.3c2.2,0.9,7.1,1.9,8.2,2.4c1.1,0.5,3.7,2.3,5.4,6c1.7,3.7-0.3,1.2-1.4-0.1
			c-1.1-1.3-4.2-3.8-5-4.2c-0.7-0.4-1.6-0.9-1.7,0.1c-0.1,1-1.2-0.1-4.6-2.1c-3.4-2-10.7-1.9-11.5-1.9c-0.8,0-1.2-0.5-1.2,0.6
			c0,1.1-0.5,1.2-5.4,2.3c-5,1.1-10.2,4.9-11.9,6.4c-1.7,1.5,0-1.5,0-1.5S286.4,210.2,288.3,209z M287.2,207.2
			c0.8,0.6-1,1.5-2.8,2.9c-1.8,1.4-3,2-3.5,7.6c-0.5,5.6,1.9,8.5,2.6,10c0.7,1.5,1.6,1.9,0.7,2.5c-0.9,0.6-4.7-1.9-5.2-2.4
			c-0.5-0.5-1.7,6.3-1.6,11.2c0.1,4.9-1.9,8.3-1.6,10.8c0.3,2.4,1.5,8,2.2,10.5c0.7,2.5-3.7,4.7-5.2,7.6c-1.5,2.9-1,9.4-0.8,12.2
			c0.2,2.8,1.1,2.8,1,4.1c-0.1,1.3-0.1,1.7,1.1,3.1c1.1,1.5-0.3,0.6-0.3,0.6c-1.3-0.8-3.3-3.3-4.9-7c-1.6-3.7-1.1-9.3-1.1-9.9
			c0.1-0.6,0-1.4-0.9-0.8c-0.9,0.5-0.3-0.7,1.6-2.4c1.8-1.6,7.7-7.2,8.3-8c0.6-0.8-1.7-6.5-2.5-9.2c-0.8-2.7-0.7-16-0.7-21.1
			c0-5.1,2.3-10,3.3-12.8c1.1-2.9,4.8-7,5.6-7.9C283.1,207.9,286.4,206.6,287.2,207.2z"/>
		<path id="XMLID_51_" class="st3" d="M328.1,262c0,0-2,3.1,0,2.5c2-0.5,1.7,0.7,5.2-6.9c3.4-7.6,6.3-11.4,6.5-14.2
			c0.3-2.8,0.7-7-0.7-7.3s-1.2,0.9-1.5,2.5S335.7,249,328.1,262z"/>
		<path id="XMLID_151_" class="st9" d="M321.3,331.8c-9.3,0.1-18.8-7.8-19.9-9.1c-1.1-1.3,0.1-2.6-1.1-4.6s0-4.9,8.3-4.5
			c8.3,0.4,20.8,0.4,20.8,0.4s0.2-9.9-0.2-11.4c-14.6-0.9-51.3,1-60.2,1c-9-0.1-39,3.5-49.1,4.9c-2.6,2.3-0.9,8.6-0.9,8.6
			s-9.2-4.2-14.3-3.9c-5.1,0.3-20.2,9.8-17,27.2c3.2,17.3,16.7,24.8,24.4,25.2c7.7,0.4,16,0.2,16.3,0.2c0.4,0,1.9,3.4,4.1,8.1
			c4,8.4,11.6,16.1,14.2,19.2c2.5,3.1,2.3,5.8,9,4.2s33.9-0.2,35.2-0.2c1.3,0-10.7-8-13.3-11.4c-2.6-3.4-2.6-8.8-0.3-10.4
			c2.3-1.6,6.9,0.3,8.6,0.7c1.7,0.5-9.1-9.3-9.1-15.4c0-6,10.4-2.2,14-1c3.5,1.1,14.2,3.8,17.5,4.3c3.4,0.5,10.4,2.5,12.7,2.7
			c2.2,0.2-1.1-1.3-2.4-2.5c-1.2-1.2-1.5,0.1-3.4,0.1s-7.2-2.3-9.3-2.6c-2.2-0.4-9.3-1.5-11.2-2.8c-8.3-4.7-12.6-13-13.3-17.2
			c-0.7-4.2,0.7-4.9,7.3-3.7s27.9,5.5,34.6,6.6c6.8,1.1,7.4,3,6.8,0.4c-0.6-2.6,0.2-9.5,0.5-12.2S330.6,331.7,321.3,331.8z
			 M194.6,343c-2-2.9-4.5-6.7-3.8-13.7c0.7-7,3.5-8.9,1.8-1.2c-0.6,3.5,0.3,7,0.3,7s0.7,3,1.5,5.6
			C195.1,343.2,196.5,345.9,194.6,343z M223.6,353.1c-1.2,0.2-2.9,1.2-3.2,2.4c-0.3,1.1-0.7,2.9-2.2,3s-9.8-0.2-15.7-7.7
			c-5.9-7.4-7.5-14.7-4.8-22.5s7-8.5,10.6-9c3.6-0.6,8.7-1.4,3.7,1.5c0,0-0.7,0.5,0.3,1.8c1,1.3,2.3,3.2,3.4,2.7
			c1.1-0.5,1.7-0.4,1.9,0.1c0.2,0.5,2.1,11,2.5,13.8c0.5,2.7,1.8,7.8,2.3,9.3C222.9,350,224.8,352.9,223.6,353.1z"/>
		<path id="XMLID_47_" class="st3" d="M334.8,346.6c0,0,1.2-6.1,1.8-8.5c0.6-2.4,0.3-3.6,1.1-3.1s8.7,5.7,10.1,6.2
			c1.4,0.5,1.3,0.5,1,1.4s-1.4,5.7-1.5,6.4c-0.1,0.7,0.1,1.6-2.4,0.6c-2.4-1-10.2-2.2-10.3-2.4C334.8,346.9,334.8,346.6,334.8,346.6
			z"/>
		<path id="XMLID_46_" class="st6" d="M348.8,349.1c0,0-0.7,1.1,1,1.9s3.7,2.9,3.7,1.5c0-1.4,1.6-3.9,1.3-2.4
			c-0.3,1.5-0.7,3.2,0,3.5c0.7,0.3,1.3,2,2-1c0.7-3,2.6-5.4,1.5-6.6s-5.6-2.5-6.7-2.7c-1-0.2-1.5-0.3-1.5,0.6
			S348.8,349.1,348.8,349.1z"/>
		<path id="XMLID_45_" class="st6" d="M359.3,348.9c0,0,4.6,6.9,5.9,8.5c1.3,1.6,3.9,5.2,0,2.4c-3.9-2.8-8.4-4.4-7.9-5.6
			C357.7,353,359,348.4,359.3,348.9z"/>
		<path id="XMLID_44_" class="st3" d="M416.9,500.1c0,0-3.3-6.1-7.5-9.3c-4.3-3.2-19.4-22.3-25.3-32.6c-5.9-10.3-7.6-11.4-5.9-15.7
			c1.7-4.3,25.3-52.4,26.2-56.1c0.9-3.7,3-10.6-1.9-17.6c-4.9-7-29.5-35.2-30.6-38.3c-1.1-3.1,7.3-41.6,8.1-45.8
			c1.6,0.3,7,1.8,10.3,4.4c3.4,2.6,15.5,13.8,17.2,15.3c1.7,1.5,14,16.9,14.9,41.8c0.9,25-5,19.3-2.4,79.3s3.4,27.7,10.3,74.5
			C421.3,500.1,416.9,500.1,416.9,500.1z"/>
		<path id="XMLID_141_" class="st3" d="M410,497c0,0-13.7-13.9-17.8-19.4c-4.1-5.4-12.9-20.8-15.2-24.9c-2.4-4.1-2.6-2.4-1.8-6.4
			c0.8-4,5.4-22,15.6-42.4c10.3-20.3,13.9-24,12.9-29.7c-1-5.7-15.2-19.4-22.7-29.1c-7.4-9.7-8-9.7-8-9.7s-2.7,2.1-2.4,3.1
			c0.3,1.1,1.1,1.6-0.4,1.6s-2.4-1.1-4.4-2.9c-2-1.8-9.4-6.5-3.4-4.8c2.6,0.7,2.7,0.8,3.8-2.2c1.1-3,0.5-1.9-3.8-3.8
			c-4.4-1.9-20.1-7.8-22.7-9c-2.7-1.2-4.7-1.7-5.1-0.6c-0.4,1-2.1,1.8-1.7,0c0.4-1.8,0.8-0.2-8.4-0.3c-3.1,0.1-2.9-0.2-3.1,1.2
			c-0.2,1.4-1.8,6.9-6,6.6c-4.3-0.3-12.6-2.9-14.1-5c-1.5-2.1,0.5,2.1,1.5,2.6c0.9,0.6,6.2,4.2,13.1,5.7c6.9,1.5,16.7,0.8,17.2,1.4
			c0.5,0.7,1.7,0.9,3,1.6s17.9,9.5,20.2,10.6c2.3,1.1,5.2,0.5,5,1.8c-0.2,1.3,0.7,3.2,2.5,5.6c1.8,2.4,8.7,12.4,9.2,13
			s0.9,0.7,0.3,0.9c-0.6,0.2-1.4,0.9-0.2,1.5s4,2,9,3.8c5,1.8,9.5,4.3,12.1,5.8c2.6,1.5,5.1,4.7,4.7,5.6c-0.5,0.9-0.1-1.1-4.3-3.2
			c-4.3-2.1-7.5-2.8-16.4-6.3c-8.9-3.5-16.3-7.6-18.8-9.7c-2.5-2.1-7.4-5.1-7.8-4.3c-0.5,0.8-1.8,3.5-3.1,3.1
			c-1.3-0.5-2.3-2.2-0.5-2c1.8,0.2,0-2.4-0.4-3.4s-2.7-1.7-3.1-1.7s-0.4,0.1-0.4,0.4s0.1,4.9-1.1,1.4c-0.5-1.5,0.2-2.2-1.3-2.5
			s-21.4-4.9-24.1-5.8s-11.2-2.5-10.8-1.2c0.4,1.3-0.4,5.9-3.4,7c-3.1,1.1-5.6,2-13.1-0.5c-1.2-0.6-2.2-0.4,4,3.8
			c6.2,4.2,11,3.5,13.2,4.4c2.2,0.9,7.6,1.4,12.3,3.4c4.7,2,13.4,5,11.1,5.3c-2.3,0.2-0.5,0.7,4,1.4c4.6,0.6,10.7,1.6,11,2.4
			c0.3,0.7,1.2-0.5,1.8-0.4c0.5,0.1,1.3-0.3,1.9,0.6c0.7,1,0.2,1.9-0.2,2.5c-0.5,0.7-0.9,2.3-1.5,2.9s-1.9,1.1-1-0.9
			c0.9-2,1.3-3,0.4-3c-0.9,0-1.4-0.8-1.9-0.1s-0.6,2.8-2.3,2.1c-1.7-0.7,0.9-1.8-0.2-2.1c-1.1-0.3-7.1-0.5-12.5-1.4
			c-5.4-0.9-13-2.4-18.2-4.4c-1.1-0.4-1.2-0.5-1.2,0.4c0,1-0.6,2.7-2.2,2.9s-1.8,0.2-1.1-1.1c0.7-1.2,0.9-2.7,0-2.9
			c-0.9-0.2-5.8-1.2-5.4-0.5c0.3,0.7,1.8,3-0.6,4.6s-8.1,2-12.4,0.5c-2.1-0.7-5.8-2-0.9,1.7c4.8,3.7,7.5,6.4,11.3,7.4
			c3.8,1,6.8,2,12.2,3.2c5.4,1.2,11.8,4.2,17.6,4.3c5.9,0.1,9.1,3,13.4,3.9c4.3,0.9,13.8,4.7,18.4,6c4.6,1.3,6.5,2,6.6,1
			c0.2-1,3-1.2,4.8-1.9c1.9-0.6,6.2-1.8,2.2,0.1c-4.1,1.9-7.3,2.2-4.7,3.2c2.5,1,4.6,1.2,6.8,2.1c2.2,0.9,6.6,5.4,5.6,5.9
			c-1.1,0.5,0.5-1.3-2.7-2.8c-3.2-1.5-9.8-1.4-13.9-3.3c-4.2-2-6.3-3.1-16.4-5.7c-10-2.6-5-3.8-13.6-5c-8.7-1.2-15-1.8-23.6-5
			c-4.2-1.5-13-3-14-3c-1,0-1.1-0.3-1.6,0.4s-2.5,3.6-4.8,3.6c-2.3,0-9.3-2.7-11.4-4.4c-2-1.7-2.5-2.4-1.6-0.2s4,6.5,11.5,9.2
			s20,7.1,23.2,8.2s6.5,2,10.9,2.8c4.4,0.8,16.1,7.8,17.4,8.5c1.3,0.7,15.1,6.6,12,6.6s-5.7-0.8-3.3,1.4c2.4,2.2,3.4,3.1,1.1,2.8
			c-2.3-0.2-4.9-2.8-5.1-1.5c-0.2,1.3,1.1,4.5,2.4,5.2c1.3,0.7,1.7,2.8,0.8,2.8c-0.9,0-3.8-3-4.9-1.8s-0.9,4.1-0.2,5.3
			c0.7,1.2,0.2,2.3-0.7,1.8s-1.2-0.8-1.8,0.4c-0.5,1.2-5.8,13.9-6.6,21.8c-0.2,2,2.1,9.8,3.3,12.4c1.1,2.6,16.3,31.7,16.3,31.7h2.2
			c-0.1-0.1-0.3-0.1-0.4-0.3c-0.7-0.9-1.3-1.8-1.9-2.7c-1.8-2.8-3.6-5.5-5.1-8.4c-1.9-3.7-3.4-7.6-4.4-11.6c0.4-0.2,0.9,0.2,1.2,0.6
			c1.8,2.1,3.4,4.4,4.8,6.7c0.3,0.5,0.5,0.9,0.8,1.4c1.2,1.8,2.7,3.4,3.8,5.2c1.7,2.7,2.7,5.8,4.9,8.1l0.4,1h51.4
			C412.7,500.1,411.8,498.8,410,497z M332.6,323.4c0,0-4.1-1.5,2.2-0.5C341.1,323.9,334.2,323.8,332.6,323.4z M348.6,362.4
			c-1.9-0.1-3.4-0.9-3.8-1.1c0,0-2-1.7,0.6-1C348,361,350.5,362.5,348.6,362.4z M343.3,380.1c-1.9-0.4-3.5-0.8-4.3-0.8
			c-0.8,0,0.2-0.9,0.2-0.9c1.7-0.7,5.9-0.2,8.2,1.1C349.6,380.9,345.2,380.5,343.3,380.1z M337,398.8c-2.3-0.5-4.4-1.5-4.4-1.5
			s-2.4-1.5,1.9-0.5C338.7,397.8,339.3,399.3,337,398.8z"/>
		<path id="XMLID_38_" class="st3" d="M336.9,311.3c0,0-1.4,2.9,1.2,3.8c2.6,0.9,7.5,1.6,10.9,3.3c3.4,1.7,4.8,3.4,5.7-1.8
			c0.9-5.2,3.2-15.2,2.2-15.5c-1-0.3-3.6-0.5-5.9-0.4c-2.3,0.1-1.8-0.9-4-0.3c-2.2,0.6-8.4,2.6-9,2.8c-0.6,0.2-1,0.8-1.1,1.5
			C336.9,305.3,337.2,310.7,336.9,311.3z"/>
		<path id="XMLID_137_" class="st6" d="M374.5,284.3c-1.1,0.2-5,0.5-5.7,2.9c-0.7,2.3-3.1,6.2-5.2,8.2c-2.1,2-3,4.2-3.6,7.1
			c-0.6,2.9-2.5,14.3-2.5,14.3s-0.7,1-0.9,2.2c-0.1,1.2-0.4,0.9-1,1.5c-0.5,0.6,1.7,1,2.3,1.3c0.6,0.3,1.8,1.8,2.3-1.1
			c0.5-2.9,6-22.2,3.5-10.5c-2.4,11.7-3.2,12.8-2.2,13.5c1,0.7,3.3,1.4,5,2.4c1.8,1,2.9,2.7,3.4-1.2c0.5-3.9,6.4-34.3,7-37.5
			S375.6,284,374.5,284.3z M370.2,302.9c-1.9,8.4-4.2,18.7-4.4,19.3c-0.3,0.6-1.7,1.6-1.3,0c0.4-1.6,4.6-20.3,4.7-20.5
			C369.1,301.7,372,294.5,370.2,302.9z"/>
		<path id="XMLID_35_" class="st4" d="M301,317.5c0,0,4.6,2.2,8.9,3.6s9.2,3,9.8-1.8c0.6-4.8,1.2-2-4-1.8c-5.2,0.2-9.2-2.1-11-2.1
			S298.6,315,301,317.5z"/>
		<path id="XMLID_34_" class="st4" d="M282.4,341.2c0,0-2.2-5.3,2.6-2.9s13.8,4.4,16,4.6c2.2,0.2,5.4,2.2,3.9,4.2
			c-1.5,2-4.3,2.3-9.2,1.1s-10.6-2.9-12-4.7C282.2,341.7,282.4,341.2,282.4,341.2z"/>
		<path id="XMLID_33_" class="st4" d="M277.8,360.2c0,0-0.6-3.5,3.5-2.2c4.1,1.4,17.5,6.4,18.3,7.8c0.8,1.4,3.4,2.7,0.5,2.7
			c-2.8,0-9.2,0-14.7-2C279.9,364.6,279,363.9,277.8,360.2z"/>
		<path id="XMLID_32_" class="st4" d="M277.8,378.7c0,0-2.4-4.6,2.3-2.8s14.3,5.7,13.6,6.9s-1.8,1.9-4.3,1.5
			C286.9,383.8,281,381.9,277.8,378.7z"/>
		<path id="XMLID_31_" class="st3" d="M315.3,300h5.5c0,0,0.5-0.1-0.3-1.5c-0.9-1.4-0.7-2,0.6-2.8c1.4-0.8,1.7-2.1-0.9,0
			C317.5,297.7,314.7,300,315.3,300z"/>
		<path id="XMLID_30_" class="st4" d="M241.6,302.6c0,0,6.1,0,7.2-0.5c2.1-0.5,5.2-3.8,8.3-2.5c3,1.3,5.2,1.9,9.3,1.1
			c1.5-0.3,6.7-4.8,5.3-2.7c-1.4,2.1,1.4,2.4,2.7,2.4s2.8,0.4,2.8-0.1c0-0.5,0.1-5.3-4.2-8.3c-4.3-3-3.9-0.1-6.5,0.5
			c-2.6,0.5-6.9-1.9-9.9-1.8c-3,0.1-14.7,10-14.9,10.5C241.4,301.6,241.2,302.6,241.6,302.6z"/>
		<path id="XMLID_29_" class="st8" d="M147.3,309.1c1.2,0.1,2.4,0.1,3.5-0.4c0.3-0.1,0.6-0.3,0.9-0.5c1.2-0.8,2.4-1.6,3.6-2.4
			c0.8-0.5,1.7-1.2,1.9-2.2c2.3,1.3,4.5,2.8,6.6,4.3c0.1,0.1,0.3,0.3,0.3,0.4c0,0.1-0.2,0.2-0.3,0.3c-4.5,1.6-9.5,0.8-14.2,1.7
			c-0.8,0.2-1.8,0.2-2.1-0.5"/>
		<path id="XMLID_28_" class="st8" d="M188.2,293c-1-0.4-2.1,0.5-3,1.2c-1.3,1-2.8,1.6-4.5,1.8c-2.5,0.2-5-0.7-7.1-2.1
			c-2.1-1.4-3.9-3.2-5.6-5c-0.4,1.7,0.6,3.4,2,4.3s3.1,1.3,4.8,1.4c0.2,1-0.8,1.8-1.8,1.9c-1,0-1.9-0.6-2.6-1.3
			c-0.9-0.9-2.2-2.1-3.3-1.4c-0.6,0.4-0.7,1.4-0.3,2.1c0.4,0.7,1.1,1.1,1.9,1.4c2.3,0.9,5,0.8,7.3-0.2c-0.5,0.8-1,1.5-1.5,2.3
			c0.8,0.1,1.5,0.1,2.3,0.2c-1,1.1-2.5,1.6-3.9,1.6c-1.5,0-2.9-0.4-4.3-0.9c-3.1-1.1-6.2-2.4-8.8-4.4s-4.7-4.8-5.3-8
			c-0.5-2.6-0.1-5.3-0.1-8c0-0.2,0-0.3-0.1-0.4c-0.2-0.1-0.4,0-0.6,0c-0.6,0.1-1-0.6-0.9-1.2c0.1-0.6,0.4-1,0.8-1.5
			c2.2-3,3.6-6.6,4-10.2c-1.6,1.1-2.5,2.8-3.5,4.5c-1.7,3.1-3.4,6.2-5.2,9.3c-0.6,1-1.1,2-1.3,3.2c-0.2,1.1,0.1,2.4,0.9,3.2
			c-0.4,0.8-1.9,0-2.6,0.7c-0.2,0.2-0.3,0.6-0.3,0.9c-0.2,1.6-0.4,3.4,0.4,4.9c-0.4,0.6-1.2,0.6-1.8,0.3c-0.6-0.3-1-0.9-1.3-1.5
			c-0.7-1.2-1.5-2.4-2.2-3.6c0.3,2.2,0.6,4.4,0.8,6.6c-1.1-1.5-2.7-2.7-4.4-3.4c-1-0.4-2.2-0.7-3-1.4c-1.1-0.9-1.5-2.5-2.7-3.3
			c-0.5-0.3-1-0.4-1.5-0.7c-1.5-0.8-2.4-2.4-2.9-4.1c-1.2-4.6,0.3-9.8-1.7-14.2c-0.8,0.9-0.9,2.3-1,3.5c-0.2,5.7-0.4,11.7,2.1,16.9
			c0.8,1.7,2,3.3,3.1,4.9c1.6,2.2,3.2,4.5,5.3,6.2c3.3,2.7,7.5,3.8,11.6,4.9c1.9,0.5,4.1,1,5.9,0.1c1.9-1,2.7-3.4,2.6-5.5
			c-0.1-2.2-1-4.2-1.6-6.2s-1-4.3-0.3-6.3c0.5,2.1,1,4.3,1.7,6.3c0.9,2.8,2,5.5,3.8,7.8c1.2,1.4,2.7,2.6,4.4,3.5
			c5.2,2.5,11.4,1.5,16.9,0.1c1.4-0.4,2.8-0.8,4-1.5c0.2-0.2,0.5-0.4,0.6-0.6c0.3-1-1.7-1.1-2.2-2.1c1.9-2.1,3.9-4.2,6-6.1"/>
		<path id="XMLID_27_" class="st8" d="M137.7,290.4c0.1,0.4,0.8,0.4,1,0c0.2-0.3,0.2-0.8,0-1.2c-0.2-0.4-0.4-0.7-0.5-1.1
			c-0.1-0.3-0.1-0.6-0.1-0.8c0-1.7,0-3.5,0-5.2c0-1,0-1.9,0.1-2.9c0.1-1,0.4-2,0.7-3c0.5-1.6,0.9-3.2,1.7-4.6
			c1.1-1.9,2.6-3.5,4.3-4.9c1.9-1.6,4-3.2,6.5-3.2c0.3,0,0.5,0,0.8,0.1c0.3,0.2,0.6,0.5,0.9,0.7c0.3,0.2,0.7,0.4,1,0.2
			c-0.5-2.4-0.3-4.9,0.4-7.3c-0.2-0.3-0.7-0.1-0.9,0.2c-0.2,0.3-0.3,0.7-0.5,1c-0.2,0.3-0.6,0.6-0.9,0.4c0.2-1.4,0.5-2.7,1-4
			c-0.4-0.2-0.8,0.2-1.2,0.5c-1,1-2.1,1.9-3.1,2.9c-0.1,0.1-0.2,0.2-0.3,0.4c-0.1,0.4,0.6,0.5,1,0.3s0.8-0.5,1.2-0.3
			c-0.2,0.8-0.9,1.3-1.6,1.8c-0.7,0.5-1.2,1.1-1.7,1.8c-0.4,0.5-0.7,1-1.1,1.5c-0.9,1-2,1.7-3,2.6c-0.8,0.7-1.6,1.6-2.3,2.4
			c-0.5,0.5-0.9,1.1-1.4,1.6c-1.5,1.8-3.1,3.7-4,5.9c-1.5,3.8-0.9,8.1-0.1,12.1c0.2,0.9,0.5,2,1.4,2.4"/>
		<path id="XMLID_26_" class="st8" d="M176.9,290.4c-0.2,0.5,0.4,0.8,0.6,1.2c0.6,0.9-0.1,2.3,0.5,3.2c1.3-0.4,2.5-1,3.5-1.8
			c0.2-0.1,0.3-0.3,0.4-0.5c0-0.2-0.2-0.4-0.4-0.5c-0.2-0.1-0.4-0.1-0.6-0.1c-0.6-0.1-1.3-0.3-1.8-0.8c-0.1-0.1-0.2-0.2-0.3-0.4
			c-0.3-0.6,0.3-1.2,0.8-1.6c2.1-1.9,3.4-4.4,4.7-6.8c0.5-0.9,1-1.9,1-2.9c0-0.3,0-0.6-0.1-0.9c-0.2-0.5-0.6-1-0.8-1.5
			c-0.1-0.5,0-1.1-0.1-1.7c-0.1-0.4-0.2-0.7-0.4-1c-0.5-1-1-2-1.5-3c-0.1-0.1-0.2-0.3-0.3-0.3c-0.2,0-0.3,0.2-0.4,0.4
			c-0.3,1.3-1.1,2.3-1.9,3.4c-1.4,1.9-2.8,4-3.2,6.3c-0.6,3,0.5,6.1,0.4,9.1"/>
		<path id="XMLID_25_" class="st8" d="M175.7,272.5c1.5-1.1,3.1-2.1,4.8-3c0.5-0.2,1-0.6,0.9-1.1c0-0.1-0.1-0.2-0.2-0.3
			c-0.4-0.6-0.3-1.4-0.3-2.1c0-1.5-0.3-2.9-0.7-4.3c0,0.6-0.3,1.2-0.5,1.8c-1.1,2.5-2.3,4.9-3.6,7.3c-0.4,0.7-0.8,1.4-0.9,2.1"/>
		<path id="XMLID_24_" class="st8" d="M150.1,253.9c1.4-0.1,2.8-0.1,4.1-0.2c-0.2-0.5,0.2-1.1,0.7-1.4c0.5-0.3,1-0.4,1.4-0.8
			c0.3-0.3,0.5-0.8,0.7-1.1c0.4-0.7,1.1-1.1,1.8-1.6c3.7-2.3,7.9-4.5,12.2-3.6c-0.2-0.6-0.4-1.3-0.5-1.9c-0.1-0.2-0.1-0.4-0.3-0.5
			c-0.1-0.1-0.3-0.1-0.5-0.1c-2.2,0.1-4.2,1.1-6.2,1.8s-4.5,1-6.2-0.2c0.9-1.5,2.3-2.7,3.9-3.4c1.5-0.6,3.3-0.8,4.5-1.9
			c-6.8,0.6-12.4,5.5-19,7c1.2-1.6,2.4-3.1,3.6-4.7c0.3-0.3,0.5-0.8,0.4-1.2c-0.8-0.2-1.6,0.3-2.3,0.8c-2.3,1.9-4.3,4.2-5.8,6.8
			c-0.2,0.3-0.4,0.6-0.7,0.5c-0.2-0.1-0.3-0.4-0.5-0.4c-0.3-0.1-0.4,0.3-0.6,0.5c-0.4,0.5-1.2,0.3-1.6-0.2c-0.4-0.5-0.4-1.2-0.3-1.8
			c-0.6-0.1-1.1,0.6-1.3,1.3c-0.2,0.6-0.5,1.4-1.2,1.4c-1-1.9-0.7-4.2,0.4-6.1c1-1.9,2.6-3.3,4.2-4.7c2.6-2.3,5.3-4.6,8.1-6.7
			c-0.5-1.1-2-1.3-3.2-1.3s-2.6,0-3.4-1c6-1.6,12.1-2.6,18.3-3.2c-1-0.7-2.3-0.5-3.4-0.4c-8.2,1-16.5,2.1-24.7,3.1
			c-0.5-0.3-0.3-1,0.2-1.3c0.4-0.3,1-0.4,1.4-0.8c0.4-0.3,0.5-1.1,0-1.3c-0.2-0.1-0.5,0-0.7,0c-1.1,0.4-2.2,0.9-3.3,1.2
			c-2.6,0.7-5.7,0.3-7.8,2.1c-0.8-0.9,0-2.3,0.7-3.2c0.9-1.1,1.8-2.2,2.9-3.2c2.5-2.2,5.8-3.3,9-4.3c0-0.8-0.9-1.3-1.7-1.2
			s-1.4,0.6-2.1,1c-2.4,1.5-5.1,2.4-7.9,2.6c2.9-2.9,6.5-5,10.5-6c2.9,1,6-2.5,8.9-1.6c-0.3-0.6-1.1-1-1.8-1.1s-1.5,0-2.2,0.2
			c-4.1,0.9-7.9,2.9-11.7,4.8c-1.5,0.8-3,1.6-4.3,2.8c-0.6,0.6-1.2,1.3-1.7,2.1c-1,1.3-1.9,2.6-2.9,3.9c-0.3,0.5-0.7,1.2-0.3,1.6
			c-0.8,0.1-1.7,0.4-2.2,1s-0.4,1.8,0.4,2.1c0.7-0.7,1.5-1.4,2.2-2.1c0.2-0.2,0.6-0.4,0.8-0.2c0.1,0.1,0,0.3,0,0.4
			c-0.4,1.5-1.3,2.9-2.1,4.3c-0.8,1.4-1.4,3-1.2,4.5c1.6-2.7,3.9-5,6.5-6.7c0.8-0.5,1.6-0.9,2.5-0.7c-1,1.7-1.9,3.5-2.9,5.2
			c-0.4,0.7-0.8,1.5-0.6,2.2c0.7-0.2,1.1-0.7,1.7-1.2c0.5-0.5,1.2-0.8,1.9-0.6c0.6,0.2,0.9,1,0.8,1.6c-0.1,0.6-0.4,1.2-0.7,1.8
			c-1.3,2.3-2.7,4.5-4,6.8c-0.3,0.5-0.6,1-0.5,1.5c0.1,0.5,0.9,0.9,1.2,0.5c0.1-0.1,0.1-0.3,0.2-0.4c1.4-5.1,5-9.5,9.8-11.8
			c-0.2,0.5-0.6,0.9-1,1.4c-1.7,2.1-2.6,4.7-3.6,7.3c-0.5,1.2-0.9,2.4-1.4,3.6c1-2.7,2.9-5.1,5.3-6.6c0.8-0.5,1.7-0.9,2.3-1.7
			c0.8,2-1.4,3.9-1.4,6.1c1-2.4,2.2-5,4.5-6.1c0.1,1.4-0.5,2.7-1.1,3.9c-1.5,3.3-2.6,6.8-3.4,10.3c-0.2,0.7-0.3,1.7-0.2,2.4
			c0.4-1.1,1.2-2.1,2.1-2.7c0.8-0.5,1.7-0.9,2.5-1.3c0.4-0.2,0.8-0.5,1.2-0.7c0.7-0.4,1.4-0.7,2.2-1.1c0.4-0.2,0.9-0.4,1.3-0.6
			c0.3-0.2,0.6-0.3,1-0.4c2.6-1.1,5.3-1.8,8.1-2.1c1.2-0.1,2.5-0.1,3.4,0.8c0.1,0.1,0.2,0.3,0.1,0.4c0,0.1-0.1,0.1-0.2,0.1
			c-1.6,0.6-3.1,1.3-4.5,2.2c-0.2,0.1-0.5,0.4-0.4,0.6c0.9-0.1,1.7-0.1,2.6,0.1c0.5,0.1,1.1,0.4,1,0.9c0,0.2-0.2,0.3-0.3,0.5
			c-0.5,0.5-1.1,0.9-1.7,1.2"/>
		<path id="XMLID_23_" class="st8" d="M147.4,163.4c-1.3,0-2.6,0-3.8,0c-0.1,0-0.3,0-0.4,0.1c-0.1,0.1-0.2,0.2-0.3,0.4
			c-0.8,1.4-1.4,2.8-1.9,4.3c-0.1,0.4-0.3,0.9-0.4,1.3c-1,3.7-1.4,7.5-1.1,11.3c0,0.4,0.1,0.8,0.2,1.1c0.2,0.7,0.8,1.3,0.7,2
			c0.2-0.6,0.2-1.3,0.2-1.9c0.1-2.6,0.8-5.2,1.6-7.7c0.2-0.9,0.5-1.7,1.1-2.4c0.1-0.1,0.1-0.1,0.2-0.1c0.2,0,0.3,0.2,0.4,0.4
			c0.2,1.2,0.5,2.4,0.7,3.7c0,0.1,0.1,0.3,0.2,0.4c0.2,0.1,0.4,0,0.5-0.2c0.1-0.2,0.1-0.4,0.1-0.6c0-1.5,0.6-2.9,1.7-3.9
			c0.3-0.3,0.7-0.6,1-1s0.5-0.8,0.3-1.3c0.1,0.5,0.3,1,0.4,1.6c0,0.1,0,0.1,0.1,0.2c0.2,0.2,0.4-0.1,0.4-0.4c0.1-0.5,0.1-1,0.3-1.5
			c0.2-0.3,0.5-0.5,0.7-0.8c0.5-0.5,0.8-1.2,1.2-1.8c0.5-0.7,1.2-1.3,1.8-2s1.1-1.5,1.1-2.4c-0.4-0.1-0.7,0.1-1,0.4
			s-0.4,0.6-0.6,0.9c-1.1,1.5-3,2.2-4.8,2.8c-1.2,0.4-2.5,0.8-3.8,1.2c0.1-0.7,0.6-1.3,1.2-1.6c0.2-0.1,0.5-0.2,0.7-0.3
			c0.5-0.3,0.9-0.9,1.2-1.5"/>
		<path id="XMLID_22_" class="st8" d="M156.7,221.3c1,1,2.8,0.8,3.9,1.7c0.4,0.3,0.7,0.7,0.9,1.1c0.2,0.3,0.4,0.5,0.4,0.8
			c0.1,0.3,0.1,0.6,0.1,0.8c0,0.5,0.1,0.9,0.3,1.4c0.1,0.2,0.1,0.4,0.2,0.5c0.4,0.5,1.2,0.5,1.8,0.5c-0.3-0.3-0.4-0.8-0.4-1.2
			c-0.5-3.7-2.2-7-3.8-10.3c-0.3-0.6-0.6-1.2-0.8-1.8c-0.5-1.6-0.5-3.4-1-5c-0.7-2.6-2.4-4.9-2.6-7.6c-0.1-1-0.3-2-0.7-2.9
			c-0.4-0.9-1-1.7-1.4-2.5c-1.4-2.7-1.6-5.9-1.7-9c-0.1-1.9-0.1-3.8-0.1-5.7c0-0.9,0-1.9,0.2-2.8c0.2-0.7,0.5-1.3,0.6-1.9
			c0.1-0.6,0.2-1.2,0.3-1.8c0.2-1.8,0.8-3.6,1.4-5.3c0.3-1,0.7-2.1,1.5-2.9c0.7-0.6,1-1.7,1.4-2.6c0.8-1.9,2.2-3.4,3.3-5
			c0.4-0.6,0.8-1.2,1.2-1.8c0.4-0.5,0.9-1,1.4-1.4c1.4-1.3,2.8-2.6,4.4-3.6c0.7-0.4,1.4-0.7,2.1-0.5c0.1,0,0.1,0,0.2,0.1
			c0,0,0.1,0.1,0.1,0.2c0.1,0.7-0.3,1.4-0.7,2c-1.4,2.2-2.8,4.5-4.2,6.7c-0.5,0.7-1,1.5-1.6,2.1c-0.7,0.7-1.4,1.2-2,2
			c-0.7,0.9-1.1,2.1-1.9,2.9c-0.2,0.2-0.4,0.3-0.5,0.6c-0.2,0.3-0.3,0.8-0.6,1c0.3,1.5-0.6,3-1.1,4.4c-0.1,0.2-0.2,0.4-0.1,0.6
			c0.1,0.2,0.3,0.4,0.5,0.2c0.1,0,0.1-0.1,0.1-0.2c0.7-1.6,1.1-3.3,1.9-4.8c0.3-0.6,0.7-1.2,1-1.7c0.3-0.4,0.5-0.8,0.8-1.3
			c0.3-0.4,0.6-0.9,0.9-1.3c0.4-0.5,0.8-1,1.2-1.4c0.6-0.6,1.1-1.2,1.7-1.8c0.7-0.8,1.5-1.6,2.6-1.7c0.1,0.7-0.3,1.3-0.7,1.9
			c-1.4,2.1-2.4,4.5-3.3,6.9c-0.2,0.1,0,0.4,0.3,0.4c0.2,0,0.4-0.2,0.5-0.4c2.2-2.7,5-4.9,8.2-6.4c0.2,0.3,0,0.6-0.2,0.9
			c-0.6,1.1-1.4,2.2-2.2,3.2c0.4,0.2,0.9,0.1,1.3-0.1c0.4-0.3,0.6-0.6,0.9-1c0.8-1,1.7-1.8,2.8-2.4c0.3,0.6,0,1.3-0.2,1.9
			c-0.8,2.1-1.6,4.1-2.4,6.2c-0.3,0.8-0.6,1.5-1,2.2c-0.6,1-1.5,1.8-2.2,2.6c-0.1,0.1-0.2,0.2-0.2,0.3c-0.1,0.4,0.5,0.6,0.9,0.7
			c0.8,0.1,1.7,0.1,2.5,0c-0.2-0.6-0.1-1.3,0.1-1.9c0.1-0.1,0.1-0.3,0.1-0.4c0-0.2-0.1-0.4-0.1-0.6c0-0.3,0.1-0.7,0.3-1
			c1.5-2.5,3.1-5,4.6-7.4c0.5-0.7,0.9-1.5,1.3-2.2c0.5-0.8,0.9-1.7,1.3-2.5c0.3-0.6,0.6-1.2,0.9-1.8c0.6-1.2,1.2-2.4,1.9-3.6
			c0.9-1.8,1.2-3.8,2.1-5.6c0.9-1.8,1.7-3.7,2.5-5.5c0.6-1.6,1.3-3.1,1.6-4.8c0.1-0.9,0.2-1.7,0.5-2.6c0.1-0.4,0.5-0.8,0.8-0.5
			c0.4,3.4-0.1,6.8-1.4,9.9c0.3,0.1,0.6-0.2,0.7-0.6c0.1-0.3,0-0.7,0.1-1c0.1-1.2,1.3-2,2-3c0.8-1.1,1.1-2.5,2-3.6
			c0.1-0.1,0.2-0.2,0.3-0.2c0.3-0.1,0.4,0.3,0.5,0.6c0.1,1.1,0.1,2.2,0,3.3c-0.1,1.1-0.5,2.1-0.8,3.2c-0.1,0.5-0.3,0.9-0.4,1.4
			c0.2,0.2,0.6-0.2,0.7-0.5c0.7-2.6,2.1-5,3.9-7c0.6,1.3,0.1,2.9-0.4,4.3c-0.5,1.5-0.9,2.9-1.3,4.5c0.2,0,0.4,0,0.5,0.1
			c0.4-2.5,1.3-4.9,2.4-7.2c0.2-0.3,0.3-0.6,0.3-0.9c0-0.3-0.1-0.5-0.1-0.7c-0.7-2-2.7-3.3-4.6-3.9c-0.3-0.1-0.7-0.3-0.6-0.6
			c0,0.6,0,1.2,0.1,1.8c-1.4-0.9-2.3-2.2-3.3-3.6c-1.5-2.1-3.1-4.4-3.1-7.1c0-5-0.5-10.3,1-15.1c0.5-1.7,1.3-3.3,2.1-4.9
			c0.7-1.5,1.4-3,2.3-4.3c-0.3-0.2-0.8,0-1.1,0.3c-0.3,0.3-0.4,0.7-0.5,1.1c-0.4,1.1-1,2.1-1.7,3c-0.3,0.4-0.6,0.9-1.2,1.1
			c0.6-4.5,4.1-8,6-12.1c-0.6,0.4-1,1-1.3,1.6c-0.2,0.3-0.3,0.7-0.5,1c-0.2,0.3-0.5,0.5-0.7,0.8c-2.9,2.5-5.9,5.1-7.7,8.5
			c-0.4,0.8-0.7,1.6-1.1,2.4c-0.4,1.1-0.9,2.3-0.6,3.5c1.3-2.3,2.5-4.6,3.8-6.9c0.2-0.3,0.5-0.6,0.7-0.4c0.1,0.1,0.1,0.2,0.1,0.3
			c1,4.1-2.5,8.1-2.2,12.3c0,0.5,0.1,1,0.1,1.4c0.1,1.1-0.2,2.2-0.5,3.3c-1,4.6-1.7,9.2-2.1,13.8c1.4-2.5,2.5-5.3,3.3-8.1
			c0.1-0.2,0.3-0.6,0.5-0.4c0.1,0,0.1,0.1,0.2,0.2c0.7,1.5,0.6,3.2,0.2,4.8c-0.3,1.6-0.9,3.1-1.2,4.7c-0.1,0.8-0.2,1.3-0.5,2
			c-0.2,0.7-0.3,1.5-0.3,2.2c-0.2,2.1-0.4,4.1-1.1,6.1c-0.4,1.3-1,2.6-1.6,3.9c-0.8,1.8-1.8,3.7-3.5,4.7c-0.7,0.4-1.6,0.7-2.1,1.4
			c-0.2-1.3,0.3-2.6,0.8-3.8c0.8-2.1,1.4-4.2,1.9-6.4c-0.6,0.9-1.3,2-2.4,2c-0.1-1.2,0.5-2.3,1-3.4c0.6-1.5,0.8-3,0.8-4.6
			c-0.4-0.2-0.8,0.2-0.9,0.6c-1.2,2.6-1.8,5.5-2.6,8.3c-0.1,0.5-0.3,1.1-0.7,1.5c-0.3,0.4-0.9,0.7-1.4,0.5c-0.5-0.2-0.8-0.8-1-1.3
			c-0.6-1.4-1-2.9-1.3-4.4c-0.2-0.7-0.3-1.4-0.2-2.1c0.1-1,0.5-1.9,0.8-2.8c0.2-0.7,0.4-1.4,0.5-2.1c0.7-3.2,1.2-6.5,1.6-9.7
			c0.1-1.3,0.2-2.3,0.2-3.6c0-0.7-0.1-1.4,0.1-2.1c0.1-0.6,0.4-1.1,0.6-1.6c2-4.5,3.9-9.1,5.6-13.7c-1.1-0.4-2.3,0.4-3.2,1.2
			c-0.9,0.8-1.7,1.8-2.9,2.1c0.6-1,0.9-2.1,1.6-3.1c0.4-0.5,0.9-0.9,1.4-1.4c1.8-1.7,2.9-4.1,3.9-6.5c-1,0-1.8,0.6-2.5,1.3
			c-3.1,2.9-4.4,7.4-7.4,10.5c-1.6,1.7-3.7,3.1-3.9,5.4c0,0.3,0,0.6,0.1,0.9c0.3,0.6,1,0.8,1.4,1.2c0.6,0.6,0.5,1.6,0.3,2.5
			c-0.3,1.8-0.6,3.5-0.8,5.3c0.7,0.1,1.3-0.5,1.6-1c0.3-0.6,0.6-1.3,1.1-1.7c0.6,0.3,0.8,1.2,0.8,1.9c-0.1,0.7-0.3,1.4-0.4,2.1
			c-0.1,1.4,0.7,2.6,0.7,4c0,1-0.4,2-0.9,3c-1.2,2.6-2.6,5.2-4.1,7.7c-1.2,2.1-2.8,3.8-4.3,5.7c-1.1,1.2-2.2,2.4-3.3,3.6
			c-0.7,0.7-1.3,1.4-2,2c-0.8,0.8-1.6,1.6-2.1,2.6c-0.2,0.3-0.3,0.6-0.3,1c0.1,0.3,0.5,0.6,0.8,0.3c0.1-0.1,0.2-0.3,0.2-0.5
			c0.1-0.2,0.3-0.3,0.5-0.2c0.1,0.1,0.1,0.2,0.1,0.3c0.1,0.7,0.1,1.4-0.1,2.1c-0.1,0.5-0.4,1-0.7,1.5c-0.7,1.3-1.4,2.6-2.2,3.9
			c-0.5,0.9-1,1.8-1.1,2.9c0,0.4,0,0.8-0.2,1.2c0.5,1.8-0.3,3.9-0.7,5.7c-0.2,1.1-0.3,2.2-0.4,3.3c-0.4,4.8-0.8,9.6,0,14.3
			c0.3,1.3,0.6,2.6,1,4c0.5,1.7,0.9,3.5,1.4,5.2c0.2,0.8,0.4,1.6,0.6,2.4c0.5,1.9,1,3.8,1.5,5.6c-1,0-2.1-0.2-3-0.6
			c-0.6-0.3-1.2-0.6-1.8-0.6c-0.2,0.7-0.1,1.5,0.2,2.2s0.8,1.3,1.3,1.9c0.6,0.7,1.1,1.5,1.7,2.2c0.3,0.4,0.7,0.9,1.1,1.3
			c0.3,0.3,0.7,0.6,1.1,0.9c0.8,0.7,1.6,1.3,2.4,2c-0.1,0.2-0.4,0.1-0.5,0c-0.1-0.1-0.2-0.3-0.3-0.5c-0.4-0.4-1-0.3-1.5-0.2"/>
		<path id="XMLID_21_" class="st8" d="M226.5,99c0.3-0.8,1.2-1.2,2-1.1c-1,0.9-2,1.7-3,2.6c-0.5,0.4-0.9,0.8-1.2,1.3
			c-0.3,0.5-0.5,1.2-0.2,1.7c1.3-0.9,2.6-1.8,3.8-2.9c0.7-0.6,1.4-1.3,2.3-1.8c0.9-0.5,1.9-0.7,2.8-0.3c-2.3,1.2-4.5,2.7-6.4,4.5
			c-0.3,0.3-0.6,0.5-0.7,0.9c-0.3,0.7-0.1,1.6-0.2,2.4c3.4-1.8,6.5-4,9.7-6.1c1.7-1.2,3.4-2.3,5-3.5c0.6-0.4,1.2-0.8,1.9-0.9
			c-0.7,1.2-2,2-3.1,2.7c-2.2,1.4-4,3.3-5.8,5.2c-1.5,1.6-3,3.3-3.4,5.5c-0.1,0.3-0.1,0.6,0.2,0.8c3-2,4.9-5.4,8-7.2
			c1.6-0.9,3.4-1.4,5-2.4c1-0.6,2-1.5,3.1-1.8c0.5-0.2,1.1-0.2,1.7-0.3c2.5-0.4,4.7-1.7,7-2.6c0.5-0.2,0.9-0.3,1.4-0.2
			c-1.4,1.2-3.4,1.5-5.2,2.1c-2.1,0.8-3.6,2.5-5.5,3.7c-0.8,0.5-1.5,1-2.2,1.6c-0.5,0.4-0.9,0.7-1.4,1.1c-0.5,0.3-0.9,0.7-1.3,1.1
			c-0.4,0.3-0.7,0.7-1,1c-1.7,1.9-3.5,3.7-5.2,5.6c-0.4,0.4-0.8,0.9-1.1,1.4c-0.2,0.5-0.3,1.2,0,1.7c1.4-2.2,4.1-3.2,5.9-5
			c0.7-0.7,1.4-1.7,2.4-1.7c-1.9,1.3-3.5,3.2-4.4,5.4c3.2-1.4,6.2-3.3,8.8-5.7c0.8-0.7,1.7-1.5,2.7-1.2c-1.3,1.5-2.6,2.9-3.9,4.4
			c-0.2,0.3-0.5,0.5-0.6,0.9c-0.1,0.3-0.1,0.6-0.2,0.8c-0.2,0.5-0.5,0.9-0.8,1.3c-0.8,1-1.7,2-2.4,3c-0.7,1-1.2,2.2-1.6,3.4
			c0.4-0.5,1-0.8,1.5-1.2c2-1.4,3-3.7,5-5.1c0.2-0.1,0.4-0.2,0.6-0.1c-0.4,1.3-1.3,2.5-2.5,3.2c-0.3,0.2-0.6,0.3-0.8,0.6
			c-0.2,0.3-0.2,0.8,0.1,0.9c0.4,0.2,0.8-0.2,1.1-0.6c1.3-1.9,2.6-3.9,4.5-5.2c2.1-1.5,4.8-2.1,6.8-3.8c0.6-0.5,1.2-1.1,1.8-1.6
			s1.4-0.8,2.2-0.7c-1,1.2-1.9,2.4-3.2,3.2c-0.8,0.5-1.8,0.9-2.6,1.4c-1.1,0.6-1.9,1.5-3,2.2c-0.3,0.2-0.7,0.4-1,0.7
			c-0.5,0.4-0.9,0.9-1.4,1.4c-1.2,1.3-2.3,2.7-3.5,4c-0.5,0.5-1,1.2-0.7,1.9c0.3,0.1,0.6-0.1,0.9-0.3c0.9-0.7,1.8-1.4,2.7-2.1
			c3.4-2.5,6.8-5,10.2-7.4c0.2-0.1,0.5-0.4,0.7-0.2c1.6-0.9,3.2-1.9,4.7-2.8c1-0.6,2.1-1.2,3.2-1.5c2.3-0.6,4.7,0.2,7.1-0.1
			c0.2,0,0.4-0.1,0.5-0.2c0.2-0.3,0-0.7-0.2-1c-0.6-0.6-1.4-1-2.2-1.2c-0.4-0.1-0.8-0.1-1.1-0.2s-0.6-0.5-0.5-0.9
			c1-0.4,2.2,0.1,2.9,0.8s1.4,1.7,2.2,2.4c0.1-1.7,0.3-3.4,0.6-5.1c0.1-0.4,0.3-1,0.7-1c0.5-0.1,0.8,0.4,1,0.8
			c0.8,1.3,2.3,2.1,3.5,3.2c1.3,1.2,2.2,2.7,3,4.2c0.1,0.3,0.3,0.5,0.5,0.7c0.5,0.4,1.3,0.3,1.6-0.2c0.2-0.3,0.3-0.7,0.5-1
			c0.2-0.5,0.7-0.8,1.1-1.1c0.8-0.6,1.6-1.2,2.4-1.8c0.3-0.2,0.6-0.5,1-0.7c1.5-0.7,3.2,0.3,4.8,0.8c2.4,0.8,4.7,1.5,7,2.3
			c2.9,1,5.7,1.9,8.6,2.9c1.3,0.4,2.7,0.9,3.9,1.7c1,0.6,1.8,1.4,2.5,2.4c-0.4-1.8-1.5-3.4-2.7-4.7c-2-2.2-4.5-4.1-7.2-5.4
			c-1.8-0.9-3.7-1.5-5.5-2.1c-1.2-0.4-2.5-0.8-3.8-0.8c-0.4,0-0.8,0.1-1.1-0.1c-0.3-0.1-0.6-0.5-0.5-0.9c0.2-0.4,0.7-0.4,1-0.4
			c3,0.2,5.9,0.3,8.9,0.5c2.1,0.1,4.3,0.2,6.3,1c3.1,1.2,5.4,4,8.3,5.6c-0.2-0.4-0.5-0.7-0.5-1.1c-0.1-0.4,0.1-0.9,0.5-1.1
			c0.2-0.1,0.4-0.1,0.6-0.1c2.2,0.2,4.2,2,4.6,4.2c0.1,0.3,0.1,0.7,0.4,0.8c0.3,0.1,0.6-0.1,0.7-0.4c0.1-0.3,0.1-0.6,0-0.9
			c-0.3-1.6-0.6-3.3-1.4-4.8c-1.8-3.4-5.5-5.2-9-6.9c-3.3-1.5-6.5-3-9.8-4.4c-0.5-0.2-1-0.4-1.6-0.5c-1.7-0.2-3.3,1.2-5.1,1.1
			c-0.2-0.1,0-0.4,0.3-0.5c0.4-0.2,0.9-0.3,1.3-0.5c1.8-0.6,3.6-1.3,5.4-1.5c2.8-0.3,5.6,0.4,8.2,1.5c2.6,1.1,4.9,2.7,7.2,4.2
			c0.8,0.5,1.6,1,2.3,1.6c3.3,2.8,5,6.9,8.8,9c0-0.2,0-0.4,0.1-0.6c0.1-0.2,0.3-0.3,0.5-0.2c0.1,0,0.2,0.1,0.2,0.2
			c0.9,1.2,1.8,2.4,2.6,3.6c0.2,0.3,0.4,0.6,0.5,0.9c0.1,0.3,0,0.6,0.1,0.9c0.1,0.3,0.4,0.5,0.7,0.4c0.4-1.7,0.3-3.6-0.2-5.3
			c-0.6-1.9-1.7-3.6-2.8-5.2c-1.4-1.9-2.9-3.8-4.6-5.4c-1.9-1.8-4.1-3.3-6.2-4.8c-0.8-0.6-1.7-1.2-2.5-1.7c-0.4-0.3-0.9-0.6-1.3-0.8
			c-0.2-0.1-0.5-0.2-0.7-0.3c-0.6-0.3-1.1-0.8-1.4-1.3c0.3-0.1,0.7,0,0.9,0.2c3.3,1.6,6.6,3.3,9.4,5.6c1.2,1,2.3,2.2,3.5,3.3
			c1.8,1.6,3.8,3.1,5.6,4.8c0.7,0.7,1.4,1.5,2,2.3c0.4,0.5,0.8,1,1.1,1.6c0.9,1.2,1.8,2.6,2.5,3.9c0.3,0,0.5,0.4,0.4,0.6
			s-0.4,0.4-0.7,0.6c-1.1,0.6-2.3,1.2-3.6,1.1c2.3,0.3,4.6,0.8,6.8,1.6c0.3,0.1,0.6,0.2,0.7,0.5c0.2,0.4-0.1,0.8-0.5,1
			c-0.4,0.1-0.8,0.1-1.2,0c1.9,0.9,3.8,1.9,5,3.6c1.7,2.2,2,5,2.7,7.7c-0.6-0.6,0-1.8-0.7-2.3c-0.1-0.1-0.2-0.2-0.4-0.3
			c-0.2-0.1-0.3-0.3-0.4-0.5c-1.5-2.4-3.5-4.5-5.7-6.2c-0.3-0.3-0.7-0.5-1.1-0.7c-0.5-0.2-1-0.2-1.5-0.1c-1.7,0.1-3.6,0.2-5-0.8
			c1.9,2.4,3.4,5.1,4.4,8.1c0.2,0.6,0.4,1.2,0.5,1.8c0.1,0.7,0.1,1.4,0.2,2.1c0.1,4.3,0.2,8.8-1.5,12.8c-0.4,0.9-0.9,1.8-1.1,2.8
			c-0.4,1.5-0.2,3.1-0.8,4.4c-0.1,0.3-0.4,0.7-0.7,0.8c-0.4,0.1-0.7-0.1-0.6-0.5c0.3-1.3,0.6-2.7,1.2-3.9c0.5-1,1.1-1.9,1.4-3
			c0.4-1.2,0.3-2.6,0.2-3.9c-0.3-4.3-1-8.8-3.9-11.9c-0.7-0.7-1.5-1.4-2.2-2c-1-0.8-2.1-1.6-3.4-1.8c-0.3,0.5-0.1,1.1,0.2,1.5
			c0.3,0.4,0.8,0.8,1.1,1.2c0.9,1.1,1.1,2.5,1.9,3.6c0.4,0.6,1,1,1.3,1.6c0.4,0.8,0.4,1.8,0.3,2.8c-0.2,2.5-0.5,5-1,7.4
			c0.1-2.7,0.2-5.5,0.3-8.2c0-0.6,0-1.2-0.1-1.7c-0.3-0.8-0.9-1.5-1.5-2.1c-1-1-2-2-3-2.9c-0.5-0.5-1.1-1.1-1.9-1.1
			c-0.2,1.4,0.8,2.7,1.5,4s1.3,3,0.3,4.1c-0.8-1.2-1.6-2.4-2.4-3.6c-0.3-0.4-0.7-0.9-1.2-0.9c-0.4,0-0.7,0.4-0.8,0.8
			c-0.1,0.4,0,0.8,0,1.2c0.2,1.8-0.1,3.7-0.7,5.5c-1.2-1-2-2.4-2.3-4c-0.1-0.4-0.1-0.8-0.3-1.2c-0.2-0.4-0.6-0.6-1-0.5
			c0.1,2.2,0.2,4.5,0.1,6.7c-0.5-0.2-0.6-0.9-0.6-1.4c-0.2-2.1-1.2-4.1-2.7-5.6c0.5,1.7,0.7,3.4,0.6,5.1c-1.5-2.3-3.4-4.4-5.6-6.1
			c-0.2,1.6,0.5,3.1,0.9,4.7c0.4,1.6,0.3,3.2-0.1,4.8c-0.5-0.1-0.6-0.7-0.7-1.1c-0.3-2.6-0.8-5.1-1.6-7.5c-0.2-0.5-0.4-1.1-0.7-1.6
			c-0.3-0.5-0.6-0.9-1-1.3c-1.4-1.5-3-2.8-4.6-4.2c-0.9-0.8-1.6-1.5-2.7-2.2c-1.6-1.1-3.2-2.1-5-2.8c-1.8-0.7-3.8-0.9-5.6-0.3
			c-1.2,0.4-2.3,1.3-3.5,1.8c-1.6,0.7-3.5,0.9-4.3,2.4c-0.2,0.4-0.3,0.9-0.5,1.3c-0.9,1.8-3.5,2.4-3.8,4.3c-0.2,0.8,0.2,1.7-0.2,2.5
			c-1.6-0.1-3.2-0.1-4.8-0.2c-0.3,0-0.7,0-1-0.1c-0.5-0.2-0.8-0.5-1.2-0.8c-2.5-2.1-5.5-3.6-8.6-4.6c-0.5-0.1-1.1-0.6-0.7-1
			c0.1-0.1,0.3-0.1,0.5-0.2c1.5-0.2,2.9-0.3,4.4-0.1c1.4,0.2,2.9,0.9,3.7,2.1c0.4,0.6,0.7,1.4,0.9,2.1c1.1-0.6,2.4-1.4,2.3-2.7
			c0.1,0.7,1.3,0.6,1.6,0s-0.1-1.4-0.5-1.9c-0.7-1-1.7-1.8-2.8-2.5c1,0.5,2.1,0.7,3.2,0.7c-3.7-2.5-9-2.6-12.8-0.2
			c-1,0.7-2,1.5-3,2.2c-2.2,1.4-4.7,2.3-6.8,3.8c-2.1,1.5-3.7,3.6-4.5,6c-0.5-1.1-0.3-2.4,0.2-3.5c0.5-1.1,1.2-2.1,1.8-3.1
			c0.6-1,1-2.2,1.7-3.1c0.7-1,1.7-1.7,2.6-2.5c5.5-4.2,11.9-7.2,18.6-8.8c-2.8,0.2-5.8,0.1-8.6,0.5c-1.2,0.2-2.4,0.4-3.4,1
			c-0.5,0.3-1,0.7-1.5,1.1c-2.7,2.3-5.5,4.6-7.5,7.5c-2,3-3.2,6.5-5.4,9.3c-0.3,0.4-0.6,0.8-0.8,1.2c-0.1,0.3-0.4,0.8-0.7,0.7
			c-0.7-1.1-1.1-2.4-1.2-3.7c-0.2-0.2-0.4-0.1-0.6,0.1c-0.1,0.2-0.1,0.4-0.2,0.6c-0.2,3.2,0,6.5,0.1,9.7c0,1.1,0.1,2.2,0.1,3.3
			c-0.7-2.3-1.9-4.4-2.4-6.7c-0.6-3-0.1-6.2-0.4-9.3c0-0.3-0.1-0.7-0.4-0.8c-0.4,0.2-0.4,0.8-0.5,1.3c-0.1,0.5-0.7,1-1,0.6
			c-0.1-0.1-0.1-0.3-0.1-0.4c-0.1-1.8-0.2-3.7-0.3-5.5c-2.5,2.9-3.4,6.9-3.6,10.8s0.2,7.7,0,11.6c-0.8-2-0.2-4.6-1.4-6.4
			c-1.9-2.8-2.6-6.4-1.8-9.8c0.3-1.1,0.6-2.4-0.1-3.3c-1.7,2.3-2.6,5.1-2.6,7.9c-0.5-1.7-1.1-3.5-1.6-5.2c-0.3-1.1-0.7-2.2-0.8-3.3
			c-0.2-1.5,0-3.3-1.1-4.4c-0.4,0.3-0.4,0.9-0.5,1.4c-0.3,2.2-1.8,4-2.6,6c-0.8,1.8-1,3.8-0.6,5.7c-1-3-1.6-6.3-1.5-9.5
			c0-0.7-0.1-1.6-0.7-1.8c-1.6,1.5-1,4.3-2,6.2c0.3-2.3,0.2-4.7-0.2-7c-0.9,0-1.3,1.1-1.5,1.9c-1.2,5.2-2.3,10.6-1.2,15.8
			c-0.5-1.3-1-2.6-1.4-4c-0.3-0.9-0.5-1.8-0.5-2.7c0-0.8,0.2-1.6,0.3-2.4c0.4-2.6,0.4-5.3,0.4-8c0-1.7-0.1-3.5-1-5
			c-2,2.6-3.3,5.6-3.8,8.8c-0.5-0.2-0.7-0.9-0.7-1.5c-0.1-1.5-0.2-3,0.3-4.3c0.4-1,1.1-1.8,1.5-2.7s0.7-2.1,0.1-3
			c-1.3,0.8-2,2.2-2.5,3.6c-0.9,2.4-1.5,4.9-1.8,7.4c-0.6-0.5-0.6-1.5-0.5-2.3c0.3-3.1,0.7-6.3,1-9.4c-1.3,2.2-2.7,4.4-4,6.6
			c-0.3-1.8-0.3-3.5-0.2-5.3c0.1-0.9,0.1-1.9-0.7-2.4c-2.5,5.1-2.6,10.9-2.7,16.5c-1-4.8-2.1-9.9-0.1-14.4c0.6-1.3,1.5-2.8,0.9-4.2
			c-2.3,2.8-3.2,6.6-3.7,10.2c-0.5,3.6-0.7,7.3-1.8,10.8c-1.6-4.1-1-8.6-0.2-12.9c0.2-1.1,0.4-2.1,0.6-3.2c0.3-1.8,0.7-3.6,1-5.4
			c0.2-1,0.4-2,0.8-3c1.5-3.5,5.3-5.5,7.1-8.9c0.4-0.8,0.3-1.8,1-2.3c0.3,0.9-0.2,1.8-0.6,2.7c-0.9,2.2-0.9,4.6-0.9,6.9
			c1.5-0.7,2.6-2.4,2.4-4.1c0.6,0.3,1.1,0.7,1.6,1c-0.1-1.4-0.2-2.9,0.6-4.1c0.5-0.6,1.2-1.1,1.9-1.5c1.4-0.8,2.9-1.7,4.3-2.5
			c0.7-0.4,1.5-0.9,2.3-0.9c-1.1,0.4-1.5,1.8-2.3,2.7c-0.4,0.3-0.8,0.6-1.2,0.9c-0.7,0.5-1.2,1.2-1.7,1.8c-1.1,1.4-2.2,2.8-3.3,4.2
			c0.9,0.4,1.9-0.3,2.5-1.1c0.6-0.8,1-1.7,1.8-2.2c1.1-0.7,2.6-0.6,3.5-1.6c-2.3,2.2-4.4,4.7-6.1,7.4c-0.2,0.3-0.4,0.8-0.1,1.1
			c0.2,0.2,0.4,0.2,0.6,0.2c0.9-0.1,1.6-0.9,2.2-1.7c0.7-1,1.4-2.1,2.2-3c0.8-0.9,1.7-1.6,2.6-2.3c1.1-0.9,2.2-1.8,3.4-2.7
			c0.4-0.4,0.9-0.7,1.3-1.1c0.6-0.5,1.2-1,1.9-1.4c1.2-0.7,2.6-0.9,3.8-1.4c1.3-0.6,2.5-1.4,3.8-2.1c1.3-0.7,2.8-1.1,4.1-0.7
			c-1.6,0.8-3.3,1.6-4.9,2.4c-0.6,0.3-1.2,0.6-1.9,0.9c-0.8,0.4-1.6,0.8-2.3,1.2c-3.6,2-6.8,4.8-9.2,8.2c-0.1,0.1-0.1,0.2-0.2,0.3
			c-0.2,0.5,0.6,1,1.1,0.8s0.8-0.7,1.2-1.2c0.6-0.8,1.3-1.4,2.2-1.8"/>
		<path id="XMLID_20_" class="st8" d="M261.6,98.8c1.3-0.5,2.6-0.9,4-1.2c0.5-0.1,0.9-0.2,1.4-0.1c0.5,0.1,1,0.4,1.4,0.7
			c1.2,0.8,2.4,1.7,3.1,2.9c0.1,0.1,0.1,0.2,0.1,0.3c0,0.2-0.3,0.3-0.5,0.3c-1,0-2-0.1-3-0.2c0,0-0.1,0-0.1,0
			c-0.1,0-0.1-0.1-0.1-0.1c-0.3-0.4-0.9-0.1-1.4-0.3c-0.5-0.1-0.9-0.7-1.4-0.9c-0.5-0.3-1.1-0.2-1.6-0.5c-0.4-0.2-0.8-0.6-1.2-0.6"
			/>
		<path id="XMLID_19_" class="st8" d="M274.1,91.4c0.8,1.4,1.3,3,1.7,4.6c0.1,0.4,0.2,0.8,0.4,1.1c0.1,0.1,0.3,0.2,0.5,0.3
			c0.6,0.2,1.2,0.4,1.7,0.8c0.6,0.5,1,1.2,1.7,1.7c0.9,0.7,2.2,0.9,2.9,1.7c0.2-0.7,0.2-1.4,0.2-2c0-0.3-0.1-0.5-0.2-0.8
			c-0.2-0.4-0.6-0.6-0.9-0.9c-1.2-1-1.6-2.7-2.8-3.8c-0.3-0.3-0.7-0.5-1.1-0.7c-1.3-0.7-2.6-1.5-3.9-2.2"/>
		<path id="XMLID_18_" class="st8" d="M246.5,85.2c1.1,0.2,2.2-0.3,3.3-0.9c-0.1,0.3-0.2,0.7-0.1,1c0.1,0.3,0.6,0.5,0.8,0.2
			c0-0.1,0.1-0.1,0.1-0.2c0.1,0,0.2,0,0.2,0.1c0.7,0.6,1.3,1.3,1.8,2c0.1,0.1,0.2,0.2,0.3,0.2c0.1,0,0.2-0.1,0.2-0.1
			c0.2-0.2,0.5-0.3,0.7-0.3c-0.3-0.8-0.6-1.6-0.8-2.5c0-0.1-0.1-0.3,0-0.4c0.1-0.1,0.2-0.1,0.3-0.1c0.6,0,1.2,0,1.8,0
			c0.4,0,0.8,0,1.2-0.1c0.4-0.1,0.8-0.2,1.2-0.3c0.4-0.1,0.7-0.1,1.1-0.1c0.2,0,0.4,0,0.6,0.1c0.2,0.1,0.4,0.2,0.6,0.4
			c1.2,0.9,2.4,1.9,3.6,2.8c-0.3,0.3-0.8,0.2-1.2,0.2c-0.8,0-1.6,0.3-2.3,0.5c-2.5,0.7-5.1,1.2-7.7,1.3c-0.7,0-1.4,0-1.9-0.4
			c-0.1-0.1-0.3-0.3-0.4-0.4c-0.9-1-2.5-1.5-3.1-2.8"/>
		<path id="XMLID_17_" class="st8" d="M249.3,77.5c1.4,1,3.3,0.4,5,0.9c1.1,0.3,1.9,1.1,2.9,1.6c1.4,0.7,3.1,0.6,4.6,1
			c2.6,0.6,4.8,2.4,7,4c0.8,0.6,1.7,1.2,2.8,1.5c0.3,0.1,0.6,0.1,0.9,0.2c1.7,0.3,3.1,1.4,4.5,2.5c0.2-0.5,0-1-0.4-1.4
			c-0.3-0.4-0.7-0.7-1-1.2c-0.3-0.5-0.4-1-0.7-1.5c-0.4-0.6-0.9-1.1-1.5-1.6c-1.3-1.1-2.7-2.3-4.3-3c-0.9-0.4-2-0.6-3-0.6
			c-0.7,0-1.5,0.1-2.2,0c-1-0.1-1.9-0.4-2.8-0.8c-3.4-1.3-6.9-2.5-10.6-2.3c-0.6,0-1.3,0.1-1.7,0.6"/>
		<path id="XMLID_16_" class="st8" d="M276.5,82.4c-2.7-1.7-5.4-3.4-8.1-5.1c-0.8-0.5-1.7-1.1-2.6-1.3c-0.5-0.1-1-0.2-1.5-0.3
			c-1.8-0.5-3.2-1.9-4.9-2.4c-0.7-0.2-1.5-0.3-2.3-0.4c-1.7-0.1-3.4-0.3-5.1-0.4c-1.6-0.1-3.3-0.3-4.8-1c1.7-1.1,3.6-2.2,5.6-1.9
			c0.7,0.1,1.4,0.3,2,0.5c2.9,0.8,5.9,0.8,8.8,0.7c0.4,0,1-0.2,1-0.6c0-0.2-0.2-0.3-0.3-0.4c-1.7-1.3-3.9-1.4-6-1.8
			c-2.8-0.4-5.6-1.2-8.3-2c3.4,0.4,6.7,0.7,10.1,1.1c1.2,0.1,2.5,0.3,3.7,0.5c0.8,0.2,1.5,0.4,2.3,0.6c0.3,0.1,0.6,0.2,0.8,0.1
			c0.3-0.1,0.5-0.3,0.5-0.6c0-0.2-0.2-0.3-0.3-0.4c-0.5-0.4-1-0.7-1.5-1.1c-0.5-0.4-1-0.7-1.5-1c-0.6-0.3-1.3-0.5-2-0.6
			c-7.1-1.6-14.3-2.3-21.6-2.2c2.6-0.8,5.2-1.7,8-1.9c1.7-0.2,3.5-0.1,5.2,0c0.8,0,1.7,0.1,2.5,0.3c1.1,0.3,2.1,0.8,3.1,1.3
			c1.4,0.8,2.8,1.5,4.2,2.3c0.9,0.5,1.9,1,2.7,1.7c0.9,0.7,1.7,1.5,2.6,2.2c0.6,0.4,1.2,0.8,1.7,1.3c1.4,1.1,2.6,2.7,3.2,4.4
			c0.2-0.5,0.3-1,0.5-1.5c0.1-0.2,0.2-0.4,0.3-0.4c0.1,0,0.2,0.1,0.2,0.1c0.6,0.6,0.8,1.4,1.1,2.2c0.5,1.4,1.2,2.7,2.1,3.8
			c0.8,0.9,1.7,2.1,1.2,3.2c-0.3,0.7-1.1,1-1.8,1.3"/>
		<path id="XMLID_15_" class="st8" d="M280.8,87.5c0,1.5,0.7,2.8,1.3,4.1c0.4,0.7,0.7,1.3,1.1,2c0.5,0.9,0.9,1.8,1.5,2.6
			c0.4,0.5,0.8,1,1,1.6c0.6,1.8-1.1,3.7-1,5.6c0,1.1,0.6,2.1,1.2,3.1c0.1,0.2,0.2,0.4,0.4,0.4c0.4,0.1,0.8-0.4,1-0.8
			c0.5-1,1.3-1.8,2.2-2.4c1-0.6,2.2-0.8,3-1.6c-0.8-1-2.6-1-3-2.2c-0.2-0.6,0-1.4,0.5-1.9c0.5-0.5,1.1-0.8,1.8-1
			c2.2-0.9,4.5-1.8,6.7-2.6c0.2-0.3-0.1-0.7-0.4-0.8c-0.3-0.1-0.7-0.1-1,0c-2,0.4-4.1,0.7-6.1,1.1c-0.3,0.1-0.7,0.1-1,0
			c-0.3-0.1-0.6-0.4-0.6-0.8c0.2-0.8,1.9-0.5,2-1.4c0-0.4-0.3-0.7-0.7-0.7c-0.4,0-0.7,0.1-1.1,0.3c-1.3,0.6-2.5,1.2-3.8,1.8
			c0.6-0.5,1.1-1,1.7-1.6c0.3-0.3,0.6-0.9,0.2-1c-1.1,1-2.7,1.5-4.2,1.3c0.4-0.7,1.1-1.2,1.9-1.6c3-1.7,5.9-3.4,9-4.9
			c3.2-1.6,6.6-3.1,9.6-5.1c-1.5-0.5-3.1,0.4-4.5,1.1c-3.3,1.6-7.1,2.1-10.4,3.7c-0.9,0.4-1.7,0.9-2.6,1.3c-1.3,0.6-2.7,1.2-4,1.6
			c1.7-1.9,3.7-3.6,5.9-5c-0.7-0.3-1.6,0-2.3,0.4c-0.7,0.4-1.3,0.9-2,1.3c-1.2,0.6-2.7,0.7-3.4,1.8"/>
		<path id="XMLID_14_" class="st8" d="M279.2,84.9c-0.1,0.5,0.1,1,0.5,1.4c0.1,0.1,0.3,0.2,0.4,0.2c0.2,0,0.3-0.2,0.4-0.3
			c0.4-0.4,0.8-0.7,1.2-1c0.6-0.4,1.2-0.6,1.7-0.9c2.1-1.2,3.7-3.1,5.6-4.6c1.4-1.1,2.9-2,4.5-2.7c0.8-0.3,1.7-0.7,2-1.5
			c-1-0.2-2,0.2-2.9,0.6c-0.5,0.2-1,0.4-1.5,0.7c-1.1,0.5-2.3,1-3.4,1.5c-0.8,0.3-1.6,0.7-2.2,1.3c-0.1,0.1-0.2,0.2-0.3,0.3
			c-0.3,0.2-0.7,0-1.1,0c-0.8,0-1.5,0.5-2.1,1c-0.9,0.7-1.7,1.6-2.4,2.4c-0.4,0.4-0.7,0.9-0.7,1.5"/>
		<path id="XMLID_13_" class="st8" d="M263.1,60.5c1.9,1.1,3.6,2.4,5.2,4c0.5,0.5,1,1,1.5,1.5c0.1-0.4,0.1-0.7,0.2-1.1
			c0-0.1,0-0.2,0-0.3c0-0.1-0.1-0.2-0.2-0.3c-0.7-0.6-1.5-1.1-2.2-1.8c-0.4-0.4-0.7-0.8-1.1-1.2c-0.8-0.6-1.8-0.9-2.8-1.1"/>
		<path id="XMLID_12_" class="st8" d="M310.4,83.6c1.2-0.2,2.2-0.7,3.3-1c2.7-0.8,5.6-0.6,8.4-0.4c0-0.4,0-0.7,0-1.1
			c0-0.1,0-0.2,0.1-0.2c0,0,0.1-0.1,0.2-0.1c0.8-0.2,1.6,0,2.4,0.4c0.8,0.3,1.5,0.8,2.3,1c1.4,0.4,3,0,4.4,0.3
			c0.9,0.2,1.7,0.7,2.4,1.2c0.5,0.3,1,0.6,1.5,1c0.4,0.3,0.9,0.7,0.8,1.2c-1.3,0.1-2.5,0-3.8-0.3c-0.3,0.3,0.1,0.8,0.5,0.9
			c0.4,0.1,0.9,0.2,1,0.6c0.1,0.3-0.1,0.6-0.3,0.7s-0.6,0.1-0.8,0c-0.2-0.1-0.4-0.2-0.7-0.3c-0.5-0.2-1-0.2-1.5-0.2
			c-1.3,0-2.6,0-4,0.1c-0.7,0-1.4,0-2-0.3c-0.3-0.1-0.6-0.3-0.8-0.5c-0.8-0.5-1.7-0.7-2.5-0.9c-0.3-0.1-0.6-0.1-0.9-0.2
			c-0.3-0.1-0.6-0.1-0.9-0.2c-0.3,0-0.7,0-1-0.1c-0.6-0.1-1.1-0.5-1.7-0.7c-0.7-0.3-1.6-0.3-2.4-0.4c-1,0-2-0.1-3-0.1"/>
		<path id="XMLID_11_" class="st8" d="M343.2,100.9c0.7,2.4,2.4,4.4,3.1,6.8c0.4,1.2,0.5,2.6,1.3,3.6c0.1,0.2,0.3,0.3,0.4,0.4
			c0.1,0.1,0.3,0.1,0.4,0.1c1.1,0,2.3-0.2,3.3,0.3c0.5,0.2,0.8,0.5,1.2,0.8c1.8,1.4,3.7,2.9,5.5,4.3c0.3-1.2,1.1-2.2,2.2-2.8
			c0.1,0,0.2-0.1,0.2-0.2c0-0.1,0.1-0.2,0.1-0.3c0-0.4,0-0.7,0-1.1c0-0.7,0-1.4-0.5-1.9c-0.5-0.5-1.4-0.4-2-0.8
			c-0.7-0.4-0.8-1.3-1.2-2c-0.4-0.8-1-1.4-1.8-1.7c-0.5-0.2-1.1-0.4-1.2-1c0-0.3,0.1-0.6,0.1-0.9c0-0.4-0.2-0.8-0.4-1.2
			c-1.9-3.2-4-6.3-6.2-9.2c-0.4-0.5-0.6-1.1-1-1.5c-0.2-0.2-0.5-0.4-0.7-0.6c-1.1-1.1-1.6-2.7-2.7-3.9c-0.3,0.7,0.2,1.4,0.4,2.1
			c0.3,1,0.1,2.2,0.6,3.1c0.1,0.2,0.2,0.4,0.3,0.6c0.3,0.5,0.5,1.1,0.5,1.7c-0.5,0-0.9-0.5-1.1-1c-0.2,0.7,0,1.6,0.3,2.2
			c0.3,0.7,0.8,1.3,1.4,1.9c0.2,0.2,0.4,0.5,0.6,0.8c0.2,0.3,0.3,0.6,0.5,1c0.5,1.2,1.1,2.5,1.6,3.7c0.1,0.3,0.3,0.6,0.4,0.8
			c0.2,0.4,0.5,0.7,0.7,1.1c0.2,0.4,0.3,0.8,0.1,1.2c-2.6-1.2-3.4-4.8-5.9-6.2"/>
		<path id="XMLID_10_" class="st8" d="M358.9,125.6c0.9,3.1,0.9,6.4,1,9.7c0,1.3,0,2.7-0.2,4c-0.2,1.2-0.6,2.4-1,3.5
			c-0.2,0.5-0.4,1.1-0.7,1.6c-0.2,0.3-0.4,0.5-0.5,0.8c-0.4,0.9-0.4,1.9-0.4,2.9c0,0.3,0.1,0.7,0.4,0.6c0.2,0,0.3-0.2,0.4-0.4
			c0.6-1.4,1.1-2.8,1.5-4.3c0.2-0.8,0.4-1.6,0.8-2.4c0.2-0.4,0.4-0.7,0.4-1.1c0.1-0.4,0.1-0.8,0.1-1.2c0-2.9,0-5.7,0-8.6
			c0-0.5,0-1.1-0.2-1.6c-0.1-0.3-0.2-0.5-0.3-0.7c-0.2-0.5-0.3-1.1-0.4-1.7c-0.1-0.6-0.4-1.2-0.9-1.5"/>
		<path id="XMLID_9_" class="st8" d="M358.1,172c0.4,0.3,0.6,0.9,0.8,1.4c0.2,0.6,0.4,1.3,0.7,1.9c0.3,1,0.7,1.9,1.2,2.8
			c0.4,0.7,1,1.3,1.8,1.5c0.2,0,0.5,0,0.7,0c0.1,0,0.3,0,0.4-0.1c0-0.1,0.1-0.1,0.1-0.2c0.1-0.7,0.2-1.5,0.2-2.3
			c0-0.2,0-0.3-0.1-0.5c-0.1-0.1-0.2-0.3-0.3-0.4c-0.9-0.8-1.9-1.7-3-2.4c-0.5-0.3-1-0.6-1.3-1.1c-0.2-0.4-0.5-0.9-0.9-0.9"/>
		<path id="XMLID_8_" class="st8" d="M351.5,181.9c-0.4-0.6-0.6-1.4-0.6-2.1c0-0.1,0-0.3,0.1-0.4c0.2-0.3,0.7-0.1,0.9,0.2
			c1,1.2,1,2.9,2.1,4c0.9,0.8,2.2,1,3.3,0.6c0.4-0.1,0.7-0.3,1.1-0.3c0.6,0,1.2,0.5,1.8,0.7c0.2,0.1,0.4,0.1,0.5,0
			c0.2-0.1,0.1-0.5-0.1-0.6c-0.2-0.2-0.4-0.2-0.6-0.4c-0.5-0.3-0.5-1-0.6-1.5c-0.1-0.6-0.1-1.1-0.2-1.7c0-0.2,0-0.5,0.2-0.6
			c0.2-0.1,0.4,0.1,0.5,0.2c0.8,0.8,2.1,1.1,3.2,0.8c0.2-0.1,0.4-0.1,0.6-0.1c0.1,0,0.2,0.2,0.3,0.3c1.9,2.1,2.4,5.2,4.2,7.4
			c0.4,0.4,0.8,0.8,1.1,1.3c0.4,0.5,0.6,1.1,0.9,1.7c0.1,0.3,0.2,0.5,0.3,0.8c0.2,0.4,0.3,0.8,0.5,1.1c1.6,3.9,1.9,8.2,1.8,12.4
			c-0.5-0.1-0.8-0.6-1-1.1c-0.3-0.8-0.7-1.6-1-2.3c-0.1-0.3-0.2-0.5-0.5-0.7c-0.2-0.2-0.6-0.1-0.7,0.1c-1-1.3-1.5-3-2.3-4.5
			s-2.1-2.9-3.7-3.1c-0.3,0.3-0.1,0.8,0.2,1.2c0.3,0.3,0.6,0.7,0.6,1.1c-0.3,0.2-0.6,0.1-0.9-0.1c-0.3-0.2-0.4-0.5-0.6-0.7
			c-1.9-3-4-5.8-6.2-8.5c-0.6,1.6,0,3.4,0.7,5c0.8,1.5,1.8,3,2.3,4.7c-0.9-0.5-0.9-1.8-1.4-2.6c-0.6-1-1.9-1.3-2.9-2.1
			c-0.8-0.7-1.3-1.6-1.8-2.6c-1.2-2.3-2.5-4.8-2.2-7.4"/>
		<path id="XMLID_7_" class="st8" d="M359.5,220c-0.1,4.3,1.2,8.6,0.8,13c-0.3,3.3-1.5,6.5-3.4,9.2c-0.5,0.7-1.2,1.4-2.1,1.4
			c-0.3,0-0.6-0.2-0.7-0.4c-0.1-0.2-0.1-0.4-0.1-0.6c0-0.8,0.4-1.6,0.6-2.5c0.2-0.8,0-1.9-0.8-2.2c-2.1,2.8-0.9,7.1-2.9,9.9
			c-1.3,1.9-4,2.8-6.2,2.1c-0.4,0.8,0.3,1.8,1.1,2c0.8,0.3,1.7,0,2.5-0.3c0.3-0.1,0.6-0.2,0.9-0.3c0.3,0,0.5,0.1,0.8,0.1
			c1.8,0.5,3.7,1,5.5,1.4c0.5-3.1,4.1-5.3,7.1-4.3c0-1-1-1.9-2-1.7c-0.2-0.1-0.2-0.5,0.1-0.7c0.2-0.2,0.5-0.1,0.8-0.1
			c1.7,0.2,3.3,0.5,4.9,0.9c0.4,0.1,0.8,0.2,1.1,0.5c0.6,0.5,0.7,1.5,1.4,2c0.4,0.3,0.9,0.4,1.3,0.6c1.2,0.5,1.8,1.8,2.4,3
			c0.9,1.9,1.8,3.9,2.7,5.8c1.2-2.1,0.5-4.9-1-6.8c-1.5-1.9-3.6-3.2-5.7-4.5c0.8-0.4,1.7-0.1,2.5,0.3c1.5,0.7,3,1.3,4.5,2
			c0.2-0.6-0.1-1.2-0.6-1.6c-0.5-0.4-1.1-0.5-1.7-0.6c2.3-0.4,4.5,1.3,6.3,2.8c0.8,0.7,1.7,1.5,2.3,2.5c0.9,1.5,1,3.4,1.1,5.2
			c0.1,2.8,0.3,5.6,0.4,8.4c0.8-3.5,1.4-7.1,1.5-10.6c0.4,0.7,0.9,1.3,1.3,2c1.1-2.8-0.2-5.9-1.6-8.6c-0.6-1.2-1.1-2.3-1.9-3.3
			c-1.4-1.7-3.3-2.9-5.3-4.1c0.9,0,1.7-0.7,1.8-1.6c-1.6-0.5-3.2,0.7-4.7,1.5c-1.5,0.8-3.3,1-5,0.7c-0.2,0-0.3-0.1-0.5-0.2
			c-0.5-0.4,0-1.2,0.6-1.4s1.3-0.4,1.4-1c0-0.5-0.6-0.9-1.1-0.8c-0.5,0-1,0.3-1.4,0.6c-1.1,0.8-2.1,1.7-2.9,2.7
			c-0.3,0.4-0.7,0.8-1.1,1.1c-0.5,0.2-1.1,0.2-1.4-0.2c-0.2-0.2-0.2-0.5-0.3-0.8c-1.1-6.2-1.9-12.4-2.3-18.6c-0.1-1.8-0.2-3.6-1-5.2
			c-0.3,0.3-0.3,0.7-0.2,1.1"/>
		<path id="XMLID_6_" class="st8" d="M356.6,253.4c0.4,0.2,0.7,0.5,1,0.8c1.5,1.3,3,2.7,4.4,4.2c0.3,0.3,0.6,0.7,0.8,1.1
			c0.2,0.4,0.4,0.8,0.5,1.2c0.8,2,1.6,3.9,2.6,5.8c0-1,0-2.1-0.2-3c-0.1-0.7-0.4-1.3-0.5-2c-0.1-0.4-0.1-0.9-0.1-1.3
			c-0.2-1.9-0.9-3.8-2-5.4c-0.3-0.4-0.7-0.9-1.1-1.2c-0.3-0.3-0.6-0.5-1-0.7c-1-0.6-2.1-1-3.2-0.8c-0.5,0.1-1.1,0.3-1.5,0.7
			c-0.2,0.2-0.3,0.6-0.1,0.6"/>
		<path id="XMLID_5_" class="st8" d="M380.7,242.6c-0.1,0-0.2-0.1-0.2-0.2c0.7,0.2,1.4,0.1,2-0.2c0.3-0.2,0.5-0.4,0.8-0.6
			c0.2-0.2,0.5-0.3,0.8-0.4c0.1,0,0.3-0.1,0.4,0c0.1,0,0.1,0.1,0.1,0.1c0.3,0.4,0.7,0.9,0.8,1.5c0,0.2,0.1,0.3,0.2,0.5
			c0.1,0.1,0.3,0.2,0.5,0.3c1,0.5,1.4,1.7,1.6,2.8c0.1,0.4,0.1,0.9,0.2,1.3c-0.2,0.1-0.3-0.1-0.5-0.2c-1.2-1-2.5-2-3.8-2.9
			c-0.3-0.2-0.6-0.5-1-0.6c-0.5-0.3-1.1-0.4-1.4-0.9"/>
		<path id="XMLID_4_" class="st8" d="M350,256.5c1.8,1,2.4,3.2,3.2,5c1.3,3,3.4,5.7,4.1,8.9c0.1,0.5,0.2,1.1,0.3,1.6
			c0.5,1.5,1.7,2.7,2.3,4.2c0.4,1.1,0.4,2.2,0.4,3.3c0,1,0,2-0.1,3c0,0.6-0.1,1.2-0.2,1.8c-0.4,2.1-2,4-2.4,6.1
			c-0.1,0.3,0,0.7,0.3,0.7c0.1,0,0.2-0.1,0.2-0.1c2.8-2,4.6-5,6.4-7.9c0.9-1.4,1.7-2.8,2.2-4.4c0.5-1.9,0.4-4.1-0.4-5.9
			c-0.5,0.1-0.7,0.7-1.1,1c-0.4,0.3-0.9,0.3-1.5,0.3c-1.1,0-2.1,0-3.2,0c-0.1,0-0.3,0-0.4-0.1c-0.1-0.1-0.1-0.3-0.1-0.4
			c-0.1-1.6-0.8-3-1.5-4.5c-0.6-1.3-1.2-2.6-1.9-3.9c-1.5-3-2.9-6.1-5-8.8c-0.5-0.7-1.3-1.4-2.1-1.3c0.1,0.2,0.1,0.5,0.2,0.7"/>
		<path id="XMLID_3_" class="st8" d="M395.1,251.1c-0.3,1.1-0.4,2.4,0.3,3.3c0.5,0.7,1.3,1,2,1.4c0.6,0.4,1.1,1,1.5,1.7
			c0.7,1.4,0.8,3,1.5,4.4c1.2,2.4,4.2,3.7,5.2,6.2c0.5,1.2,0.4,2.6,0.4,3.9c-0.1,2-0.2,4-0.3,6c0,0.3,0,0.5,0.1,0.8
			c0.1,0.2,0.5,0.4,0.7,0.2c0.1-0.1,0.2-0.3,0.2-0.5c0.1-0.9,0.3-1.7,0.4-2.6c0.3-0.1,0.5,0.3,0.6,0.6c0.2,0.7,0.3,1.4,0.5,2.2
			c0.1,0.7,0.3,1.4,0.3,2.1c0,1-0.4,2-0.8,2.9c-1.1,2.9-2.4,5.9-4.8,7.8c0.8,0.2,1.5-0.7,2.1-1.3c0.9-0.9,2.2-1.4,3.3-2
			c3.5-1.9,5.9-5.5,7.2-9.2c0.2-0.6,0.4-1.2,0.2-1.8c-0.1-0.6-0.7-1.1-1.3-1c-0.6,0.1-0.8,0.8-1.1,1.3c-0.3,0.5-0.9,1.1-1.4,0.8
			c0.2-3.1,0.5-6.1,0.7-9.2c0-0.3,0-0.7-0.3-0.9c-0.3-0.2-0.7,0.2-1,0.5c-0.6,0.7-1.5,1.2-2.4,1.3c0.2-0.8,0.4-1.5,0.6-2.3
			c0.4-1.4,0.7-2.9,0.5-4.4c-0.2-1.6-1.1-3.1-2.2-4.4c-3-3.8-7.1-6.6-11.6-8"/>
		<path id="XMLID_2_" class="st8" d="M342.6,256.3c-0.5,1.4-0.9,3,0,4.2c0.3,0.4,0.6,0.7,0.9,1c0.3,0.4,0.4,0.8,0.6,1.3
			c1.1,3.3,1.7,6.8,1.5,10.3c0,0.6-0.1,1.2-0.3,1.8c-0.3,0.6-0.8,1-1.4,1.1c-0.6,0.1-1.3-0.4-1.2-1c-0.9,1.6-1.7,3.1-2.6,4.7
			c-0.1,0.1-0.1,0.2-0.3,0.3c-0.2,0.1-0.5-0.2-0.5-0.5s0-0.5-0.2-0.7c-0.2-0.3-0.8-0.2-1.1-0.1c-0.4,0.2-0.8,0.4-1.2,0.2
			c-0.5-0.2-0.5-0.8-0.5-1.3c-1.4,1.1-2.7,2.2-4,3.5c-0.3-0.2-0.6-0.6-0.6-1c-0.7,1.8-1.3,3.6-1.8,5.4c-0.2,0.6-0.1,1.4,0.4,1.5
			c0.5,0.1,0.8-0.6,0.9-1.1s0.2-1.2,0.7-1.3c0.4-0.1,0.8,0.1,1,0.4c0.2,0.3,0.3,0.7,0.3,1.1c0.2,1.4,0.7,2.8,1.2,4.1
			c0.4-1.9,0.8-3.7,1.3-5.6c0.1-0.6,0.4-1.4,1-1.6c0.5-0.2,1.1,0,1.4,0.3s0.6,0.9,0.7,1.4c0.6,2.3-0.4,4.7-1.3,6.9
			c0.5,0.1,1-0.4,1.3-0.9c1.6-2.6,2.4-5.7,4.7-7.7c0.4,1.9,0.4,4-0.1,5.9c0.7-0.3,0.9-1.2,1.1-2c0.3-1.2,0.9-2.4,1.6-3.4
			c0.5-0.8,1.3-1.5,2.2-1.6c0.3,2.9-0.2,5.8-1.4,8.5c0.3,0.1,0.6-0.2,0.8-0.5c1.6-2.6,1.2-6,2.2-8.9c0.6-1.8,1.8-3.6,1.3-5.4
			c-0.3-0.8-0.9-1.5-1.5-2.2c1.4-0.4,2.9-0.3,4.1,0.3c0.2-0.7-0.2-1.5-0.5-2.2c-0.6-1.2-1.3-2.5-2-3.7c-0.5-1-1-1.9-1.6-2.9
			c-0.2-0.4-0.4-0.7-0.6-1.1c-1-1.8-2-3.7-3-5.5c-0.4-0.7-0.7-1.4-1.3-1.9c-0.6-0.5-1.4-0.9-2.1-0.7"/>
	</g>
</g>
</svg>
