<?xml version="1.0" encoding="utf-8"?>
<!-- Generator: Adobe Illustrator 19.0.0, SVG Export Plug-In . SVG Version: 6.00 Build 0)  -->
<svg version="1.1" id="Layer_1" xmlns="http://www.w3.org/2000/svg" xmlns:xlink="http://www.w3.org/1999/xlink" x="0px" y="0px"
	 viewBox="0 0 612 520.2" style="enable-background:new 0 0 612 520.2;" xml:space="preserve">
<style type="text/css">
	.st0{fill:#F1F2F2;}
</style>
<g id="XMLID_1_">
	<path id="XMLID_54_" class="st0" d="M80.6,47.6V54c0,11.4-1.2,19.1-3.2,23.9c-5.6,14.6-19.3,22-40.1,22c-10.5,0-19.8-0.1-26.5-0.3
		c-4-0.1-7.5-0.1-10.7-0.3V2.2c6.1,0,11.6,0,16.7-0.1c8.7,0,17.8-0.3,20.3-0.3c22.5,0,33.1,8.3,38,17.7
		C78.5,25.8,80.6,33.8,80.6,47.6z M51.9,25.5c-2.7-3-8.4-4.4-17.2-4.4c-2.7,0-6.5,0.3-10.2,0.6v58.5c3.1,0.4,6.3,0.4,8.4,0.4h2.3
		c9.3,0,14.7-1.8,17.2-4.8c1.6-1.9,3.9-6.5,3.9-16.3v-15C56.3,33.6,54.4,28.1,51.9,25.5z"/>
	<path id="XMLID_57_" class="st0" d="M114.2,55.4v44H89.5v-97h24.7V55.4z"/>
	<path id="XMLID_59_" class="st0" d="M126.9,97.4l-1.9-21.7c4.8,1,18.2,3.8,29.1,3.8c9.2,0,14.5-2.1,15.9-6.2c0.8-1.7,0.8-3.4-0.1-5
		c-1.9-4-7.9-5.8-15.6-8c-8.1-2.1-18.6-5.3-24.8-11.5c-5.9-6.3-5.9-14.6-5.3-20.3c1.2-10.7,5.7-18,13.7-22
		c6.7-3.6,14.7-4.1,21.9-4.5h3.6c9.4,0,19,1.3,25.1,2.2l2.1,21.2c-4.1-1-15.1-3-24.8-3c-9.7,0-15.3,2.2-16.9,6.5
		c-0.6,1.8-0.6,3.5,0.1,5.2c2.1,4.3,8.5,6.2,16.8,8.7c8.8,2.5,18.2,5.3,23.5,11c6.2,6.2,6.2,14.9,5.6,20.2c-1.2,10.6-5.8,18-13.7,22
		c-6.7,3.6-14.7,4-22,4.4h-3.1C144.6,100.1,133.2,98.4,126.9,97.4z"/>
	<path id="XMLID_61_" class="st0" d="M272.8,78.5v19.3c-2.7,0.4-6.1,0.8-10.1,1.4c-4.1,0.6-9.1,1-14.6,1c-20.6,0-33.9-7.5-40-22.4
		c-1.9-5-3.4-12.5-3.4-23.9v-6.3c0-14,2.2-22.8,5.4-28.1c6.9-12,19.5-18.1,38-18.1c7.8,0,15.8,1,24.6,2.7v19.1
		c-9.7-1.4-16.9-2.1-22.2-2.1c-8.8,0-13.7,0.8-17.2,4.3c-3,2.5-4.4,8.3-4.4,19.1v14.7c0,10.2,1.9,14.5,3.9,16.4
		c2.7,3.2,8,4.9,17.3,4.9h2.3C257,80.7,263.8,79.9,272.8,78.5z"/>
	<path id="XMLID_63_" class="st0" d="M365.1,47.7v6.3c0,11.4-1,19.3-3.1,23.8c-3.2,7.6-8.3,13.3-15.1,16.9
		c-6.5,3.5-14.7,5.3-24.7,5.3c-10,0-18.2-1.8-24.7-5.3c-6.9-3.8-11.9-9.3-15.1-16.9c-2.2-4.8-3.2-12.7-3.2-23.8v-6.3
		c0-13.6,1.8-23,5.6-28.1c3.1-5.3,7.2-9.4,12.8-12.4c6.6-3.6,14.7-5.4,24.7-5.4c9.8,0,18.1,1.8,24.7,5.4c5.6,3,9.6,7.1,12.8,12.4
		C363.3,24.9,365.1,34.2,365.1,47.7z M322.2,80.6c7.9-0.1,12.8-1.7,14.9-4.7c2.1-1.7,3.6-6.9,3.6-16.8V44.4c0-10.7-1.6-17.2-4-18.8
		c-2.6-2.6-7.4-4-14.5-4.3c-7.1,0.3-11.9,1.7-14.5,4.3c-2.5,1.6-4.5,7.4-4.5,18.2v14.9c0,9.8,1.9,15.5,4,17.2
		C309.2,78.9,314.3,80.5,322.2,80.6z"/>
	<path id="XMLID_66_" class="st0" d="M431.7,99.3h-16.9H398L367.3,2.5h27.3L414.8,71l20.2-68.5h27.3L431.7,99.3z"/>
	<path id="XMLID_68_" class="st0" d="M491.7,41.7h25.2l-1.6,17.7h-23.7v20.8h31.7v19.1h-56.6v-97h56.6v18.8h-31.7V41.7z"/>
	<path id="XMLID_70_" class="st0" d="M560,70.8c-1.2,0-2.2,0-3.1,0.1v28.5h-24.2V2.5c3.5-0.1,7.5-0.1,11.8-0.3
		c7.4-0.1,17.7-0.4,30.1-0.4c14.7,0,22.1,4.1,27.3,12.8c2.1,4.5,3.9,10.3,3.9,20.2v4.5c0,8.3-1.9,13.2-4,16.7
		c-2.5,4.3-5.6,7-11.3,9.4c7.4,2.7,11.6,10,12.9,12.9c0.9,1.7,2.8,6.9,4.8,11.6c1.2,2.8,2.3,5.9,3.8,9.3h-25.6
		c-0.6-1.9-1.4-3.9-2.3-5.8c-1.4-3.5-3.1-7.6-5-11.6c-2.1-4.5-4.8-8.9-11.5-10.3C564.5,70.9,561.9,70.8,560,70.8z M562.9,53.4
		c3.2,0.1,6.7,0.3,8.3,0.3c1.2,0.1,2.3,0,3.5-0.3c1.9-0.4,4.4-1.2,6.5-3.2c2.5-2.5,3-5.4,3-9.6v-7.1c0-6.3-0.6-8.7-2.2-10.6
		c-3.1-3.1-8.9-4.3-25-2.8v33.1C559,53.3,560.9,53.3,562.9,53.4z"/>
</g>
<g id="XMLID_4_">
	<path id="XMLID_36_" class="st0" d="M59.6,431.8H0v-99.5h25.2v80.1h32.4L59.6,431.8z"/>
	<path id="XMLID_38_" class="st0" d="M93.3,372.6h25.9l-1.6,18.2H93.3v21.4h32.5v19.6H67.7v-99.5h58.1v19.2H93.3V372.6z"/>
	<path id="XMLID_40_" class="st0" d="M202.6,431.8l-4.6-15.3h-34.8l-4.5,15.3h-28.1l36.2-99.5h27.9l36,99.5H202.6z M180.6,355.5
		l-12.7,42.6h25.5L180.6,355.5z"/>
	<path id="XMLID_43_" class="st0" d="M263.6,402.4c-1.2,0-2.3,0-3.2,0.1v29.2h-24.8v-99.4c3.6-0.1,7.7-0.1,12.1-0.3
		c7.6-0.1,18.2-0.4,30.9-0.4c15.1,0,22.7,4.2,28,13.1c2.1,4.6,4,10.6,4,20.7v4.6c0,8.5-2,13.5-4.1,17.1c-2.5,4.4-5.7,7.2-11.5,9.7
		c7.6,2.8,11.9,10.2,13.3,13.3c0.9,1.7,2.9,7,4.9,11.9c1.2,2.9,2.4,6.1,3.8,9.6h-26.3c-0.7-2-1.5-4-2.4-6c-1.5-3.6-3.2-7.8-5.2-11.9
		c-2.1-4.6-4.9-9.2-11.8-10.6C268.3,402.6,265.6,402.4,263.6,402.4z M266.5,384.7c3.3,0.1,6.9,0.3,8.5,0.3c1.2,0.1,2.4,0,3.6-0.3
		c2-0.4,4.5-1.2,6.6-3.3c2.5-2.5,3.1-5.6,3.1-9.8v-7.3c0-6.5-0.7-8.9-2.3-10.9c-3.2-3.2-9.2-4.4-25.6-2.9v34
		C262.6,384.5,264.5,384.5,266.5,384.7z"/>
	<path id="XMLID_46_" class="st0" d="M404,386.8v45h-25.5l-30-53.1v53.1h-25.3v-99.4h25.3l30,52.4v-52.4H404V386.8z"/>
	<path id="XMLID_48_" class="st0" d="M438.5,386.7v45.1h-25.3v-99.5h25.3V386.7z"/>
	<path id="XMLID_50_" class="st0" d="M528.2,386.8v45h-25.5l-30-53.1v53.1h-25.3v-99.4h25.3l30,52.4v-52.4h25.5V386.8z"/>
	<path id="XMLID_52_" class="st0" d="M612,384.4v6.2V429c-2.8,0.7-5.7,1.3-8.9,1.9c-5.7,0.9-13,1.7-21.9,1.7
		c-20.8,0-34.6-7.6-41.1-22.8c-2-4.9-3.2-13-3.2-24.7v-6.5c0-13.8,2-23.5,5.6-28.7c7.4-12.2,19.9-18.3,38.9-18.3
		c8,0,16.2,0.9,25.2,2.7l2.1,19.6c-9.7-1.6-19.5-2.4-24.8-2.4c-8.9,0-14.7,1.5-17.5,4.4c-2.5,1.6-4.8,8.9-4.8,19.6V391
		c0,10.1,1.9,15,4.4,16.6c2.3,3.3,8,4.9,17.2,4.9h2.7h2v-21.9h-14.7l2-18h11.8H612V384.4z"/>
</g>
<g id="XMLID_5_">
	<path id="XMLID_12_" class="st0" d="M19.6,471.3h19.5L37.9,485H19.6v16.1h24.5v14.8H0.3v-74.9h43.8v14.5H19.6V471.3z"/>
	<path id="XMLID_14_" class="st0" d="M83.1,487.9l-10.5,28H50.2l17.7-38.5L51.1,441h21.7l10.3,26.1L93.4,441h21.8l-16.9,36.4
		l17.6,38.5H93.5L83.1,487.9z"/>
	<path id="XMLID_16_" class="st0" d="M179.1,466v3.5c0,6.4-0.5,10.9-1.7,13.3c-3.6,8.3-10.1,12.1-22.5,12.1
		c-1.5,0.1-4.8-0.1-7.9-0.4c-1.7-0.2-3.6-0.4-5.6-0.6v22h-18.7V441c2.7-0.1,5.7-0.1,9-0.2c5.7-0.1,13.6-0.3,23.2-0.3
		c11.4,0,17.5,3.2,21.2,9.9C177.8,453.9,179.1,458.4,179.1,466z M160.3,456.6c-2.3-2.3-6.4-3.1-18.9-2v25.6
		c14.1,1.6,16.8,0.7,18.4-1.2c1.5-1.6,2.3-3,2.3-7.7v-6.7C162.1,459.7,161.4,457.9,160.3,456.6z"/>
	<path id="XMLID_19_" class="st0" d="M204.9,471.3h19.5l-1.2,13.7h-18.3v16.1h24.5v14.8h-43.8v-74.9h43.8v14.5h-24.5V471.3z"/>
	<path id="XMLID_21_" class="st0" d="M257.6,493.8c-0.9,0-1.7,0-2.4,0.1v22h-18.7V441c2.7-0.1,5.8-0.1,9.1-0.2
		c5.7-0.1,13.7-0.3,23.3-0.3c11.4,0,17.1,3.2,21.1,9.9c1.6,3.5,3,8,3,15.6v3.5c0,6.4-1.5,10.2-3.1,12.9c-1.9,3.3-4.3,5.4-8.7,7.3
		c5.7,2.1,9,7.7,10,10c0.7,1.3,2.2,5.3,3.7,9c0.9,2.2,1.8,4.6,2.9,7.2H278c-0.5-1.5-1.1-3-1.8-4.5c-1.1-2.7-2.4-5.9-3.9-9
		c-1.6-3.5-3.7-6.9-8.9-8C261.1,493.9,259.1,493.8,257.6,493.8z M259.8,480.4c2.5,0.1,5.2,0.2,6.4,0.2c0.9,0.1,1.8,0,2.7-0.2
		c1.5-0.3,3.4-0.9,5-2.5c1.9-1.9,2.3-4.2,2.3-7.4V465c0-4.9-0.5-6.7-1.7-8.2c-2.4-2.4-6.9-3.3-19.3-2.2v25.6
		C256.8,480.3,258.3,480.3,259.8,480.4z"/>
	<path id="XMLID_24_" class="st0" d="M322.1,481.9v34H303v-74.9h19.1V481.9z"/>
	<path id="XMLID_26_" class="st0" d="M348.4,471.3h19.5l-1.2,13.7h-18.3v16.1h24.5v14.8h-43.8v-74.9h43.8v14.5h-24.5V471.3z"/>
	<path id="XMLID_28_" class="st0" d="M440.3,482v33.9h-19.2l-22.6-40v40h-19.1V441h19.1l22.6,39.5V441h19.2V482z"/>
	<path id="XMLID_30_" class="st0" d="M499.5,499.8v14.9c-2.1,0.3-4.7,0.6-7.8,1.1c-3.2,0.5-7,0.8-11.3,0.8
		c-15.9,0-26.2-5.8-30.9-17.3c-1.5-3.9-2.6-9.7-2.6-18.5v-4.9c0-10.8,1.7-17.6,4.2-21.7c5.3-9.3,15.1-14,29.4-14
		c6,0,12.2,0.8,19,2.1v14.8c-7.5-1.1-13.1-1.6-17.2-1.6c-6.8,0-10.6,0.6-13.3,3.3c-2.3,1.9-3.4,6.4-3.4,14.8V485
		c0,7.9,1.5,11.2,3,12.7c2.1,2.5,6.2,3.8,13.4,3.8h1.8C487.3,501.5,492.6,500.9,499.5,499.8z"/>
	<path id="XMLID_32_" class="st0" d="M525.2,471.3h19.5l-1.2,13.7h-18.3v16.1h24.5v14.8H506v-74.9h43.8v14.5h-24.5V471.3z"/>
	<path id="XMLID_34_" class="st0" d="M559.4,514.4l-1.5-16.8c3.7,0.8,14.1,2.9,22.5,2.9c7.1,0,11.2-1.6,12.3-4.8
		c0.6-1.3,0.6-2.6-0.1-3.9c-1.5-3.1-6.1-4.5-12.1-6.2c-6.3-1.6-14.4-4.1-19.2-8.9c-4.6-4.9-4.6-11.3-4.1-15.7
		c0.9-8.3,4.4-13.9,10.6-17c5.2-2.8,11.4-3.2,16.9-3.5h2.8c7.3,0,14.7,1,19.4,1.7l1.6,16.4c-3.2-0.8-11.7-2.3-19.2-2.3
		c-7.5,0-11.8,1.7-13.1,5c-0.5,1.4-0.5,2.7,0.1,4c1.6,3.3,6.6,4.8,13,6.7c6.8,1.9,14.1,4.1,18.2,8.5c4.8,4.8,4.8,11.5,4.3,15.6
		c-0.9,8.2-4.5,13.9-10.6,17c-5.2,2.8-11.4,3.1-17,3.4h-2.4C573.1,516.5,564.3,515.2,559.4,514.4z"/>
</g>
<g id="XMLID_3_">
	<path id="XMLID_6_" class="st0" d="M171.9,226.7v95.7h-54.2L53.9,209.5v112.9H0V110.9h53.9l63.8,111.5V110.9h54.2V226.7z"/>
	<path id="XMLID_8_" class="st0" d="M245.3,196.5h55l-3.4,38.7h-51.7v45.4h69.2v41.8H190.8V110.7h123.6v40.9h-69.2V196.5z"/>
	<path id="XMLID_10_" class="st0" d="M555.8,322.4h-62.9L468,223.3l-24.3,99.1h-63.2l-56.5-211.4h59.6l31.9,133.5l29.1-133.5H468
		h0.3H492l29.1,133.5l31.6-133.5H612L555.8,322.4z"/>
</g>
</svg>
