<?xml version="1.0" encoding="utf-8"?>
<!-- Generator: Adobe Illustrator 19.0.0, SVG Export Plug-In . SVG Version: 6.00 Build 0)  -->
<svg version="1.1" id="Capa_1" xmlns="http://www.w3.org/2000/svg" xmlns:xlink="http://www.w3.org/1999/xlink" x="0px" y="0px"
	 viewBox="-284 375.4 42.6 42.6" style="enable-background:new -284 375.4 42.6 42.6;" xml:space="preserve">
<style type="text/css">
	.st0{fill:#E6E7E8;}
</style>
<g>
	<g>
		<path class="st0" d="M-272.5,404.8l1.1-1.1h8l-5.1-9.2l-3.8,0.8c-1,0.2-1.8,0.9-2,1.9l-4.5,14.6c-0.2,0.8,0,1.6,0.5,2.3
			c0.5,0.6,1.3,1,2.1,1h3.7L-272.5,404.8L-272.5,404.8z"/>
		<path class="st0" d="M-246.7,411.7l-4.5-14.6c-0.3-1-1.1-1.7-2.1-1.9l-3.7-0.7l-5.1,9.1h8.6l1.1,1.1V415h3.1c0.8,0,1.6-0.4,2.1-1
			C-246.6,413.4-246.5,412.5-246.7,411.7z"/>
		<polygon class="st0" points="-270.3,415 -270.6,415 -270.6,415 -254.8,415 -254.8,415 -254.5,415 -254.5,405.9 -270.3,405.9 		"/>
		<rect x="-274.6" y="416" class="st0" width="23.8" height="2"/>
		<path class="st0" d="M-271.2,388.1c0,0.1,0.1,0.2,0.2,0.4c0.2,0.6,0.4,1,0.7,1.2c1.2,3.9,4.3,6.7,7.6,6.7c3.3,0,6.4-2.8,7.5-6.7
			c0.3-0.2,0.4-0.7,0.7-1.2c0.1-0.1,0.1-0.3,0.2-0.4c0.4-0.9,0.3-1.9-0.3-2.4c0,0,0-0.1,0-0.1c0-4.9-0.7-10.1-8.1-10.1
			c-7.5,0-8.1,5-8.1,10.1c0,0,0,0.1,0,0.1C-271.5,386.2-271.6,387.2-271.2,388.1z M-270.1,386.5L-270.1,386.5
			c0.1-0.1,0.2-0.1,0.3-0.2l1.3,0.2c0.1,0,0.2,0,0.3-0.2l0.8-1.9c0.9,0.2,4.4,1,7.2,1c0.9,0,1.6-0.1,2.1-0.2l0.5,1.3
			c0,0.1,0.1,0.2,0.3,0.2c0,0,0,0,0.1,0l1.5-0.4c0.1,0.1,0.2,0.2,0.3,0.3l0,0c0.2,0.1,0.3,0.6,0.1,1.1c-0.1,0.1-0.1,0.3-0.2,0.4
			c-0.1,0.2-0.3,0.7-0.4,0.8c-0.1,0.1-0.2,0.2-0.3,0.3c-1,3.6-3.7,6.1-6.5,6.1c-2.9,0-5.6-2.5-6.6-6c0-0.1-0.1-0.3-0.3-0.3
			c-0.1-0.1-0.3-0.6-0.4-0.8c-0.1-0.2-0.1-0.3-0.2-0.4C-270.4,387.1-270.4,386.6-270.1,386.5z"/>
	</g>
</g>
</svg>
