<?xml version="1.0" encoding="utf-8"?>
<!-- Generator: Adobe Illustrator 19.0.0, SVG Export Plug-In . SVG Version: 6.00 Build 0)  -->
<svg version="1.1" id="Layer_1" xmlns="http://www.w3.org/2000/svg" xmlns:xlink="http://www.w3.org/1999/xlink" x="0px" y="0px"
	 viewBox="0 0 417.3 479.4" style="enable-background:new 0 0 417.3 479.4;" xml:space="preserve">
<style type="text/css">
	.st0{fill:#E6E7E8;}
</style>
<path id="XMLID_1_" class="st0" d="M195.8,361.5L91.2,321.3c-3.5-1.3-7.3,1.2-7.3,5v107.9c0,2.2,1.4,4.2,3.4,5L192,479.1
	c3.5,1.3,7.3-1.2,7.3-5V366.5C199.3,364.3,197.9,362.3,195.8,361.5z"/>
<path id="XMLID_10_" class="st0" d="M394.1,307.7c-21-32.7-47.3-43.8-115.3-71.2c-9.5,19.8-42.5,41.7-70.1,41.7
	c-27.6,0-60.6-21.8-70.1-41.7c-68,27.3-94.3,38.5-115.3,71.2c-21,32.7-29.3,84.3-18.5,89c23.5,9.5,63.5,18.2,63.5,18.2v-89.6
	c0-14.1,14-23.8,27.2-18.9l113.2,42.2l113.2-42.2c13.2-4.9,27.2,4.8,27.2,18.9v89.6c0,0,40-8.7,63.5-18.2
	C423.4,392,415.1,340.3,394.1,307.7z"/>
<path id="XMLID_8_" class="st0" d="M221.5,361.5l104.6-40.2c3.5-1.3,7.3,1.2,7.3,5v107.9c0,2.2-1.4,4.2-3.4,5l-104.6,39.9
	c-3.5,1.3-7.3-1.2-7.3-5V366.5C218.1,364.3,219.4,362.3,221.5,361.5z"/>
<g id="XMLID_6_">
	<path id="XMLID_7_" class="st0" d="M250.9,121.2c-10.5,0-19,8.5-19,19c0,10.5,8.5,19,19,19c10.5,0,19-8.5,19-19
		C269.9,129.7,261.4,121.2,250.9,121.2z"/>
	<path id="XMLID_9_" class="st0" d="M168.4,121.2c-10.5,0-19,8.5-19,19c0,10.5,8.5,19,19,19c10.5,0,19-8.5,19-19
		C187.4,129.7,178.9,121.2,168.4,121.2z"/>
	<path id="XMLID_17_" class="st0" d="M298.6,116.2c6.3-57.7-16-69-16-69s-2-14.3-9.3-24.7c-7.3-10.3-52-35.3-106-14.3
		s-49.7,80.7-49.7,107.3c-18,9-8.3,55,16.3,82.3c21.7,70,75,68.3,75,68.3c44-4,71-45,74.3-68.7c14.7-19.3,17.3-24.7,22.3-38.7
		S311.6,115.5,298.6,116.2z M250.9,168.2c-15.5,0-28-12.5-28-28c0-2.4,0.3-4.8,0.9-7.1h-28.3c0.6,2.3,0.9,4.6,0.9,7.1
		c0,15.5-12.5,28-28,28s-28-12.5-28-28c0-15.5,12.5-28,28-28c9.7,0,18.3,5,23.3,12.5h35.9c5-7.5,13.6-12.5,23.3-12.5
		c15.5,0,28,12.5,28,28C278.9,155.6,266.4,168.2,250.9,168.2z"/>
</g>
</svg>
