<?xml version="1.0" encoding="utf-8"?>
<!-- Generator: Adobe Illustrator 19.0.0, SVG Export Plug-In . SVG Version: 6.00 Build 0)  -->
<svg version="1.1" id="Isolation_Mode" xmlns="http://www.w3.org/2000/svg" xmlns:xlink="http://www.w3.org/1999/xlink" x="0px"
	 y="0px" viewBox="-74 569.6 175.3 375.4" style="enable-background:new -74 569.6 175.3 375.4;" xml:space="preserve">
<style type="text/css">
	.st0{fill:#BCBEC0;}
	.st1{fill:#636363;}
	.st2{fill:#127266;}
	.st3{fill:#F8981D;}
	.st4{fill:#FFCB92;}
	.st5{fill:#63A69F;}
	.st6{fill:#FFFFFF;}
	.st7{fill:#EC4963;}
	.st8{fill:#F4BD87;}
	.st9{fill:#CE9052;}
	.st10{fill:#2B2B2B;}
	.st11{fill:#93551C;}
	.st12{fill:#D69B61;}
	.st13{fill:#231F20;}
	.st14{fill:#C12F4B;}
	.st15{opacity:0.4;fill:#FFFFFF;enable-background:new    ;}
	.st16{opacity:0.5;fill:#FFFFFF;enable-background:new    ;}
</style>
<g>
	<ellipse class="st0" cx="23.9" cy="928.2" rx="77.4" ry="16.8"/>
	<ellipse class="st1" cx="23.9" cy="928.2" rx="58" ry="12.5"/>
	<g>
		<path class="st2" d="M47.4,827.2c0,0-5.5-0.8-5.6-0.8s-1,3.2-1,3.4s2.2,3.3,2.5,3.4c0.4,0.2,2.6,0,2.8-0.2
			c0.2-0.3,0.9-4.1,0.9-4.1"/>
		<circle class="st3" cx="62.3" cy="897.7" r="35.3"/>
		<polygon class="st4" points="-18.9,850.3 -17,901.2 -1.3,909.4 3.8,852.9 -8.4,849.1 		"/>
		<path class="st4" d="M65.1,812.4c2.5,3.5,1.5,9.8,1.4,17.7c-0.1,7.9-1.4,25.6-1.4,25.6l-5.1,6.8L50,862l-2.9-6.4v-27.4l-6.7-0.2
			l-1.3-10.6l8.3-12.8C47.4,804.6,62.6,808.9,65.1,812.4z"/>
		<path class="st5" d="M-22.3,812.9v36.3c0,0,12,14.2,31.3,3.3l1.4-23l6.2-3.3l27.2,8.6c0,0,3.1,0.3,3.4-2.9c0.1-0.6,0-3.1,0-3.1
			s-0.6,4.2-3.6,2.3s1.4-15.3,1.4-15.3l5.9-13.6L33,797.8l-55.3,7.1C-22.3,804.9-22.3,812.9-22.3,812.9z"/>
		<path class="st6" d="M-1.1,906.4c0,0-1.4,1.3-4.5,0.5l-0.9-7.3c0,0-5.8-5.3-14.4,0c0,0,1.9,7.2-0.5,11.2s-14.6,7.5-14.6,7.5
			s-2.9,11.8,7.3,14.9c0,0,10.8,2.4,17.7,0c6.8-2.4,9.4-5.7,13.6-6.8c0,0,0.1-17.6-0.5-21.4l-2.6-2.9L-1.1,906.4z"/>
		<path class="st6" d="M82.3,866.1c0,0-14-4.4-15.5-8.9c-1.5-4.6-0.4-7.7-0.4-7.7s-4.8-1.7-8.9,2.2v5.9c0,0-4.5,3.1-7.2,0.7
			c-2.7-2.4-2.6-8.8-2.6-8.8s-0.6-1.1-2.5,0.1s-0.7,2.1-1.7,6.6s-2.8,11.2-0.6,15.2c0,0,2.1,2.5,7.1,2.8s7.7,4.7,14.1,7.5
			s17.9,1.6,20.8-5.7C87.7,868.8,82.3,866.1,82.3,866.1z"/>
		<path class="st4" d="M44.5,766.6l7.9,8.4c0,0-0.5,3.3-2.3,9.4c-1.8,6.1-6.7,14.8-6.7,14.8s-9.7,4.4-12,12.3c0,0,0,2.8,2.3,1.7
			c0,0,2.4-4.8,6.3-6.6c0,0-3.7,4-4.4,9.2c0,0-0.3,3.6,3.2,2.4c0,0,3.2-7.2,5.5-9.3c0,0-2.8,5.3-2.8,9.6c0,0,1.7,3.9,4.9,1
			c0,0,1.6-8.4,4.1-11.8c0,0-2,6.8-1.1,11c0,0,0.8,1.7,3.5,1.8c2.6,0.1,2.3-2.7,2.3-2.7s-1.8-3.1,0-7.8s2.9-7.4,2.5-9.7
			c0,0,13.9-21,12.6-28.5c0,0-1.9-3.8-5.2-7.6c-3.3-3.8-7.1-7.3-7.1-7.3L44.5,766.6z"/>
		<path class="st7" d="M41.5,726.1l-23.7-2.7L-4,724.6l-25.8,6.9l-21.3,24.2c0,0-0.8,7.4,6,12.5s13.1,1.4,13.1,1.4l9-7.3l-0.8,44
			c0,0,37.9,9.8,59.2-8.8l-2.8-38.2l11,9.6c0,0,14.5,0,18.8-14.5L41.5,726.1z"/>
		<path class="st8" d="M-4,717.4v7.3c0,0,1.8,2.6,10.9,3.4c9.1,0.7,11.8-4.2,11.8-4.2v-6.4L-4,717.4L-4,717.4z"/>
		<g>
			<path class="st8" d="M63.8,660.1c0,0,6.7-11.7,16.3-1.3c9.3,10.3,0.9,31-11.6,31.3s-8.6-12.8-8.4-13.3
				C60.2,676.4,63.8,660.1,63.8,660.1z"/>
			<path class="st9" d="M77.8,662.5c0,0-5.6,6-5.9,15.1l2.9,2.4C74.9,680,72.7,667.9,77.8,662.5z"/>
		</g>
		<g>
			<path class="st8" d="M-51.5,655.2c0,0-6.7-11.7-16.3-1.3c-9.3,10.3-0.9,31,11.6,31.3s8.6-12.8,8.4-13.3
				C-47.8,671.5-51.5,655.2-51.5,655.2z"/>
			<path class="st9" d="M-65.5,657.6c0,0,5.6,6,5.9,15l-2.9,2.4C-62.5,675.1-60.3,663-65.5,657.6z"/>
		</g>
		<path class="st4" d="M-54.8,644.6c0,0-18.4,73.5,61.8,74.8c69.4,1.2,63.4-60.1,63.4-60.1l-6-39.7c0,0-42.9-13.6-44.5-13.6
			s-42-2.5-43.3-1.9s-26.2,23.7-26.5,25.6C-50.2,631.7-54.8,644.6-54.8,644.6z"/>
		<path class="st10" d="M-32.1,591c0,0-27.1,10-24.6,52.5l0.1,15.5c0,0,7.2-12.8,9.6-17.4c0,0,18.7-10.2,24.8-28.7
			c0,0,34.9,17.7,75.6,8c0,0,5.7,17.9,14.7,30.5l2.5,13.7c0,0,2.5-5.7,3.6-10.1s3.6-23.6-2.7-34.5c0,0,14.7-8,13.1-31.8
			c0,0-6.1,7.2-17.9,6.3c0,0,6.9-9.3,1.9-19.8c0,0-8,12.2-24.2,11.2c0,0,8.8-8.8,0.2-16.8c0,0-4.8,13.1-26.5,11.6
			C-3.7,579.6-22.4,581.5-32.1,591z"/>
		<ellipse class="st10" cx="-10.5" cy="657.8" rx="5.4" ry="9.2"/>
		<path class="st10" d="M-0.5,636.4c0,0-8.6-11.8-24.1-3.7C-24.6,632.8-10.3,616.8-0.5,636.4z"/>
		<path class="st10" d="M22.9,637.1c0,0,8.6-11.8,24.1-3.7C47,633.5,32.7,617.5,22.9,637.1z"/>
		<path class="st11" d="M17.4,670.1c0,0,3.9,9.6-8.3,10.1c0,0,7.7,6.2,12,1C25.4,676.1,19.7,670.4,17.4,670.1z"/>
		<path class="st11" d="M-12.5,691.2c0,0-4.5-1.4-4.7-3.9c-0.2-2.4,0.5-3.5,0.5-3.5s-2.7,2.1-2,4.2C-18,690.2-14.4,691.4-12.5,691.2
			z"/>
		<path class="st11" d="M-5.1,692.6c0,0,8.8-1.3,17.3-0.6c8.4,0.6,13.6,0.2,13.6,0.2S6.1,693.9-5.1,692.6z"/>
		<path class="st11" d="M29.2,691.8c0,0,8.4-0.5,9.7-3.6C38.9,688.2,41.7,692.3,29.2,691.8z"/>
		<path class="st9" d="M17.8,702.1c0,0-7.5-3.1-16-1.2c0,0,6.8,4.6,9.1,5.1C13,706.4,17.8,702.1,17.8,702.1z"/>
		<ellipse class="st10" cx="36.1" cy="657.8" rx="5.4" ry="9.2"/>
		<path class="st4" d="M-38.6,770.7l-4.6,5.2l19.9,23.4l6.8,0.3l7.3,5.3c0,0,0.7,3.1-2.1,3.5l-5-4l-3.1-0.6l8.8,7.6
			c0,0-0.3,3.1-2.5,3.1l-7.5-5.5l6.8,8.1c0,0-0.7,2.9-3.2,2.7l-1.2-1.8c0,0-1.4,2-3.4,1.3l-5.5-7.2l-2.3-6.3c0,0-30.1-21.8-31-29
			c-0.6-4.4,9.8-16.7,9.8-16.7S-48.1,769.2-38.6,770.7z"/>
		<path class="st12" d="M-69.9,665.1c0,0-0.2,17.2,15.6,18.8c0,0-0.3-0.3-1.6-4C-55.9,679.8-66.1,678.5-69.9,665.1z"/>
		<path class="st12" d="M81.7,670.5c0,0,0.2,17.2-15.6,18.8c0,0,0.3-0.3,1.6-4C67.7,685.3,77.9,684,81.7,670.5z"/>
		<path class="st13" d="M9.2,679.6c0,0,4.4-0.1,5.7-1.3c1.3-1.3-4.1-2.8-7.8-2.1c-3.7,0.8-4,2.4-1.4,3
			C8.1,679.8,9.2,679.6,9.2,679.6z"/>
		<path class="st12" d="M-3.1,719.5c0,0,14.9,1.3,21.4,0v3.2c0,0-8.1,4.6-21.4,0C-3.1,722.7-3.1,719.5-3.1,719.5z"/>
		<path class="st13" d="M-49.3,613.5c0,0-7.3,12.9-5.1,36.2l4.3-10.5c0,0,14.4-3.6,25.4-26.8C-24.6,612.4-45.8,633.1-49.3,613.5z"/>
		<path class="st14" d="M32.4,758v-6.9c0,0,13,14.8,16.9,15.5c0,0-2.9,1.2-5.7,1.3L32.4,758z"/>
		<path class="st14" d="M-44.8,764.9c0,0,2.4,5.5,12,3.9l9.5-8.1v-5.6C-23.3,755.1-33.7,769.3-44.8,764.9z"/>
		<path class="st12" d="M-47.6,767c0,0,3.7,4.1,7.8,4.2l-4.2,4.3l-5.7-0.4C-49.6,775-45.4,774.3-47.6,767z"/>
		<path class="st12" d="M-19.4,816.7c0,0-3.7-5.4-3.9-5.5c-0.2-0.1,3.3,4.4,2.5,6.3C-20.7,817.5-19.6,816.9-19.4,816.7z"/>
		<path class="st12" d="M-19.6,803.3l3.2,0.8l5.1,4c0,0,1-0.1,1.4-0.9c0,0-1.1,0-3-1.4c-1.9-1.5-3.6-2.4-3.6-2.4L-19.6,803.3
			L-19.6,803.3z"/>
		<path class="st12" d="M47.2,768.8l5.5,5.6l2.7-0.7c0,0-4.1-2-4.8-5.8C50.6,768,49,768.9,47.2,768.8z"/>
		<path class="st12" d="M-59.4,777.1c0,0,3.3,8.6,30.6,28.1c0,0-25.6-17.8-29.9-31.9C-58.6,773.4-60.4,775.4-59.4,777.1z"/>
		<path class="st12" d="M68.5,770.4c0,0,1.6,1.6,0.8,4.1c-0.7,2.5-3.6,13.3-12.3,25.4c0,0,0.6,0.9-0.9,4.7c-1.6,3.8-2.4,6.8-2.4,9.1
			c0,2.2,0.8,4.1,0.8,4.1s0.6,2.7-3.2,1.8c0,0,1.6-0.9,1.7-2.3c0,0-1.8-3.3,0-8.4c1.8-5.1,3.8-7.7,2.8-10.3c0,0,10.1-12.4,12.1-24.2
			C67.9,774.5,68.9,771.5,68.5,770.4z"/>
		<path class="st12" d="M50,807.6c0,0-3.1,5.2-3.9,11.4c0,0-1.1,1.8-3.3,0.6c0,0,1.5,0.3,2.6-1.1C45.3,818.4,46.6,810.8,50,807.6z"
			/>
		<path class="st12" d="M44.1,808.5c0,0-4,4.3-5.6,9.1c0,0-0.8,0.9-2.1,0c0,0,1,0,1.5-0.5C38,817.1,40.3,811.1,44.1,808.5z"/>
		<path class="st12" d="M39.9,806.2c0,0-3.6,1.8-6.4,6.7c0,0-1.2,0.7-1.8-0.8c0,0,1.1,0.6,1.5,0.3C33.3,812.4,36.2,807,39.9,806.2z"
			/>
		<path class="st12" d="M49.6,809.4c0,0-2.1,5-3,10.1c0,0-2.9,3-5.1-0.4c0,0,2.1,4.9,5.9,1.1C47.4,820.3,48.4,812.4,49.6,809.4z"/>
		<path class="st12" d="M49.6,819.3c0,0,1.1,1.6,3.5,1.4c2-0.1,2.2-2.2,2.2-2.2s0.3,2.8-2.4,2.8C50.3,821.4,49.6,819.3,49.6,819.3z"
			/>
		<path class="st2" d="M39.2,807.2c0,0-3.3,2.1-5.5,6.2c0,0-1,0.8-2.1-0.1c0,0,0.6,2.3,3,1.1C34.7,814.3,37,808.4,39.2,807.2z"/>
		<path class="st2" d="M36.5,818.4c0,0,1.4,0.7,2.4-0.1c0,0,2.3-5.4,4-7.4c0,0-2.4,5.7-2.8,8.5C40.1,819.3,37.6,821.1,36.5,818.4z"
			/>
		<path class="st12" d="M43.9,822.4c0,0-1.4,3-1,5.1h4.5l0.2,21l0.6,0.9c0,0,0.2,8.7,4,9.2c0,0-2.2-0.5-3-10.6
			c-0.7-10.2,1.2-24.8,1.2-24.8L43.9,822.4z"/>
		<path class="st2" d="M9.9,829.6l-6.8,3.1h4.2c0,0-0.2,11.1-0.5,15c-0.4,3.9-4.3,6.5-6.7,7.3c0,0,5.4-0.8,8.1-3.4L9.9,829.6z"/>
		<path class="st12" d="M-17.8,853.7c0,0,8.1,6,20.2,2.4l-4.1,49.6l-3.1,0.6c0,0,0.4-5.1-1.1-7.3c0,0,6.8-22.5,4-37.3
			c0,0-6.9,0.8-15.2-3.2L-17.8,853.7z"/>
		<path class="st12" d="M-6.5,868.2c0,0-1.7,0.3-2.3,3s-0.8,3.1-0.8,3.1S-5.6,872.3-6.5,868.2z"/>
		<polygon class="st1" points="-0.4,903.4 0.9,905.2 -0.4,906.2 		"/>
		<path class="st1" d="M1.2,906.2l-1.6,1.7c0,0-0.4,15.6-3.2,20.3c0,0,2.3-1.8,4.8-2.7C1.2,925.5,1.2,906.2,1.2,906.2z"/>
		<path class="st13" d="M96,897.3c0,0-0.7,10.9-6.9,20.1c-4.9,7.3-14,14.1-23.7,14.1c-35.7,0-35.8-30.8-35.8-30.8
			s7.6,14.9,35.2,13.9C92.3,913.6,96,897.3,96,897.3z"/>
		<circle class="st15" cx="44.1" cy="886.2" r="9.7"/>
		<path class="st13" d="M38.2,917.2c0,0,25.6,14.5,50.4-1.4c0,0-8.5,13.5-22.9,13.9C48.7,930.3,40.7,922.5,38.2,917.2z"/>
		<path class="st13" d="M42.6,872c0,0,2.2,2.3,6.5,2.8s5.7,1.4,7.6,3.4c1.9,2,8.8,5.5,14.2,5.4s9.8-0.8,12.8-4.6
			c0,0,2.3,0.8,0.2,4.2c-2.2,3.3-9.8,4.4-16.8,2.8c-7-1.6-8.4-5.7-12.3-8.3c-3.2-2.1-3.5-1.9-5.6-2C47.1,875.6,42.2,875.1,42.6,872z
			"/>
		<path class="st13" d="M42.6,872c0,0,2.2,2.3,6.5,2.8s5.7,1.4,7.6,3.4c1.9,2,8.8,5.5,14.2,5.4s9.8-0.8,12.8-4.6
			c0,0,2.3,0.8,0.2,4.2c-2.2,3.3-9.8,4.4-16.8,2.8c-7-1.6-8.4-5.7-12.3-8.3c-3.2-2.1-3.5-1.9-5.6-2C47.1,875.6,42.2,875.1,42.6,872z
			"/>
		<path class="st1" d="M81.4,867.1c0,0-4.1-0.2-8.4,2.6c0,0-7.3-3.1-8.6-6.3c-1.3-3.2,0.8-3.7,3.4-2.8
			C70.3,861.5,76.1,866.4,81.4,867.1z"/>
		<path class="st1" d="M-34.7,919c0,0,7.2-0.8,11.3,2.8c0,0,7.5-3.7,7.6-7.5C-15.8,910.6-30.5,917.1-34.7,919z"/>
		<path class="st13" d="M55.7,623.6c0,0,6.3,18.9,13.2,26.1l2.1,10.5c0,0,6.7-23-0.6-36.6C70.5,623.6,66.8,632.9,55.7,623.6z"/>
		<path class="st13" d="M-18.8,612.4c0,0,60.5,24.5,92.7-4.7C73.8,607.7,37.7,627.9-18.8,612.4z"/>
		<path class="st13" d="M83.6,591.8c0,0-0.2,20.5-13.1,27.5l-4.9-2C65.6,617.3,81,612,83.6,591.8z"/>
		<path class="st13" d="M68.6,577.6c0,0,2.9,9.5-3.9,17.2h-6C58.7,594.8,68.1,592.3,68.6,577.6z"/>
		<path class="st13" d="M45,570.8c0,0,5.4,5.9-1.6,15.4h-3.9C39.5,586.2,48.6,579.8,45,570.8z"/>
		<path class="st16" d="M-32.4,593.1c0,0-0.7,4.6,6.8,9.8c0,0-15.3,8.9-18.1,1.9C-43.7,604.8-44.1,599.4-32.4,593.1z"/>
		<path class="st6" d="M-5.1,725.6l-24.5,7.2l-20.5,23.4c0,0,0.2,3.6,1.8,5.2c0,0,0.5-2.6,1.3-4.8c0.7-2.2,18.7-21.4,18.7-21.4
			L-5.1,725.6z"/>
		<polygon class="st6" points="23.9,725.6 40.9,727.4 61.4,754.4 59.5,758.2 39.3,729.2 		"/>
	</g>
</g>
</svg>
