<?xml version="1.0" encoding="utf-8"?>
<!-- Generator: Adobe Illustrator 19.0.0, SVG Export Plug-In . SVG Version: 6.00 Build 0)  -->
<svg version="1.1" id="Layer_1" xmlns="http://www.w3.org/2000/svg" xmlns:xlink="http://www.w3.org/1999/xlink" x="0px" y="0px"
	 viewBox="0 0 303.6 303.9" style="enable-background:new 0 0 303.6 303.9;" xml:space="preserve">
<style type="text/css">
	.st0{fill:#E6E7E8;}
	.st1{fill:none;stroke:#E6E7E8;stroke-width:19;stroke-miterlimit:10;}
</style>
<g id="XMLID_1_">
	<circle id="XMLID_2_" class="st0" cx="105" cy="72" r="30.5"/>
	<path id="XMLID_4_" class="st0" d="M79.5,113L93,177.9c0,0-32.3-8.8-50.1-29.4C42.9,128.6,62.3,113,79.5,113z"/>
	<polygon id="XMLID_7_" class="st0" points="116,113 105,113 94,113 102.3,121.5 94,161.5 105,174.5 116,161.5 107.8,121.5 	"/>
	<path id="XMLID_5_" class="st0" d="M130.5,113L117,177.9c0,0,32.3-8.8,50.1-29.4C167.1,128.6,147.8,113,130.5,113z"/>
</g>
<circle id="XMLID_3_" class="st1" cx="101.8" cy="102.8" r="90.8"/>
<polygon id="XMLID_6_" class="st0" points="151.6,173.8 175.2,197.5 163,209.8 257.1,303.9 303.6,257.5 209.6,163.5 197.4,175.7 
	173.7,152 "/>
</svg>
