<?xml version="1.0" encoding="utf-16"?>
<!-- Generator: Adobe Illustrator 19.0.0, SVG Export Plug-In . SVG Version: 6.00 Build 0)  -->
<svg version="1.1" id="Layer_1" xmlns="http://www.w3.org/2000/svg" xmlns:xlink="http://www.w3.org/1999/xlink" x="0px" y="0px"
	 viewBox="0 0 50 50" style="enable-background:new 0 0 50 50;" xml:space="preserve">
<style type="text/css">
	.st0{fill:#939598;}
	.st1{clip-path:url(#XMLID_41_);}
	.st2{fill:#C18140;}
	.st3{fill:#E5E0AC;}
	.st4{fill:#BFB976;}
	.st5{fill:#9E6327;}
	.st6{fill:#D5A476;}
	.st7{fill:#010101;}
</style>
<path id="XMLID_1_" class="st0" d="M45.71875,1C47.5280418,1,49,2.4719601,49,4.28125v41.4375
	C49,47.5280418,47.5280418,49,45.71875,49H4.28125C2.4719601,49,1,47.5280418,1,45.71875V4.28125C1,2.4719601,2.4719601,1,4.28125,1
	H45.71875 M45.71875,0H4.28125C1.91678,0,0,1.91678,0,4.28125v41.4375C0,48.0832214,1.91678,50,4.28125,50h41.4375
	C48.0832214,50,50,48.0832214,50,45.71875V4.28125C50,1.91678,48.0832214,0,45.71875,0L45.71875,0z"/>
<g id="XMLID_45_">
	<defs>
		<circle id="XMLID_2_" cx="25" cy="25" r="23.4666386"/>
	</defs>
	<use xlink:href="#XMLID_2_"  style="overflow:visible;fill:#939598;"/>
	<clipPath id="XMLID_41_">
		<use xlink:href="#XMLID_2_"  style="overflow:visible;"/>
	</clipPath>
	<g id="XMLID_40_" class="st1">
		<path id="XMLID_79_" class="st2" d="M42.0247574,31.4408665c-0.0609474-0.6529751-0.3047218-1.2885342-0.2698975-1.9502144
			c0.0522385-0.9228706-0.1828346-1.8805656-0.3656654-2.7773151c-0.1828346-0.8706322-0.3134308-1.7499695-0.4614334-2.6293087
			c-0.2873077-1.7325554-0.6790924-3.4738197-1.1579399-5.1715508c-0.1131821-0.3830776-0.2786026-0.748745-0.3917847-1.1318207
			c-0.0957718-0.3308392-0.1567116-0.6703892-0.2524834-1.0012264c0.0783577-0.3395462,0.1218872-0.6965065,0.1654205-1.0447588
			c0.1044769-0.8009825,0.0696487-1.4974871-0.0609474-2.2984667c-0.1218872-0.7226238-0.3395462-1.4278355-0.4527283-2.1504612
			c-0.0435333-0.2698965-0.0609436-0.4440231-0.0870628-0.7139196c0-0.0261173-0.008709-0.0522385-0.008709-0.0696497
			c0-0.0261173,0-0.0783558,0-0.1741257c0-0.1393023-0.0435295-0.3308401-0.1218872-0.4527283
			c-0.0783539-0.1218882-0.1654167-0.208951-0.2611885-0.2698965c0-0.2263651-0.0087051-0.4440222-0.0348244-0.6616802
			c-0.0609436-0.4440231-0.3656654-0.957695-0.9054565-0.9054565c-0.8619232,0.0957699-1.5584297,0.0609436-2.4029427-0.1393018
			c-0.8793411-0.208951-1.7847977-0.426609-2.6902542-0.426609c-0.9054546-0.0087066-1.802206,0-2.7076626,0
			c-0.8793392,0-1.7412643,0.0783563-2.6206017,0.008707c-0.9141636-0.0696511-1.8805656-0.0522385-2.7947292-0.0174127
			c-0.9141636,0.0348248-1.802206,0.2524829-2.7163696,0.2611895c-0.948988,0.008707-1.8979778-0.0174122-2.8469658,0.0870633
			c-0.0609436,0.008707-0.1131821,0.008707-0.1741257,0.0174127c-0.2437782-0.0261192-0.4788475-0.0435319-0.7052135-0.0435319
			c-0.4004898-0.0087066-0.8096867-0.0261192-1.2101765-0.0696507c-0.2873096-0.0348248-0.5484982-0.1480074-0.8445129-0.2002454
			c-0.6529732-0.1131825-1.4017162,0.1218877-2.0285721,0.4179034c-0.2350702-0.2350707-0.6268539-0.2611895-0.9228687-0.1044755
			c-1.1231155-0.4091969-1.5410185,1.4278355-1.7847958,2.1417542c-0.4004898,1.1927652-0.7574492,2.3855314-1.0882893,3.5957088
			c-0.3047209,1.1057034-0.5397911,2.2288179-0.8183937,3.3345184c-0.2873087,1.1492348-0.635561,2.2810555-0.957695,3.4215813
			c-0.1567135,0.5746174-0.2350702,1.1492348-0.4179029,1.7151451c-0.1828327,0.6007347-0.322134,1.166647-0.4266095,1.7847958
			c-0.1915388,1.157938-0.5484982,2.2984657-0.6790929,3.4651127c-0.1305947,1.1318207-0.4266095,2.2549343-0.6703863,3.3780499
			c-0.2611895,1.1927662-0.4962602,2.4116459-0.635561,3.6305332c-0.1654201,1.3930092-0.1915388,2.8034325,0.1218882,4.1790314
			c0.0870633,0.3656654,0.2350707,0.6965027,0.374372,1.0447578c0.1131821,0.2786026,0.1828327,0.5659103,0.3917842,0.8009834
			c0.4527283,0.5136719,0.9664011,0.9141617,1.6454935,1.0795822c0.1131825,0.0261192,0.2263646,0.0348282,0.322134,0.0261192
			c0.0174122,0.0348282,0.0435314,0.0609436,0.0696507,0.095768c0.0261183,0.0348282,0.0435314,0.0609436,0.0696497,0.095768
			c0.0435324,0.0696487,0.104476,0.121891,0.1741266,0.1567116c0.1131821,0.095768,0.2263641,0.1828308,0.2960148,0.2263603
			c0.3308401,0.2263641,0.6703863,0.217659,1.0447578,0.3221359c0.4440222,0.1305962,0.8096876,0.2524872,1.2885351,0.2698936
			c0.3221331,0.0087051,0.644268-0.0435295,0.957695,0.0087051c0.4179029,0.0609436,0.8358059,0.1305923,1.2537098,0.1044769
			c0.7661562-0.0522346,1.4974861,0.0435295,2.2549362,0.0348282c0.0696507,0,0.1393003,0,0.2002449,0
			c0.3308401,0.1567116,0.7574511,0.1915398,1.0969954,0.2524834c0.7400379,0.1305962,1.4800739,0.1828308,2.2201118,0.0870628
			c1.584549-0.2089539,3.1255684,0.0348282,4.7101154,0.1044769c0.7748623,0.0348282,1.5584297-0.095768,2.3332939-0.1044769
			c0.6616802-0.0087051,1.3407726,0.0609474,1.9937477,0.0261192c0.6790905-0.0348282,1.375597-0.1480103,2.019865-0.33955
			c0.1741276-0.0522346,0.417902-0.1044769,0.6529751-0.1915398c0.3830776-0.0261154,0.7574501-0.1131821,1.1144066-0.3221321
			c0.3656673,0.0174103,0.7226238,0.0348244,1.0882893,0.0348244c0.313427,0,0.6355591,0,0.9489899,0
			c0.1567116,0.5049667,0.7748604,0.5223808,1.2014694,0.5049667c0.7313309-0.0261192,1.4713669-0.0435333,2.1939926-0.1567116
			c0.6007347-0.095768,1.271122-0.2524872,1.8805656-0.1828308c0.5484962,0.0696487,1.1927643,0.3047218,1.7238503,0
			c0.3221321-0.1828308,0.4091949-0.4788475,0.4701385-0.8183975c0.0435333-0.2786026,0.1305962-0.5746155,0.1044769-0.861927
			c-0.0435295-0.6094437-0.644268-1.079586-1.0621719-1.4452477c-0.20895-0.1828308-0.426609-0.3569565-0.6181488-0.5659103
			c-0.1828308-0.2002449-0.2524834-0.426609-0.4091988-0.6529732c-0.1480064-0.217659-0.3395424-0.3917847-0.4701385-0.618145
			c-0.1218872-0.2263641-0.2002449-0.3830795-0.426609-0.5136757c-0.2524834-0.1480064-0.5920296-0.0087051-0.6703873,0.2698936
			c-0.0609474,0.2263641-0.0174141,0.4701424-0.0348244,0.7052078c-0.0261192,0.3656693,0.0870628,0.5920296,0.1654167,0.9402847
			c0.0696526,0.3221321,0.1393051,0.6355591,0.217659,0.957695c0.0435333,0.1741257,0.0348244,0.3569565,0.0783577,0.5310822
			c0.0087051,0.0348282,0.0174141,0.0609436,0.0261154,0.095768c-0.0696487,0.0261154-0.1305923,0.0522346-0.2002411,0.0783577
			c-0.2786026,0.1044769-0.5485001,0.095768-0.8445168,0.1044769c-0.304718,0.0087051-0.5920258,0.0435295-0.8880424,0.095768
			c-0.1480103-0.0087051-0.2960167-0.0174141-0.435318-0.0174141c-0.9402809-0.0261192-1.9066811,0.0348282-2.8556709,0.0696487
			c-0.4440231,0.0174141-0.8880424,0.0261192-1.3320637,0.0261192c-0.417902,0-0.8009834,0.0783577-1.2014713,0.1567116
			c-0.2960148-0.0522346-0.5920277-0.0870628-0.9141636-0.1044769c-0.9054565-0.0609436-1.8109131,0.0435333-2.7163696,0.0522346
			c-0.8619251,0-1.7151451,0.1131821-2.5683632,0.1305962c-0.3917847,0.0087051-0.7748623-0.0783577-1.166647-0.0783577
			c-0.4004898,0-0.8009796,0.0783577-1.1927643,0.0522346c-0.748745-0.0522346-1.4800739-0.095768-2.228817-0.0435333
			c-0.8880444,0.0609474-1.7760887-0.0348244-2.664135,0.0435333c-0.7661552,0.0696487-1.5758429,0.1305962-2.3419981,0.0435295
			c-0.7313309-0.0783577-1.4539557,0.0609474-2.1852856,0.0087051c-0.217658-0.0174141-0.42661-0.0261154-0.6355619-0.0174141
			c-0.3569584-0.0261154-0.6965046-0.0522346-1.0447578-0.1480064c-0.3569584-0.1044769-0.6529732-0.2611923-1.0273447-0.2611923
			H9.776556c-0.1393013-0.1915398-0.322134-0.3395462-0.5572052-0.3830795
			c-0.0957689-0.1392975-0.1567135-0.2960167-0.2263641-0.4440193c-0.1741257-0.3743706-0.2960148-0.8096848-0.6790924-1.0186386
			c0.0261192-0.2437782,0.0609446-0.4788475,0.0957699-0.7226257c0.104476-0.7052078,0.1741257-1.4278374,0.2786016-2.1330452
			c0.0522375-0.313427,0.1131821-0.6529732,0.1915388-0.9838142c0.2786026-0.3482513,0.6181488-0.644268,0.9838142-0.8270988
			c0.5049658-0.2524872,0.9402819-0.2524872,1.48878-0.3743706c0.531085-0.1131821,1.0447578-0.1654205,1.593256-0.1915398
			c1.2101774-0.0696487,2.4813004,0.0348282,3.7001848,0.0783577c0.5833225,0.0261192,1.1753521,0.0261192,1.7586746,0.0348282
			c0.6616802,0.0174141,1.3146553,0.1305962,1.9763336,0.1305962c0.5746174,0,1.1492348-0.0609474,1.7238522-0.0696526
			c0.6007347-0.0087013,1.1840591,0.0696526,1.7847939,0.095768c1.1579399,0.0435333,2.3245869-0.0348282,3.4825268-0.0348282
			c0.5833244,0,1.1579399-0.0696487,1.7412624-0.0609436c0.644268,0.0087051,1.2885342,0.0435333,1.9328041,0.0522346
			c1.2624149,0.0087051,2.5248318,0.1741257,3.7872486,0.1044769c0.7226219-0.0348244,1.4365425-0.0522346,2.1678734-0.0522346
			c0.6094398,0,1.2101746,0.0696487,1.8109093,0.0522346c0.6703873-0.0261154,1.5323143,0.0783615,2.1417542-0.2524834
			c0.435318-0.2350731,1.0447617-0.7052116,1.3059502-1.1405258C42.4948959,32.1286659,42.3555946,31.6498165,42.0247574,31.4408665
			z M29.6704941,27.5230236c-0.0435333-0.008707-0.0783577-0.008707-0.1218891-0.0174141
			c0-0.008707,0.008707-0.0174141,0.008707-0.0261173c0.0348244-0.0174141,0.0783558-0.0348244,0.1131821-0.0522385
			C29.6704941,27.4620781,29.6704941,27.4969025,29.6704941,27.5230236z M40.1528969,31.7629986
			c-0.0261154,0.0174141-0.0435295,0.0261173-0.0696487,0.0435314H40.074543
			c0.0522385-0.0783558,0.1044769-0.1654205,0.1480064-0.2524834c0.008709,0.0522385,0.0174141,0.0957699,0.0261192,0.1393013
			C40.2138405,31.7194672,40.1790161,31.7368813,40.1528969,31.7629986z"/>
		<path id="XMLID_76_" class="st3" d="M38.3332787,34.3400726L38.3332787,34.3400726c-0.0348244,0-0.0696487,0-0.1131821,0
			c-0.0087051-0.0087051-0.0696487-0.0174141-0.1044769-0.0261192c-0.1131821-0.0261192-0.20895-0.0522346-0.3221359-0.0783577
			c-0.1218872-0.0261192-0.2524796-0.0348282-0.3830757-0.0522385c-0.7052116-0.2786026-1.4104233-0.3134232-2.1852875-0.2089539
			c-0.2350693,0.0348282-0.4701385,0.0609474-0.7052116,0.0870628c-0.2176552-0.0174103-0.4353142-0.0348244-0.6616783-0.0696487
			c-0.4701424-0.0696487-0.9489899-0.1741257-1.4278374-0.2089539c-0.9925194-0.0696487-1.9589214,0.2437782-2.9427338,0.3221359
			c-0.8967495,0.0696487-1.7760868,0.0783577-2.6641331,0.2089539c-0.6007347-0.1741257-1.271122-0.2089539-1.8631516-0.2350731
			c-1.2014713-0.0435295-2.3855305,0.0609474-3.5782967,0.2089539c-0.2873077,0.0348282-0.5833225,0.0696487-0.8706303,0.1044769
			c-0.4091969,0.0087051-0.8096886,0.0087051-1.2188854-0.0087013c-0.3917847-0.0174141-0.8009796-0.0870667-1.1927643-0.1393013
			c-0.5659103-0.0696487-0.8619251,0.0174141-1.3668919,0.2437782c-0.0609436,0.0261154-0.1218872,0.0522346-0.1741257,0.0783577
			c-0.5833235-0.2350731-1.2711229-0.2960167-1.8544464-0.2611885c-1.06217,0.0609436-2.1069279,0.2698936-3.1516867,0.4440193
			c-0.2698956,0.0435295-0.5484982,0.095768-0.8009806,0.2089539c-0.217658-0.0783615-0.4701414-0.0696487-0.6877995,0.0783577
			c-0.4004898,0.2698936-0.6529732,0.7226219-0.8270998,1.2101822c-0.0261192,0.0435295-0.0522375,0.0957642-0.0783567,0.1392975
			c-0.5136728,0.9315758-0.6790924,2.2723465,0.1393003,3.0994453c0.0957699,0.095768,0.208952,0.1654243,0.322134,0.2089539
			c0.6268549,0.5920296,1.4800739,0.861927,2.3245869,0.861927c0.8706312,0,1.7325573,0.1567154,2.6031885,0.1131821
			c0.9402828-0.0522346,1.8457394-0.1480064,2.7947273-0.1305962c0.9402828,0.0174141,1.8544464-0.1305923,2.7860222-0.1567116
			c0.957695-0.0261192,1.8805637-0.1131821,2.8469639-0.0522346c0.957695,0.0609436,1.906683,0.1131821,2.8643799,0.1044769
			c1.06217-0.0087051,2.0808086-0.0522346,3.1342735-0.1828308c0.3743706-0.0435333,0.7574501-0.0870628,1.1318207-0.1480103
			c0.748745,0.1915398,1.5410194,0.1915398,2.3158798,0.0783615c0.1393051-0.0174141,0.2786064-0.0435333,0.426609-0.0609474
			c0.4004936,0.1131821,0.8009834,0.2089539,1.2101784,0.2350731c0.4701424,0.0348282,0.8793373,0.0348282,1.3494797-0.0174141
			c0.4440231-0.0435333,0.8183937-0.0696487,1.2537079-0.0087051c0.3917847,0.0522385,0.9315796-0.0870628,1.0012283-0.5659103
			c0.0696487-0.4179001,0.0174141-0.7661552-0.0435333-1.1840553c-0.0609436-0.4004898-0.0609436-0.7487411-0.0435295-1.1492348
			c0.0087051-0.3830795-0.008709-0.7835693,0.095768-1.1579399c0.0870628-0.313427,0.217659-0.618145,0.3308411-0.9315758
			c0.1044769,0,0.2176552,0,0.3221321,0C39.0036621,35.3761177,38.9601326,34.3313599,38.3332787,34.3400726z
			 M35.7562065,38.6409874c-0.0174141,0-0.0435295,0-0.0609436,0.0087051
			c-0.0261192-0.0348282-0.0522385-0.0609436-0.0783577-0.0783577c0.0261192-0.0087051,0.0522385-0.0174141,0.0783577-0.0348282
			c0.1131821-0.0435333,0.2263641-0.0870628,0.3395462-0.121891c0.0087051,0.0783577,0.0174141,0.1480064,0.0348244,0.2263603
			C35.9738655,38.6322823,35.8693886,38.6322823,35.7562065,38.6409874z"/>
		<g id="XMLID_72_">
			<path id="XMLID_33_" class="st4" d="M31.4552879,34.9669228c-0.9228706-0.0435333-1.8544445-0.0261192-2.7773151-0.0696487
				c-0.9054546-0.0435333-1.802206-0.1044769-2.7076645-0.0870667c-1.7412624,0.0261192-3.4738197,0.1131821-5.2150822,0.1828308
				c-1.6803207,0.0609474-3.3432255,0.3308411-5.0235453,0.2437782c-0.844512-0.0435333-1.6890249-0.1393013-2.5161257-0.3047218
				c-0.5659103-0.1131821-1.3146534-0.2437744-1.7935009,0.1741257c-0.2960148,0.2611885,0.0783567,0.7139206,0.4091969,0.5310822
				c0.2524834-0.1392975,0.8793383,0.121891,1.1318207,0.1828308c0.3656654,0.095768,0.7313309,0.1741257,1.0969963,0.2350731
				c0.7748623,0.121891,1.5584307,0.1828308,2.3419991,0.2002449c1.6541996,0.0261154,3.2996941-0.2002449,4.9538937-0.2611923
				c1.6716118-0.0609436,3.3432255-0.1480064,5.0148392-0.2698936c0.8706322-0.0609436,1.7499695-0.1131783,2.6118946-0.2263603
				c0.8271008-0.1131821,1.6803188-0.1305962,2.5074177-0.2873077
				C31.6468258,35.201992,31.5945873,34.9756317,31.4552879,34.9669228z"/>
			<path id="XMLID_32_" class="st4" d="M34.7636871,36.699482c-0.3308372-0.0783615-0.6442642-0.0696526-0.9838104-0.0870628
				c-0.3743706-0.0174141-0.748745-0.0870628-1.1318207-0.1131821c-0.7922764-0.0522346-1.5845528-0.0261192-2.3855324-0.0522346
				c-1.5410175-0.0522385-3.0820351-0.1654243-4.6230545-0.095768c-0.1567135,0.0087013-0.2176571,0.2698936-0.0435314,0.2960167
				c0.3395462,0.0522346,0.6790924,0.1044769,1.0186386,0.1567116c-0.3221321,0-0.6442661,0.0087051-0.9664021,0.0087051
				c-1.3233585,0.0174141-2.6380138,0.0609436-3.9613724,0.0870628c-1.279829,0.0174141-2.550951,0.0348282-3.8220749,0.0870628
				c-1.3668919,0.0609436-2.7250767,0.2002449-4.1006746,0.2437744c-0.4614353,0.0174141-0.4614353,0.7052116,0,0.7139206
				c2.6380129,0.0783577,5.2847338-0.0609474,7.9227476-0.0870628c2.6989574-0.0261192,5.4066238-0.0435333,8.0881672-0.3656654
				c0.1393013-0.0174141,0.208952-0.1131821,0.2002449-0.217659c1.5932541,0.1567116,3.186512,0.1567116,4.7623558-0.2437744
				C34.9291077,36.9867897,34.9291077,36.7430115,34.7636871,36.699482z"/>
			<path id="XMLID_31_" class="st4" d="M32.7089958,38.9370041c-0.2698936,0.0609474-0.6007347,0.0174141-0.8706303,0.0261192
				c-0.3482533,0.0087051-0.6965046,0.0435295-1.0534649,0.0696487c-0.7313309,0.0522346-1.4713669,0.0609474-2.2114048,0.095768
				c-1.4452477,0.0696487-2.9340267-0.0087051-4.3792763-0.1305962c-1.4191303-0.121891-2.8382587-0.1392975-4.2660961-0.1741257
				c-0.740036-0.0174141-1.4800739-0.0783577-2.2201099-0.0435295c-0.7922745,0.0348244-1.584549,0.1392975-2.3768244,0.2176552
				c-0.2611895,0.0261192-0.2698965,0.4179039,0,0.4091988c3.1168604-0.0435295,6.2337236,0.1654243,9.3331709,0.4527283
				c1.5671368,0.1393013,3.1255684,0.1305962,4.6927052,0.0696526c0.6877975-0.0261192,1.4017181-0.0522385,2.0808086-0.1915398
				c0.3395462-0.0696526,0.6703873-0.1915436,1.0012283-0.2960167c0.2002411-0.0609474,0.313427-0.1044769,0.4353142-0.2698975
				C32.9788933,39.0501862,32.8308868,38.9021759,32.7089958,38.9370041z"/>
		</g>
		<path id="XMLID_69_" class="st5" d="M41.223774,31.9371243c-0.1915398-0.0609455-0.4004898-0.0522385-0.6268578-0.0261173
			c-0.6790886-0.2611904-1.584549-0.2002449-2.3071709-0.1305943c-0.531086-0.0870647-1.079586-0.1393032-1.6367874-0.1480083
			c-1.1318207-0.0261192-2.2636414-0.0261192-3.3867569-0.1305962c-1.0708771-0.0957699-2.1417542-0.1044769-3.2126312-0.1131802
			c-1.0273438,0-2.019865,0.1305943-3.0385036,0.2611885c-1.06217,0.1393013-2.1939907,0.1567135-3.2648678,0.0609455
			c-1.0534649-0.0957699-2.0633965-0.1131802-3.1168613-0.0957699c-1.1492348,0.0174141-2.2897625-0.0696487-3.4389954-0.1218872
			c-0.4962597-0.0174141-0.9751072-0.0174141-1.4539547,0.008707c-0.3656654-0.2960148-0.6616802-0.7226238-0.9925203-1.0534649
			c-0.3308401-0.3308392-0.5920296-0.6877995-0.8880444-1.0534649c-0.2263641-0.2873077-0.5397911-0.8967495-0.9315758-0.957695
			c-0.313427-0.0435314-0.5397911,0.3569584-0.2263641,0.539793c-0.0522375-0.0348263,0.1480074,0.313427,0.1915388,0.3743706
			c0.0957699,0.1567116,0.1915388,0.3047199,0.2873087,0.4614334c0.1218891,0.200243,0.217658,0.4091969,0.3134279,0.6181488
			c-0.0870638-0.0261173-0.1741266-0.0522385-0.2698956-0.0696487c-0.2002459-0.2350731-0.3830786-0.4788475-0.5659113-0.748745
			c-0.2960148-0.4440231-0.4962597-0.9315758-0.740037-1.4017162c-0.2873087-0.5484982-0.4004898-1.0795841-0.5136728-1.6803188
			c-0.0174122-0.0870628-0.0522375-0.1480083-0.104475-0.1915398c0.0435314-0.1828327,0.0870628-0.3569603,0.1218882-0.539793
			c0.4091969-1.91539,0.5572042-3.8917255,0.8271008-5.8332329c0.2786016-2.0024529,0.5484982-4.0049047,0.6703854-6.0247717
			c0.0261192-0.426609-0.0261192-0.8183928-0.0348253-1.2450018c-0.0087061-0.3482523,0.1218891-0.7748613,0.1654205-1.1405277
			c0.0609436-0.4353161,0.1218882-0.9228706,0.1393003-1.3668928c0-0.0609455,0.008707-0.6007357-0.0348253-0.4614353
			c0.0435324-0.2002459,0.1393013-0.3830776,0.1654205-0.6007357c0.0435314-0.426609-0.3656654-0.8096876-0.7574492-0.8619242
			c-0.2350702-0.0261192-0.4353161,0.0261192-0.6007357,0.1393013c-0.0609446-0.008707-0.1218891-0.0174122-0.1828327-0.0174122
			c-0.3917847,0-0.8445129,0.2960138-0.9228697,0.6965055c-0.208952,1.0882893-0.5223789,2.5857763-0.6877995,3.8830175
			c-0.0348253,0.1654196-0.0696497,0.3395452-0.1131821,0.5049648c-0.2698956,1.27983-0.7748613,2.5857782-0.853219,3.8917246
			c0,0.0609455,0,0.1218872,0.008707,0.1741257c-0.2002459,0.7139206-0.3917847,1.4365425-0.6007366,2.1504612
			c-0.5049658,1.7673817-1.0012264,3.5695915-1.3930106,5.3717995c-0.1828327,0.8358059-0.4266095,1.6716137-0.4527283,2.5335388
			c-0.0087066,0.200243-0.0261188,0.4091969-0.0348253,0.6268559c-0.0261188,0.1305943-0.052238,0.2698956-0.0870633,0.4004898
			c-0.3308401,1.601963-0.5920296,3.2213383-0.6703863,4.8581276c-0.0348253,0.7748642-0.1044755,1.5497246-0.1393008,2.3245888
			c-0.0087066,0.2089539-0.0087066,0.4091949-0.0174127,0.618145c-0.0696507,0.33955-0.1393013,0.6703873-0.217658,1.0012245
			c-0.1305947,0.557209-0.2350707,1.2188873,0.2524834,1.6454964c0.0522375,0.0435333,0.1044755,0.0870628,0.1654196,0.121891
			c0.0348253,0.0696487,0.0696507,0.1305962,0.1131825,0.1915398c0.0609441,0.0870628,0.1393008,0.1654243,0.2263641,0.2263641
			c0.0087061,0.0174141,0.0087061,0.0435295,0.0174127,0.0609436c0.1915388,0.5223808,0.4962597,0.8967514,0.8270998,1.3320656
			c0.322134,0.4266129,0.6877995,0.7313347,1.1927652,0.9141617c0.5136728,0.1915436,1.0273457,0.435318,1.5497246,0.5920296
			c1.1144085,0.3308411,2.2549362,0.2089539,3.3954639,0.2786026c0.5397911,0.0348282,1.0882893-0.0261154,1.6280804,0.0087051
			c0.644268,0.0435333,1.2624168,0.1480103,1.906683,0.1392975c0.5833225-0.0087013,1.166647-0.1218872,1.7499695-0.1654205
			c0.6355629-0.0435295,1.2624168,0.0261192,1.8979778,0.0609474c0.6094418,0.0435295,1.1927662-0.0261192,1.8022079-0.0435333
			c0.6094418-0.0087051,1.2101765,0.0087051,1.8196201,0c1.2798271-0.0174141,2.5248318-0.2524872,3.7959538-0.2960167
			c1.375597-0.0522346,2.7511959-0.121891,4.1267948-0.121891c0.6703873,0,1.36689,0.0174141,2.0372772-0.095768
			c0.6616783-0.1131821,1.2972412-0.3917847,1.9589195-0.4962616c0.2437782-0.0348244,0.1828346-0.4353142-0.0609436-0.426609
			c-0.4875565,0.0087013-0.957695,0.121891-1.4452515,0.121891c-0.5920258,0-1.1666451-0.0435333-1.7499695-0.0696526
			c-1.0708752-0.0522346-2.1330471,0.0087051-3.195219,0.1131821c-1.1405277,0.1044769-2.2897606,0.1305962-3.4215813,0.2786026
			c-1.1144104,0.1480103-2.2114048,0.1480103-3.3345203,0.0435333c-0.4788475-0.0435333-0.957695-0.0609474-1.4365425-0.0261192
			c-0.5659103,0.0348282-1.1405277-0.0609436-1.697731-0.1305962c-1.1057034-0.1305923-2.2026997,0.121891-3.3084011,0.0696526
			c-0.4875536-0.0261192-0.9576941-0.1305962-1.4452477-0.1654243c-0.5484991-0.0435295-1.0969963,0.0261192-1.6454945-0.0783577
			c-0.9664011-0.1741257-1.9240961-0.1915398-2.8556719-0.5484962c-0.4962597-0.1915398-0.9838133-0.3917847-1.4800739-0.5746155
			c-0.208951-0.0783577-0.3656654-0.2089539-0.5049658-0.3569565c0.1305943-0.33955,0.0870628-0.7139206,0.0957689-1.0708771
			c0.0087061-0.3917847,0.0087061-0.7748642,0.0087061-1.1666489c0.0087061-0.8270988,0.0261192-1.6541977,0.217658-2.4725952
			c0.104476-0.4440193,0.217658-0.8793373,0.3569593-1.3059464c0.0522375,0,0.104476-0.0087051,0.1480074-0.0087051
			c0.5397911-0.0609436,1.0795832-0.1392975,1.6193752-0.1915398c0.3743715-0.0348282,0.740037-0.0696487,1.1144085-0.1044769
			c0.1218882,0.0435295,0.2437773,0.0783577,0.3830776,0.095768c0.1654205,0.0174141,0.3395472-0.0609474,0.4614353-0.1828308
			c0.2350702-0.0261192,0.4614353-0.0522346,0.6965055-0.0783577c1.0099325,0.0522346,2.0285711,0.0609436,3.0385036-0.0087051
			c0.5484982-0.0348282,1.0969963-0.0870628,1.6454945-0.1305962c0.6529732,0.0435333,1.3059464,0.0870628,1.9589214,0.0870628
			c1.0186386,0,2.0459843-0.0696487,3.0472107,0.0696487c1.0186386,0.1393013,2.1156349,0.1393013,3.1429787,0.0522385
			c0.957695-0.0783615,1.91539-0.313427,2.873085-0.33955c1.0795822-0.0261192,2.1504612,0.0174141,3.2300453,0.0522346
			c0.7835655,0.0261192,1.5410156,0.0696526,2.3071709,0.0522385c0.8009834,0.6094398,2.1591682,0.400486,3.0646248,0.3221321
			c0.531086-0.0435295,1.0708771-0.0783577,1.601963-0.1305923c0.2524834-0.0261192,0.5397911-0.0609474,0.8009834-0.121891
			c0.2611885-0.0261192,0.5049629-0.0522346,0.6965027-0.0522346v-0.0087051
			C41.746151,33.4346123,42.17276,32.2244339,41.223774,31.9371243z M12.5625801,31.815237
			c0.0348253,0.0435314,0.0783567,0.0783558,0.1131821,0.1218872c-0.0870628,0.0174141-0.1741266,0.0261173-0.2611895,0.0435314
			c-0.0174122-0.0348244-0.0348253-0.0696487-0.0435314-0.1044769
			C12.4319849,31.8587685,12.5016356,31.8326511,12.5625801,31.815237z"/>
		<g id="XMLID_63_">
			<path id="XMLID_28_" class="st6" d="M34.8159256,8.7696171C34.415432,8.6999664,34.006237,8.6999664,33.6057472,8.656435
				c-0.3917847-0.0435324-0.748745-0.1741266-1.1318207-0.217658c-0.8358078-0.104476-1.6716156-0.2786016-2.5161266-0.3656654
				c-1.6629066-0.1741261-3.3171062-0.1218877-4.9800129-0.0609436c-1.7325554,0.0609436-3.4651127,0.217658-5.206377,0.2437773
				c-0.8096867,0.0087061-1.6367874-0.008707-2.4377689,0.1218872c-0.5659103,0.0870638-1.2885342,0.113183-1.7238503,0.5223789
				c-0.2350702,0.217658,0.0696507,0.6007357,0.3395462,0.4353161c0.2611904-0.1567135,0.7748623-0.0957699,1.0708771-0.0783558
				c0.3656654,0.0174122,0.7226238-0.008707,1.0882893,0.0174122c0.8183937,0.0609436,1.6367874,0.0870628,2.4551811,0.0957699
				c0.8009815,0.008707,1.584549-0.0261192,2.3855305-0.0957699c0.844511-0.0696507,1.697731-0.0435314,2.542244-0.1131821
				c1.5410175-0.1218882,3.1255665-0.0348253,4.6578789,0.1305943c0.7748623,0.0870628,1.5497227,0.1567144,2.3245888,0.1567144
				c0.7835655,0,1.5758438-0.2002459,2.3419991-0.3395462C34.972641,9.074338,34.9813461,8.8044434,34.8159256,8.7696171z"/>
			<path id="XMLID_27_" class="st6" d="M33.9539986,10.2583961c-1.1318207-0.1828327-2.2114029-0.4440222-3.3693447-0.5223789
				c-1.2188835-0.0783558-2.4203548,0.0435314-3.6305332,0.1393013c-1.1405277,0.0957708-2.2636433,0.2350721-3.3954639,0.3830776
				c-0.5572033,0.0696497-1.1057014,0.1393023-1.6541996,0.217658c-0.5049667,0.0696497-1.2885361,0.217658-1.7760887,0
				c-0.1567135-0.0696497-0.2873096,0.1567125-0.1305943,0.2263651c0.3395462,0.1654196,0.8096867,0.2002439,1.1840591,0.2524824
				c0.5572033,0.0783567,1.1318207,0.0696497,1.689024,0.1044769c1.2188854,0.0783558,2.4725933-0.0522385,3.6914806-0.1044769
				c1.2450008-0.0522385,2.4900055-0.1393013,3.7350082-0.1131811c1.2275906,0.0261183,2.455183,0.0522385,3.6740665-0.1218882
				C34.1803627,10.685008,34.1803627,10.3019276,33.9539986,10.2583961z"/>
			<path id="XMLID_26_" class="st6" d="M41.1454163,26.6436844c-0.1567116-0.7487431-0.3656654-1.4887791-0.5920258-2.2201099
				c-0.4440231-1.497488-0.8096886-3.0210934-1.0969963-4.562109c-0.5833244-3.0472107-1.3146553-6.059597-1.8370361-9.1068077
				c-0.0783539-0.4788475-0.7922745-0.2698965-0.7226219,0.2002439c0.4440231,3.0472107,0.8445129,6.1031275,1.3668938,9.141633
				c0.2611885,1.5061913,0.5920258,2.9949722,0.9925194,4.4750462c0.3743706,1.384304,0.8009796,2.8556709,1.480072,4.1180859
				c0.0957718,0.1828327,0.3917847,0.1393013,0.4440231-0.0609455
				C41.336956,28.0192814,41.2760124,27.2705402,41.1454163,26.6436844z"/>
			<path id="XMLID_25_" class="st6" d="M38.3593941,26.2606087c-0.1828308-0.635561-0.3482513-1.2798309-0.4614334-1.9328041
				c-0.2350693-1.3320656-0.4440193-2.655426-0.6094398-3.9961987c-0.1567116-1.279829-0.2437782-2.5596561-0.3917847-3.83078
				c-0.0783577-0.6442661-0.1654205-1.2885332-0.2002449-1.9415073c-0.0348244-0.63556-0.1741257-1.2624159-0.2002449-1.8979759
				c-0.0261154-0.6094418-0.9838104-0.6181488-0.957695,0c0.0261192,0.63556,0.1480103,1.2624159,0.1741295,1.8979759
				c0.0261154,0.5833244,0.095768,1.157939,0.1567116,1.7325573c-0.1044769,0.4614334,0.0435295,0.9925194,0.0783539,1.4626598
				c0.0522385,0.7139187,0.1131821,1.4278355,0.1741295,2.1417542c0.0522385,0.6703873,0.1044769,1.3407726,0.1654167,2.0111599
				c0.0522385,0.5833244,0.2263641,1.1405277,0.3482552,1.7064381c0.0435295,0.3047218,0.0870628,0.6094418,0.1305923,0.9228706
				c0.1044769,0.6965046,0.2524834,1.3581848,0.4788475,2.0285702c0.1741257,0.4962616,0.2960167,1.1579399,0.861927,1.3407726
				c0.1393013,0.0435314,0.304718-0.0261173,0.3743706-0.1480083
				C38.7511787,27.3053665,38.4899902,26.7220421,38.3593941,26.2606087z"/>
			<path id="XMLID_24_" class="st6" d="M40.8929329,31.4931049c-0.1480064-0.0696507-0.3482513-0.0957699-0.4614334-0.1218891
				c-0.2437744-0.0522385-0.4440231-0.1305943-0.6965027-0.0348244c-0.3221359,0.1131821-0.5397949,0.426609-0.4440231,0.7748604
				c0.0783539,0.2873116,0.4353142,0.5485001,0.7487411,0.4527283c0.008709,0,0.0174141,0,0.0174141,0.0087051
				c0.0783577,0.0174141,0.1654205,0.0261154,0.2437782,0.0348282c0.0696487,0.0087013,0.1305923,0.0087013,0.2002449,0.0087013
				c0.0174103,0,0.1393013-0.0174141,0.1741257-0.0261154c0.0261154,0,0.0609436-0.0087051,0.0696487-0.0087051
				c0.0783577-0.0087051,0.1567116-0.0174141,0.2263641-0.0348282c0.0609474-0.0087051,0.1393013-0.0087051,0.2263641-0.0435295
				c0.1480103-0.0609474,0.2437782-0.1654243,0.2524834-0.3308411
				C41.458847,31.8587685,41.1454163,31.6062851,40.8929329,31.4931049z"/>
		</g>
		<path id="XMLID_59_" class="st7" d="M40.4402046,34.1833534c0.4440231-0.1044769,0.8445129-0.1392975,1.2101784-0.3047218
			c0.1044769,0.0261192,0.20895,0.0261192,0.313427-0.0261192c0.7748604-0.400486,1.0099335-1.0273438,0.966404-1.8718567
			c-0.0522385-1.0186405-0.3395462-2.0111599-0.531086-3.0036793c-0.2002449-1.0186405-0.3743706-2.019865-0.6007385-3.0297966
			c-0.1131783-0.4962616-0.1218872-1.0099335-0.1741257-1.5148983c-0.0522385-0.5223789-0.1480064-1.0447578-0.20895-1.5584297
			c-0.1305962-1.0360527-0.4701424-2.0198669-0.6703873-3.0472107c-0.2002449-1.0447578-0.2786026-2.1156349-0.4701424-3.1690998
			c-0.2002411-1.062171-0.4875526-2.0895157-0.6703873-3.1603918c-0.1654167-1.0186396-0.4440231-2.0546913-0.4179001-3.0907421
			c0.0087051-0.4875546-0.0261192-0.8967505-0.1218872-1.384304c-0.0783577-0.4091959,0.095768-0.8009806-0.226368-1.1492333
			c-0.522377-0.5572033-1.5671349-0.6007352-2.2636414-0.7313299c-0.4091988-0.0783563-0.8096848-0.1828332-1.2188835-0.2698965
			c-0.4614334-0.0957699-0.8183937,0.0174127-1.271122,0.0783567c-0.4614334,0.0609436-0.9402809,0-1.4017181-0.0522385
			c-0.5659103-0.0609441-1.1231136-0.0957704-1.689024-0.1218882c-0.9402828-0.0522385-1.8631516-0.2611895-2.7947292-0.3134279
			c-1.1405277-0.0609441-2.2984676,0.0174127-3.4389954,0.0261192c-2.1504593,0.008707-4.2748013,0.1828332-6.4252605,0.2002459
			c-0.5659122,0.0087066-1.1231155,0-1.6890259,0c-0.5572033,0-1.06217,0.1393013-1.6106682,0.1828327
			c-1.0360518,0.0783567-2.2549362,0.0348248-3.2039251,0.531086c-0.2960148,0.156714-0.531085,0.3482528-0.7139177,0.5746174
			c-0.0261192,0-0.0522375-0.0087066-0.0783567-0.0087066c-0.217658-0.0261192-0.3308401,0.2437773-0.1828327,0.3482523
			c-0.0783567,0.1828337-0.2002449,0.3569593-0.2611895,0.5572042c-0.0348253,0.1218872-0.0696507,0.2350702-0.0957689,0.3569593
			c-0.0348253,0.1131821-0.0696507,0.2263651-0.104476,0.3395452c-0.1480074,0.4962606-0.4091969,0.9576941-0.5833235,1.4539547
			c-0.0870628,0.2524834-0.1654205,0.5136728-0.217658,0.7748623c-0.0174122,0.1131811-0.0261183,0.2350712-0.0435314,0.3569593
			c-0.0087061,0.0522385-0.0261192,0.1131811-0.0348253,0.1654196c-0.0174131,0.0609446-0.0522375,0.1218872-0.0957689,0.1741257
			c-0.0870638,0.1044769-0.0696507,0.2263651-0.008707,0.3047218c-0.0348253,0.1828327-0.0783567,0.3656664-0.1218882,0.5397921
			c-0.1741266,0.6965055-0.3917847,1.375597-0.5659103,2.0633984c-0.322134,1.2624168-0.5920296,2.5422459-0.9402823,3.7959538
			c-0.3656654,1.3407726-0.5310855,2.7076664-0.8706317,4.0484371c-0.3134274,1.2450027-0.7226243,2.455183-1.0099325,3.7001858
			c-0.2873087,1.2275906-0.5049667,2.4551811-0.7313309,3.7001839c-0.1131821,0.6181488-0.0870628,1.2537098-0.2263641,1.8631535
			c-0.0609441,0.2786026-0.1654201,0.5223808-0.1915388,0.8096886c-0.0261192,0.3395462,0.052238,0.6878014,0.0087061,1.0186386
			c-0.0696507,0.5223808-0.1828327,0.957695-0.1741261,1.4974861c0.0174127,0.6878014-0.0435319,1.3755989-0.0174127,2.0634003
			c0.0174127,0.5397911,0.1828327,1.0273438,0.217658,1.5584335c0.0435314,0.5833244,0.4266095,1.140522,0.7922745,1.57584
			c0.4353161,0.5049667,0.9489884,0.5659103,1.5148993,0.835804c0.365665,0.1741257,0.6442676,0.4353142,1.0012264,0.5310822
			c0.4440222,0.2524872,0.9489889,0.3917847,1.4452486,0.5397949c0.9402819,0.2873077,1.9415083,0.4179001,2.9253225,0.4179001
			c0.5920296,0,1.1927643-0.0261154,1.7847948,0.0174141c0.6442671,0.0522346,1.2537098,0.1567116,1.9066839,0.1567116
			c1.2101765,0.0087051,2.4116497,0.0087051,3.6218262,0.0174141c0.5920296,0,1.1840611,0,1.7760887,0.0087051
			c0.6529732,0.0087051,1.2624149-0.095768,1.91539-0.1392975c1.1840591-0.0870628,2.4029427,0.0087013,3.5957088,0.0174141
			c0.5659103,0,1.1318207,0,1.697731,0.0087013c0.5833244,0.0087051,1.1492348-0.1044769,1.7238503-0.1392975
			c1.1753521-0.0696487,2.3507042-0.121891,3.5260582-0.1480103c0.6094437-0.0174141,1.1840591-0.0783577,1.7847939,0.0783615
			c0.5920296,0.1567116,1.2275925,0.0870628,1.8370323,0.1044769c0.6094437,0.0174141,1.184063,0.0174141,1.7847977-0.095768
			c0.5920258-0.1044769,1.1840591-0.1044769,1.6716118-0.4962616c0.5920296-0.2437744,1.0969963-0.9925232,1.1405296-1.601963
			c0.0783539-0.8967514-0.5833244-1.4539566-1.2362976-1.9415092c-0.7574501-0.5659103-1.4191284-1.3755951-1.9502144-2.1591644
			c-0.1393013-0.2002449-0.3656693-0.5136757-0.6268578-0.7139206c0.3221359-0.7313309,0.7835693-1.4278374,1.271122-2.0546875
			C39.9352417,34.2704163,40.1877213,34.2355957,40.4402046,34.1833534z M38.5248146,37.7703552
			c0.3569603,0.5659103,0.8532181,1.0447578,1.2972412,1.5410194c0.217659,0.2437782,0.4614334,0.4527321,0.7226219,0.6442719
			c0.2350731,0.1828308,0.644268,0.4527283,0.7226257,0.7661552c0.1044769,0.4091949-0.4179039,0.9228668-0.7139206,1.1492348
			c-0.0696487,0.0522346-0.1131821,0.1131783-0.1480064,0.1741257c-0.3221359,0-0.644268,0.0435295-0.966404,0.095768
			c-0.5572014,0.0957642-1.0882874,0.1480064-1.6541977,0.1392975c-0.5136719-0.0087051-1.079586,0.0696487-1.5845528-0.0174141
			c-0.4962616-0.0783577-0.9315758-0.1915398-1.4452477-0.1741257c-1.0882912,0.0435295-2.1678734,0.121891-3.2561626,0.1915398
			c-1.1144066,0.0696487-2.228817,0.1915398-3.3432255,0.1915398c-1.1753521,0.0087051-2.3507042,0.0174141-3.5347652,0.0261192
			c-1.1405277,0-2.2549343,0.1654205-3.395462,0.1654205c-1.166647,0-2.3245869,0.0087051-3.4912338,0.0174141
			c-0.5746174,0-1.1405277,0.0087051-1.7151451,0.0087051c-0.6094418,0-1.1927643-0.095768-1.802207-0.1393013
			c-0.6616793-0.0435295-1.3233595,0-1.9850397,0c-0.3134279,0-0.6529741,0.0522385-0.957695-0.0087013
			c-0.2350702-0.0435333-0.4614353-0.1044769-0.7052116-0.1305962C10.072566,42.358593,9.6024256,42.2541161,9.114872,42.140934
			c-0.0870638-0.0174141-0.1741266-0.0348282-0.2611895-0.0609436c0.0348253-0.1828308-0.0435324-0.3917847-0.2786026-0.4614372
			c-0.3917837-0.1131783-0.6181483-0.6355591-0.9925199-0.835804c-0.4875541-0.2524834-0.8880444-0.304718-1.2101779-0.7922707
			c-0.0957699-0.1480103-0.2960148-0.3743706-0.3395467-0.5572052c-0.0435314-0.1828308-0.0087061-0.4091988-0.0348248-0.5920296
			c-0.0348253-0.2089539-0.1131825-0.3917847-0.156714-0.5920296c-0.0609441-0.3308372-0.0174127-0.7052078-0.0174127-1.0360527
			c0.0087066-0.5572052,0.0174127-1.1057053,0-1.6542015c-0.0174127-0.5659103,0.1915388-1.0882874,0.1654201-1.6629028
			c-0.0087066-0.2611885-0.0261188-0.4962616,0.0348253-0.7574501c0.0609441-0.2611923,0.1305947-0.5049667,0.1654201-0.7748642
			c0.0783567-0.635561,0.1131821-1.2537098,0.2263641-1.8892727c0.217658-1.175354,0.3830781-2.3507061,0.6094422-3.5260582
			c0.2350707-1.2275925,0.6268549-2.4203548,0.8706317-3.6479473c0.2437763-1.2362976,0.3569584-2.4725933,0.6877995-3.6914768
			c0.3221331-1.1927662,0.5746164-2.4029446,0.8619251-3.613121c0.313427-1.3233614,0.6529732-2.6380129,0.9751072-3.9613743
			c0.1567135-0.6616802,0.426609-1.2885342,0.5920296-1.9502144c0.0261192-0.0870628,0.0435314-0.1741266,0.0609436-0.2611895
			c0.0087061-0.0261192,0.0174122-0.0522385,0.0348253-0.0870628c0.1480074-0.4353161,0.208952-0.8967514,0.5659103-1.2275915
			c0.6268549-0.5746174,1.7412634-0.6007352,2.5335388-0.6442671c0.948988-0.0522385,1.8892708-0.1915388,2.8382587-0.1654196
			c1.0012264,0.0261192,2.0024529,0.0261192,3.0036793,0.0261192c0.957695,0.008707,1.91539-0.1393013,2.873085-0.1393013
			c1.9937458,0.0087066,4.0571442-0.1305947,6.0334797,0.1480069c0.9141617,0.1305947,1.8457394,0.1480074,2.759903,0.217658
			c0.9402809,0.0696511,1.8892708,0.2873082,2.8208466,0.0696511c0.3743706-0.0870633,0.6007347-0.008707,0.9664001,0.0696507
			c0.4614334,0.104475,0.9489899,0.1828327,1.4191284,0.2611895c0.1741257,0.0261192,0.3569603,0.0261192,0.5223808,0.0696507
			c0.0870628,0.0174122,0.3482513,0.1741266,0.4701385,0.1828327c-0.0087051,0.0522385-0.0087051,0.104476-0.0087051,0.1480074
			c0,0.2698965,0.095768,0.5223789,0.1393013,0.7835684c0.0870628,0.4440231,0.0087051,0.9054565,0.0348244,1.3494797
			c0.0348244,0.4440222,0.095768,0.8880453,0.1828346,1.3233604c0.1828308,0.9925203,0.3221321,1.9937468,0.5397911,2.977562
			c0.217659,1.0099325,0.4527283,1.9850397,0.5833244,3.0123854c0.1218872,0.9838123,0.2698975,1.9589214,0.5136719,2.9253235
			c0.2698975,1.0534649,0.4527283,2.0982227,0.5833244,3.1778049c0.0609436,0.5136719,0.0696487,1.0273438,0.1480064,1.5323124
			c0.0783577,0.5049648,0.2437782,1.0012264,0.3395462,1.5061913c0.217659,1.1057034,0.3830795,2.2288189,0.6181488,3.3345184
			c0.1044769,0.5049648,0.2002449,1.0186405,0.1828346,1.5410213c-0.0087051,0.3743706-0.217659,0.7139168-0.4179001,1.0273438
			c0,0,0,0.0087013-0.008709,0.0087013c-0.1305962,0-0.2698975-0.0174103-0.426609-0.0261154
			c-0.4091988-0.0261192-0.8183937,0.0609436-1.2188835,0.0609436c-0.8009834,0-1.6629066,0.0870628-2.4551811-0.0261154
			c-1.601963-0.2350731-3.2126312-0.2089539-4.8320084-0.2089539c-0.8270988,0-1.6454926,0.0087013-2.4725914-0.0174141
			c-0.3743706-0.0087051-0.748745-0.0174141-1.1231155,0.0087013c-0.4091969,0.0261192-0.7922745,0.1480103-1.2014694,0.1828308
			c-0.8706322,0.0783615-1.7586765,0-2.6380157,0.0783615c-0.8880424,0.0783577-1.7760868,0.0696487-2.6728382,0.0696487
			c-1.7935009,0-3.5870018,0-5.3805046-0.0087051c-0.9141617,0-1.8283253,0-2.7424889,0
			c-0.4091969,0-0.8270998-0.0261192-1.2362967,0.0348282c-0.4091969,0.0696487-0.8009806,0.1567116-1.2188845,0.1828308
			c-0.7226248,0.0435295-1.4452486,0.1131821-2.0459843,0.5484962c-0.4788475,0.33955-0.8358059,0.8532181-1.0708771,1.3843079
			c-0.4788475,1.0708733-0.7139177,2.2549362-0.3743715,3.3867569c0.1915388,0.6355629,0.5572042,1.3146515,1.1405277,1.6629066
			c0.6442671,0.3743706,1.4278355,0.3917847,2.1504593,0.4875488c0.4527283,0.0609474,0.8967514,0.0522385,1.3494797,0.121891
			c0.426609,0.0696487,0.844512,0.121891,1.271122,0.1305962c0.8358059,0.0261192,1.6454935-0.0435333,2.4638872-0.1567116
			c1.3930111,0.1044769,2.8382587-0.0696526,4.2051506,0c0.4353161,0.0174141,0.8706322,0.0609436,1.3059483,0.0261154
			c0.426609-0.0348282,0.8532181-0.1131783,1.2798271-0.1392975c1.0186386-0.0522346,2.0459843,0,3.0646248,0.0174141
			c1.9850388,0.0261154,3.9787865,0.0174141,5.9638252,0.0261154c0.9838142,0,1.9676285,0.0087051,2.9514427,0.0087051
			c0.4614334,0,0.9228706,0.0174141,1.384304,0.0087051c0.4614334-0.0087051,0.9141617-0.1741257,1.3755951-0.1567116
			c0.5049667,0.0261154,0.6181488-0.6007385,0.3221359-0.8706322c0-0.0087051,0-0.0174141,0-0.0261192
			c-0.0435333-0.217659-0.1654205-0.3221359-0.2960167-0.4875526c-0.1828308-0.2350693-0.1828308-0.4527283-0.1828308-0.740036
			c0.0087051-0.5659103-0.0348244-1.1492348,0.1044769-1.7064362C38.2636261,37.34375,38.3855133,37.5527,38.5248146,37.7703552z
			 M38.2375069,35.1671715c-0.2350693,0.33955-0.4701385,0.6965065-0.6616783,1.079586
			c-0.008709,0.0087013-0.0261192,0.0174141-0.0348244,0.0261154c-0.0522385,0.0522385-0.0696526,0.1131821-0.0609474,0.1741295
			c-0.1218872,0.2611885-0.217659,0.5310822-0.2786026,0.8096848c-0.1393013,0.6268539-0.3656654,2.0895157,0.0957718,2.8121376
			c-0.1654205,0.0261192-0.3395462,0.0609474-0.5049667,0.0609474c-0.4614334,0.0174141-0.9228706,0-1.384304,0
			c-0.9838142,0-1.9676285,0.0087051-2.9514389,0.0087051c-1.9850407,0.0087013-3.9787903,0.0348244-5.963829,0.0174103
			c-1.0186386-0.0087013-2.0459843-0.0522346-3.0646229,0.0087051c-0.426609,0.0261192-0.85322,0.1131821-1.279829,0.1480103
			c-0.4353142,0.0348282-0.8706303,0-1.3059464-0.0174141c-0.9838142-0.0348282-1.9850407,0.0696487-2.9688549,0.0870628
			c-0.8619251,0.0174141-1.7499695,0-2.5944824,0.2002449c-0.1393013,0-0.2786016-0.0087051-0.4179039-0.0087051
			c-0.8096876,0-1.5758429-0.121891-2.3768244-0.1741257c-0.6965055-0.0435333-1.4278355-0.0609474-2.1069288-0.2263641
			c-0.7487431-0.1828308-1.0882893-0.6616783-1.2885342-1.3930092c-0.1480074-0.5659103-0.1828327-1.053463-0.0522385-1.6193733
			c0.0435324-0.1915398,0.0957699-0.3830795,0.1480074-0.5659103c0.6355619,0.095768,1.2450037,0.2263641,1.8979778,0.217659
			c0.7487431,0,1.4626608,0.0696487,2.2026968,0.1044769c1.6367884,0.0870628,3.3084011,0.0087051,4.9451885,0
			c1.6541996-0.0087051,3.2996941,0.0435295,4.9451885,0.0609436c0.7922745,0.0087051,1.584549,0.0783615,2.3855305,0.0783615
			c0.8532181,0.0087013,1.7325554,0.1305923,2.5857754,0.0609436c0.1305962-0.0087051,0.1305962-0.1915398,0-0.2002449
			c-0.0174122,0-0.0348244,0-0.0522366-0.0087051c2.437767,0.0696526,4.9103622,0.2002449,7.32201-0.1392975
			c0.0783577-0.0087051,0.0522385-0.1305962-0.0174103-0.1392975c-0.652977-0.0609474-1.3059502,0.0261154-1.9502144,0.0261154
			c-0.644268-0.0087013-1.2885361,0-1.924099,0c-1.2972393,0.0087051-2.5944805,0.0348282-3.8917236,0.0609474
			c-0.0783558,0-0.1044769,0.0870628-0.0696487,0.1392975c-1.4539547-0.1305923-2.9253235-0.1567116-4.3792782-0.2002449
			c-1.6541996-0.0522346-3.2996941-0.1392975-4.9451885-0.1567116c-1.6454926-0.0087051-3.3084002,0.0696487-4.9451876,0
			c-0.740037-0.0348282-1.4626617-0.1044769-2.2026987-0.095768c-0.6094418,0.0087051-1.2014713-0.0783577-1.802207-0.1305923
			c0.0957689-0.2698936,0.217658-0.531086,0.3743715-0.7748642c0.3743715-0.5659142,1.0012264-0.7226257,1.6541996-0.7922745
			c0.3482533-0.0348282,0.7052116-0.0348282,1.0534639-0.0783577c0.4179039-0.0522385,0.8009815-0.1567154,1.2275906-0.1654243
			c3.3171072-0.0261154,6.6429205,0.0087051,9.9600267,0c0.7748623,0,1.5323124-0.095768,2.3071747-0.1392975
			c0.8183918-0.0435333,1.6280804,0.0435295,2.4377689-0.1131821c0.7400379-0.1392975,1.488781-0.1044769,2.237524-0.0783577
			c0.7748623,0.0261154,1.5497227-0.0348282,2.333292,0c0.8532181,0.0348282,1.70644,0,2.5596581-0.0087051
			c0.8793373-0.0087051,1.7325554,0.2002449,2.6118927,0.1741257c0.3221359-0.0087051,0.6529732-0.0087051,0.9925194-0.0174141
			C38.7424736,34.5751381,38.4812851,34.8363266,38.2375069,35.1671715z"/>
		<path id="XMLID_20_" class="st7" d="M8.5576744,31.7891178c0.0870638-0.3482513,0.2611895-0.6965046,0.313427-1.0447578
			c0.0348263-0.2263641-0.0087061-0.3830757,0.0783577-0.6094418c0.0609436-0.1654186,0.1393003-0.313427,0.1915388-0.4788475
			c0.5049667-1.6541996,0.6529741-3.395462,0.9402819-5.093195c0.2873087-1.697731,0.6790924-3.3693447,0.8009815-5.093195
			c0.0609436-0.8358059,0.2524834-1.6541996,0.3047209-2.4900074c0.0609436-0.8967495,0.2611895-1.7760878,0.4614353-2.655426
			c0.2002449-0.8967495,0.4179029-1.7673817,0.5659103-2.6728401c0.0783567-0.4788475,0.1741266-0.957695,0.2786016-1.4278355
			c0.0870638-0.4004908,0.1480074-0.7139177-0.0087061-1.1057024c-0.0522375-0.1305943-0.2524834-0.1567135-0.2873087,0
			c-0.0261192,0.0870638-0.0435314,0.1654196-0.0609436,0.2524834c-0.0087061,0.0435314,0.0174122,0.0783558,0.0522375,0.0957699
			c-0.0435314,0.2960138-0.1654205,0.5920296-0.2437773,0.8706331c-0.1218882,0.4091978-0.208952,0.8358068-0.2786016,1.2537088
			c-0.1480074,0.8096867-0.3482523,1.5845509-0.5572042,2.3768234c-0.4353161,1.6106682-0.644268,3.2648687-0.8706322,4.9103613
			c-0.1131821,0.8532181-0.1654196,1.6977329-0.3482523,2.5422459s-0.2786026,1.697731-0.4701414,2.5422459
			c-0.3743715,1.7064381-0.6616793,3.4302883-1.0708771,5.1280193c-0.0870628,0.3482533-0.2176571,0.7226238-0.2611895,1.0708752
			c-0.0261183,0.2002449,0.0435324,0.4004917,0,0.5920296c-0.0435314,0.2176571-0.1480069,0.4440231-0.2002449,0.6616802
			c-0.2002454,0.8183937-0.3047209,1.697731-0.3047209,2.542244c0,0.1654243,0.2176576,0.1741295,0.2698956,0.0348282
			c0.1480074-0.3830795,0.4091969-0.6965027,0.5136728-1.0882874C8.4357862,32.5378609,8.4619045,32.1547813,8.5576744,31.7891178z"
			/>
		<path id="XMLID_55_" class="st7" d="M12.0924397,21.3763638c-0.0087061,0.0174141-0.0087061,0.0348244-0.0174131,0.0435314
			c-0.0174122,0.0609455-0.0174122,0.1218872,0,0.1828327l0,0c0.008707,0.0174141,0.008707,0.0261192,0.0174131,0.0435314
			c0.0870628,0.2350731,0.2437763,0.3482533,0.4875536,0.3743706c0.3569584,0.0348263,0.7313299,0.008707,1.0795832,0.1044769
			c0.2698956,0.0696507,0.4701414,0.1741276,0.7574492,0.1915398c0.4875536,0.0261192,1.3930111,0.008707,1.3233595-0.7052116
			c-0.0696507-0.740036-0.948988-0.5136719-1.4191294-0.5920277c-0.0261192,0-0.0522375-0.008707-0.0696507-0.008707
			c0.1828318-0.3221359,0.313427-0.6616802,0.426609-1.0447578c0.1567144-0.5049648,0.4004908-0.957695,0.6094427-1.4452496
			c0.1305943-0.3047218,0.2263641-0.6181488,0.3656645-0.9228706c0.522378,0.0783577,0.9838133,0.1218891,1.5323114,0.0609455
			c0.6094418-0.0696487,1.2275925,0.0435314,1.8370342,0.0522385c0.104475,0.2960148,0.2263641,0.5920296,0.3221321,0.8967495
			c0.0696526,0.2350712,0.1044769,0.4701405,0.1741276,0.7052116c0.0522385,0.208952,0.1741257,0.3830776,0.2350693,0.5833244
			c0.0957699,0.3308392,0.0957699,0.7313309,0.1654205,1.1057034c-0.6268559,0.0696507-1.1579399,0.1393032-1.6542015,0.6094437
			c-0.1654186,0.1480083-0.0957699,0.4004898,0.0696526,0.5049648l0,0c0.2350693,0.1654186,0.4614334,0.1393013,0.740036,0.1393013
			c0.3308411,0,0.6616802,0.0870628,0.9925194,0.1044769c0.2611904,0.0174141,0.531086-0.008707,0.7922764-0.008707
			c0.2786007,0,0.5484982,0.0957699,0.8270988,0.0783558c0.5920296-0.0261173,0.8619251-0.7052116,0.4701405-1.1492348
			c-0.1828327-0.200243-0.417902-0.3047199-0.6790924-0.3569584c-0.0174122-0.0522385-0.0435314-0.1044769-0.0696507-0.1567135
			c-0.0522385-0.0957699-0.1218872-0.1654186-0.2002449-0.20895c-0.0348263-0.1218891-0.0609455-0.2524834-0.0783577-0.3743706
			c-0.0348244-0.226366-0.0261192-0.4353161-0.1131821-0.6616821c-0.0522385-0.1480083-0.1480064-0.2786026-0.20895-0.426609
			c-0.1741276-0.426609-0.2786026-0.8793373-0.4614353-1.3146534c-0.1915398-0.4353161-0.3569603-0.8706322-0.5049667-1.3233604
			c-0.3047218-0.9054575-0.7313309-1.7586775-0.9402828-2.6989594c-0.1393013-0.6616802-0.1828327-1.5497227-0.6703854-2.0633974
			c-0.1828346-0.1915407-0.5659122-0.217658-0.7400379,0c-0.2350693,0.2960138-0.3395462,0.6094418-0.4701405,0.957695
			c-0.1654186,0.4440222-0.4004917,0.8619242-0.6094418,1.279829c-0.2437782,0.4701405-0.5136728,0.9228706-0.7313309,1.4017172
			c-0.2002459,0.426609-0.3047209,0.8445148-0.5746164,1.2362976c-0.4962606,0.7313309-0.7574501,1.6803188-1.0447588,2.5074196
			c-0.1915379,0.5572033-0.2524834,1.2188835-0.4440212,1.8022079c-0.0348253,0-0.0696516,0-0.104476,0
			c-0.3395462,0.008707-0.7052116,0.0609455-1.0360518,0.1305943
			C12.2665653,21.0542297,12.1446772,21.2196503,12.0924397,21.3763638z M17.0985718,14.820508
			c0.2263641-0.417902,0.4527283-0.8445129,0.6529732-1.279829c0.0783558,0.3917837,0.1567135,0.7835684,0.2698956,1.166646
			c0.1915398,0.6268559,0.4004917,1.2537088,0.6181507,1.8718586c-0.4788475-0.0174141-0.9664021,0-1.4191303,0.0870628
			c-0.2698975,0.0522385-0.5049667,0.1741257-0.7661572,0.2350712c-0.1480064,0.0348244-0.3047199,0.0609455-0.4614344,0.0870628
			C16.3933582,16.2831688,16.7067871,15.5431318,17.0985718,14.820508z"/>
		<path id="XMLID_17_" class="st7" d="M26.9192963,14.3242474c0.6965065,0.0609455,0.7139187-0.8358068,0.7139187-1.3059473
			c0-0.1567125,0.0174141-0.2960148,0.0348263-0.4353161c0.3743706,0.0609455,0.7487431,0.1044769,1.1405277,0.1131811
			c0.7226219,0.0261183,1.4539547,0.0435314,2.1765785,0.008707c0.6616802-0.0348253,1.3233624-0.1131811,1.9850407-0.1305952
			c0.1741257-0.008707,0.3569565-0.0261173,0.5397911-0.0435314c-0.1131821,0.1393013-0.217659,0.2786036-0.3221359,0.417902
			c-0.304718,0.3830776-0.5484962,0.8183937-0.8706322,1.1927662c-0.3569584,0.4091988-0.7661533,0.7748623-1.157938,1.157939
			c-0.3830776,0.3743706-0.731329,0.7748623-1.1144066,1.1405277c-0.7226238,0.6877995-1.2014713,1.5845509-1.8196201,2.3594131
			c-0.7052116,0.8880444-1.3581848,1.8022079-2.0372772,2.7076645c-0.2263641,0.2960148,0.008707,0.8096867,0.3569603,0.8793392
			c0.740036,0.1393013,1.3668919-0.1044769,2.0982227-0.1305943c0.3656654-0.0174141,0.7139187,0.0870628,1.0795822,0.1305943
			c0.417902,0.0522385,0.8358059,0.0435314,1.2537079,0.0522385c0.7400379,0.008707,1.4452496-0.1654205,2.1852856-0.1393013
			c0.3395462,0.008707,0.652977,0,0.9925194-0.0783577c0.226368-0.0522385,0.435318-0.0609455,0.652977-0.0522385
			c0,0.0957699,0.0087051,0.1828346,0.0174103,0.2786045c0.0696526,0.9141636,1.3494797,0.9141636,1.4191284,0
			c0.0522385-0.7226238-0.0087051-1.5758438-0.3395424-2.2288189c-0.1480103-0.2786026-0.6007385-0.2786026-0.7400398,0
			c-0.1044769,0.2002449-0.1741257,0.4091988-0.2350693,0.635561c-0.2437782,0-0.4875565,0-0.7313309,0.0435314
			c-0.3308411,0.0609455-0.6007347,0.1567135-0.9489899,0.1654186c-0.6965027,0.008707-1.3668919,0.1654205-2.0633965,0.1741276
			c-0.7487431,0.008707-1.4365425-0.0957699-2.1765785-0.1654205c-0.3656673-0.0348244-0.7313309,0.0435314-1.0969963,0.1131821
			c0.417902-0.5833244,0.8445129-1.166647,1.279829-1.7499714c0.6268559-0.8358059,1.157938-1.6803169,1.906683-2.4203548
			c0.731329-0.731329,1.5497246-1.4626589,2.1852875-2.2723484c0.304718-0.3830776,0.5572014-0.8009825,0.8532181-1.1927662
			c0.3308372-0.426609,0.740036-0.7748623,1.053463-1.2014704c0.217659-0.2960148-0.0174141-0.7052126-0.3308372-0.8096867
			c-0.5397949-0.1741266-1.1057053-0.0957699-1.6542015-0.0522385c-0.6703873,0.0522385-1.3407726,0.1044769-2.0111599,0.1654196
			c-0.7226238,0.0609455-1.4452496,0.0261173-2.1678715,0.0435314c-0.4004917,0.008707-0.8009834,0.0261183-1.1927681,0.0696497
			c-0.0174122,0-0.0348244,0.008707-0.0522385,0.008707c-0.0174122-0.208952-0.0783558-0.4004917-0.1218872-0.6181498
			c-0.0609455,0.1480083-0.1218872,0.2960148-0.1741257,0.4353161c-0.4527283-0.6007357-0.7400379-0.6965055-0.8619251-0.2960138
			c-0.008707,0.0435314-0.0174122,0.0957699-0.0261192,0.1393013c-0.0348244,0.1567125-0.0522385,0.2960138-0.0957699,0.4440222
			c-0.1131821,0.3308392-0.1915398,0.6181498-0.208952,0.9751091C26.248909,13.3143139,26.2663231,14.2633018,26.9192963,14.3242474
			z"/>
		<path id="XMLID_16_" class="st7" d="M22.2614174,18.1550274c0.2960148-0.6094437,0.7487431-1.4626617,1.5671368-1.1318226
			c0.6007347,0.2350731,0.9838142,0.8967495,1.584549,1.1927662c0.9141636,0.4440231,2.2114048-0.3395443,2.3071728-1.3581848
			c0.0435314-0.4962616-0.7226238-0.5746174-0.85322-0.1131821c-0.0609436,0.2350731-0.2873077,0.4440231-0.4701405,0.5920296
			c-0.3221321,0.2698956-0.5659103,0.2263641-0.9054546-0.008707c-0.5223808-0.3569603-0.9228706-0.9054565-1.5584316-1.0795822
			c-1.0795822-0.2873077-2.3594112,0.740036-1.8892689,1.8805637C22.0785847,18.215971,22.2091789,18.2595043,22.2614174,18.1550274
			z"/>
		<path id="XMLID_15_" class="st7" d="M14.7652779,38.1969681c0.6268549,0.0435333,1.2450047,0.1044769,1.8718586,0.1567116
			c1.3320656,0.1131821,2.6815453,0.1393013,4.0223179,0.2002449c1.2972412,0.0609474,2.6293068,0.0522346,3.926548-0.0174141
			c0.6529732-0.0348282,1.3059483-0.0696487,1.9589214-0.0870628c0.635561-0.0087051,1.2188835-0.1480064,1.8370323-0.2437744
			c0.1393013-0.0174141,0.1044769-0.2437782-0.0348244-0.2350731c-0.7052116,0.0261192-1.3930111,0.1393013-2.1069279,0.1480103
			c-0.6790924,0.0087013-1.3668919,0.0522346-2.0459843,0.0870628c-1.3930111,0.0609436-2.8121414,0.0696487-4.1964455-0.0261192
			c-1.3843021-0.095768-2.7860203-0.0609436-4.1703253-0.1480064c-0.5920296-0.0348282-1.166646-0.0522385-1.7586756-0.121891
			c-0.2960157-0.0348282-0.6616802-0.0696487-0.9054575,0.1305923c-0.0696507,0.0609474,0.0348253,0.1654243,0.104476,0.1044769
			C13.6334572,37.7877693,14.356082,38.1708488,14.7652779,38.1969681z"/>
		<path id="XMLID_14_" class="st7" d="M35.9738655,35.5502472c-0.7661552,0-1.5236053-0.0087051-2.2897606,0
			c-0.8096848,0.0087013-1.6019592-0.0870628-2.4029427-0.1044769c-0.7661552-0.0174141-1.5148983-0.0435333-2.2810574-0.0870628
			c-0.7574501-0.0522385-1.5236053-0.0609474-2.2810535-0.1044769c-0.8183937-0.0522385-1.6541996-0.0522385-2.4813004-0.121891
			c-0.7400379-0.0609474-1.4626617,0-2.2026978-0.0435333c-0.8271008-0.0435295-1.6542015-0.1741257-2.4725933-0.3134232
			c-0.1480083-0.0261192-0.208952,0.2002411-0.0609455,0.2263603c0.7226257,0.1305962,1.4191303,0.2002449,2.1417561,0.2960167
			c0.6790924,0.095768,1.3494778-0.0261154,2.0285702,0.0348282c1.5410194,0.1392975,3.090744,0.1480064,4.6404667,0.2873077
			c0.740036,0.0696487,1.488781,0.1480064,2.237524,0.1480064s1.488781,0.095768,2.2375259,0.1131821
			c0.7748604,0.0174141,1.5584297-0.0087051,2.3332901-0.0087051c0.3743706,0,0.748745,0,1.1144066,0
			c0.3047218,0,0.8967514-0.0957642,1.1666489,0.0522385c0.1218872,0.0696487,0.2611885-0.1044769,0.1480064-0.2002449
			C37.1666298,35.3935318,36.4614182,35.5502472,35.9738655,35.5502472z"/>
		<path id="XMLID_13_" class="st7" d="M18.3261604,35.1845779c-1.1753521-0.3743706-2.5248308-0.2786026-3.7437153-0.2524834
			c-0.6181488,0.0087051-1.2275906,0.0783577-1.8370323,0.121891c-0.5746174,0.0435295-1.1231155-0.0870628-1.697732-0.0609474
			c-0.113183,0.0087051-0.113183,0.1828308,0,0.1741295c0.5484982-0.0087051,1.0534639,0.1480064,1.6019621,0.1392975
			c0.6181488-0.0087051,1.2275906-0.0870628,1.8370323-0.0870628c1.2885351-0.0087051,2.5335388,0.095768,3.8133659,0.1828308
			C18.4306374,35.4109459,18.4480495,35.2194061,18.3261604,35.1845779z"/>
		<path id="XMLID_12_" class="st7" d="M30.2189903,39.0676003c-0.6529732-0.0261192-1.3494797,0-2.0024529,0.0435295
			c-0.6877995,0.0435333-1.3668919,0.0696526-2.0546913,0.1393013c-1.3494797,0.1305923-2.7337837,0.2089539-4.0919685,0.2350693
			c-2.9166164,0.0522385-5.8332329,0-8.7498484,0.0609474c-0.1393013,0-0.1393013,0.2089539,0,0.2089539
			c2.9166155,0.0609436,5.8332319,0.1044769,8.7498484,0.0522346c1.3233585-0.0261192,2.6728382-0.095768,3.9874935-0.2263603
			c0.7139168-0.0696526,1.4365425-0.1044769,2.1504593-0.1741295c0.322134-0.0261154,0.6442661-0.0174103,0.9664021-0.0522346
			c0.3482513-0.0348282,0.6877975-0.1305923,1.0360508-0.1567116
			C30.2973461,39.1807823,30.2973461,39.0676003,30.2189903,39.0676003z"/>
		<path id="XMLID_11_" class="st7" d="M35.9390411,38.0054283c-0.426609-0.0696487-0.8532181,0.0348282-1.2885323,0.0261192
			c-0.4614372-0.0087051-0.9141655-0.0174141-1.3668938,0.0261154c-1.0534668,0.095768-2.1156349,0.0870628-3.1690998,0.0870628
			c-0.1915398,0-0.1915398,0.2960167,0,0.2960167c1.0273457,0,2.0459843,0.0174141,3.0646267-0.0696487
			c0.4353142-0.0348282,0.8532181-0.0435295,1.2885323-0.0348282c0.5049667,0.0087051,0.9489861-0.1305923,1.4452477-0.1654205
			C36.0086899,38.1708488,36.0435143,38.0228424,35.9390411,38.0054283z"/>
		<path id="XMLID_10_" class="st7" d="M37.6803055,32.0416031c-1.8370361-0.0957718-3.6653595-0.008709-5.511097-0.008709
			c-1.810915,0-3.6392403-0.1044769-5.4501553-0.2263641c-0.8706322-0.0609455-1.7499714-0.0696487-2.6293087-0.0696487
			c-0.844511,0-1.6629066-0.1131821-2.5074196-0.1044769c-0.9054565,0-1.802206,0.0348244-2.7076645-0.0261192
			c-0.426609-0.0261173-0.85322-0.0696487-1.271122-0.0435314c-0.4875546,0.0261173-0.957695,0.1305943-1.4539547,0.1305943
			c-0.4701414,0.008707-0.9315758-0.0174122-1.4017172,0.0522385c-0.4788475,0.0609455-0.9489889,0.1828346-1.4278364,0.208952
			c-0.4440222,0.0261173-0.8096876,0.0609455-1.2362967,0.1393032c-0.1741257,0.0348244-0.3569584-0.008709-0.531085,0.0174103
			c-0.1393013,0.0174141-0.2786016,0.1393051-0.4091969,0.1393051c-0.1654196,0.0087051-0.1654196,0.2524834,0,0.2611885
			c0.2437773,0.0087051,0.4179039-0.095768,0.6790934-0.0696487c0.3743715,0.0261154,0.740037-0.0783615,1.1231146-0.0522385
			c0.8358068,0.0435333,1.6542006-0.1567116,2.4900064-0.1393013c0.4353161,0.008709,0.8793383,0.0435333,1.3146544,0.008709
			c0.4527283-0.0348244,0.8880444-0.0957718,1.3407726-0.0696526c0.9315739,0.0522385,1.8457375,0.1044769,2.7773132,0.1044769
			c0.4353161,0,0.8706322-0.0174103,1.3059483,0.0174141c0.4091969,0.0261192,0.8009796,0.1131821,1.2101765,0.1131821
			c0.8793392,0,1.7673836-0.0261192,2.6467209-0.0348282c0.8793373,0,1.7499695,0.0696487,2.6293087,0.0609474
			c0.9315758-0.0174141,1.8631496-0.0870628,2.8034344-0.1131821c2.0721035-0.0522385,4.1355,0.095768,6.2076054-0.0174141
			C37.8631363,32.3114967,37.8631363,32.0503082,37.6803055,32.0416031z"/>
		<path id="XMLID_9_" class="st7" d="M37.2362823,24.2146225c-0.6965065-0.1044769-0.8096886,1.4104252-0.8358078,1.8196201
			c-0.0348244,0.4614334-0.0435295,0.957695,0.1393013,1.3930111c0.1741257,0.417902,0.2437744,0.8967495,0.5223808,1.2624149
			c0.1654167,0.226366,0.426609,0.5833244,0.7313271,0.635561c0.3569603,0.0609455,0.5485001-0.2524834,0.531086-0.5659103
			c-0.0087051-0.1305943-0.2002411-0.1654205-0.2350693-0.0348244c-0.1393013,0.5659103-0.5659103,0.0261173-0.7052116-0.1480083
			c-0.2089539-0.2611904-0.2524834-0.4962616-0.3482552-0.8009834c-0.0783539-0.2350712-0.2176552-0.4440231-0.2873077-0.6790905
			c-0.095768-0.3308392-0.0783539-0.7139206-0.0609436-1.0621719c0.0087051-0.2960148,0.0783577-1.7673817,0.6703873-1.5845509
			c0.3308372,0.0957699,0.5746193,0.8271008,0.6877975,1.1231136c0.0348244,0.0870628,0.1654205,0.0522385,0.1393013-0.0348244
			C38.0198517,25.120079,37.7412453,24.2842731,37.2362823,24.2146225z"/>
		<path id="XMLID_8_" class="st7" d="M37.096981,18.7905865c0.4527283,0.0261173,0.6703873-0.5049648,0.7661552-0.8619251
			c0.0609436-0.2263641,0.1218872-0.4875546,0.1131783-0.7226219c-0.0087051-0.3743706-0.2437744-0.6529751-0.304718-1.0099335
			c-0.0174141-0.0870647-0.1654205-0.0957699-0.1828346,0c-0.0609474,0.4091969,0.1741257,0.7835674,0.1131821,1.2014694
			c-0.0348244,0.2350731-0.1741295,1.1405277-0.5572052,1.0273457c-0.2437744-0.0696507-0.4004898-0.5659122-0.4353142-0.7835693
			c-0.0783577-0.4353161,0.0696487-0.8880463,0.0783539-1.3233604c0-0.1828346-0.2786026-0.1828346-0.2873077,0
			c-0.0174141,0.5833244-0.2176552,1.1318207-0.0087051,1.7064381
			C36.5049515,18.3378601,36.7226105,18.7644691,37.096981,18.7905865z"/>
		<path id="XMLID_7_" class="st7" d="M11.7093611,25.6250458c0.2437773-0.2350731,0.5049667-0.4527302,0.7922745-0.6268559
			c0.2263641-0.1393032,0.0261192-0.4788475-0.208951-0.3569603c-0.3047218,0.1654186-0.5746174,0.3743706-0.8358068,0.6007347
			c-0.2002449,0.1741276-0.531085,0.426609-0.531085,0.7139206c0,0.0609436,0.0522375,0.1218872,0.1218882,0.1218872
			C11.3088713,26.077774,11.5265284,25.7991714,11.7093611,25.6250458z"/>
		<path id="XMLID_6_" class="st7" d="M10.5253019,27.2879524c0.0609446,0.1654186,0.2263641,0.1828327,0.3656654,0.1218872
			c0.0609436-0.0261173,0.0696507-0.1218872,0.0348253-0.1741257c0.0174122-0.0174141,0.0261192-0.0348244,0.0435314-0.0522385
			c0.0870638-0.0870628,0.1828327-0.1654205,0.2786016-0.2350712c0.2873087-0.208952,0.5746174-0.4353161,0.85322-0.6616821
			c0.1741257-0.1480083-0.0696507-0.3743706-0.2437773-0.2437744c-0.2263641,0.1828327-0.4788475,0.3656654-0.7313309,0.5136719
			c-0.1393013,0.0870628-0.2873087,0.1828327-0.4091969,0.2873077
			C10.6036587,26.9571133,10.4643574,27.1225319,10.5253019,27.2879524z"/>
		<path id="XMLID_5_" class="st7" d="M11.805131,27.3140717c0.0087061-0.1131802-0.1654205-0.1915398-0.2350702-0.0957699
			c-0.208952,0.2698975-0.4527283,0.3656673-0.740037,0.5136738c-0.2698965,0.1480083-0.5746174,0.3308372-0.6007366,0.6703873
			c-0.0174122,0.200243,0.2437773,0.2786026,0.3743725,0.1567116c0.104475-0.1044769,0.1828318-0.2263641,0.3047209-0.313427
			c0.1218882-0.1044769,0.2698956-0.1741276,0.3917837-0.2698975C11.5178223,27.784214,11.7703056,27.6187935,11.805131,27.3140717z
			"/>
	</g>
</g>
</svg>
