<?xml version="1.0" encoding="utf-16"?>
<!-- Generator: Adobe Illustrator 19.0.0, SVG Export Plug-In . SVG Version: 6.00 Build 0)  -->
<svg version="1.1" id="Layer_1" xmlns="http://www.w3.org/2000/svg" xmlns:xlink="http://www.w3.org/1999/xlink" x="0px" y="0px"
	 viewBox="0 0 50 50" style="enable-background:new 0 0 50 50;" xml:space="preserve">
<style type="text/css">
	.st0{fill:#939598;}
	.st1{clip-path:url(#XMLID_16_);fill:#FAD307;}
	.st2{clip-path:url(#XMLID_16_);fill:#F1592F;}
	.st3{clip-path:url(#XMLID_16_);fill:#7EC359;}
	.st4{clip-path:url(#XMLID_16_);fill:#FFFFFC;}
	.st5{clip-path:url(#XMLID_16_);fill:#F1F3F7;}
</style>
<path id="XMLID_1_" class="st0" d="M45.71875,1C47.5280418,1,49,2.4719601,49,4.28125v41.4375
	C49,47.5280418,47.5280418,49,45.71875,49H4.28125C2.4719601,49,1,47.5280418,1,45.71875V4.28125C1,2.4719601,2.4719601,1,4.28125,1
	H45.71875 M45.71875,0H4.28125C1.91678,0,0,1.91678,0,4.28125v41.4375C0,48.0832214,1.91678,50,4.28125,50h41.4375
	C48.0832214,50,50,48.0832214,50,45.71875V4.28125C50,1.91678,48.0832214,0,45.71875,0L45.71875,0z"/>
<g id="XMLID_45_">
	<defs>
		<circle id="XMLID_2_" cx="25" cy="25" r="23.4666386"/>
	</defs>
	<use xlink:href="#XMLID_2_"  style="overflow:visible;fill:#939598;"/>
	<clipPath id="XMLID_16_">
		<use xlink:href="#XMLID_2_"  style="overflow:visible;"/>
	</clipPath>
	<rect id="XMLID_13_" x="2.1946838" y="24.0509796" class="st1" width="20.5751972" height="20.5751991"/>
	<rect id="XMLID_12_" x="27.2301197" y="24.0509796" class="st2" width="20.5751953" height="20.5751991"/>
	<rect id="XMLID_11_" x="14.7124033" y="1.5333623" class="st3" width="20.5751991" height="20.5751972"/>
	<path id="XMLID_20_" class="st4" d="M32.3019447,18.0078411L26.2589111,4.5189137
		c-0.2157764-0.5035858-0.7193623-0.7913942-1.259016-0.7913942s-1.0431347,0.323772-1.2590179,0.7913942l-6.0430298,13.4889278
		c-0.3237724,0.6834011,0,1.5107574,0.6834011,1.7985668c0.1798134,0.0719242,0.3597336,0.1078873,0.57551,0.1078873
		c0.5395489,0,1.0071735-0.2878075,1.2590179-0.7913952l1.4747963-3.2373972h6.6905708L29.8559399,19.1229
		c0.3237705,0.6834011,1.1150589,1.0071716,1.7985668,0.6834011C32.3019447,19.5185986,32.6257133,18.6913471,32.3019447,18.0078411
		z M22.8776646,13.1519041l2.1222324-4.7121925l2.1222305,4.7121925H22.8776646z"/>
	<path id="XMLID_8_" class="st5" d="M38.1651573,42.3599854c-4.4243851,0-8.0214119-3.5970268-8.0214119-8.0214119
		s3.5970268-8.0214081,8.0214119-8.0214081c2.5538902,0,4.963932,1.223053,6.4746895,3.2733593
		c0.4676208,0.611475,0.3237686,1.4747944-0.2878113,1.9064541c-0.6114769,0.4676228-1.4747963,0.3237724-1.906456-0.2878094
		c-1.0071716-1.3669071-2.553894-2.1581936-4.2805328-2.1581936c-2.9136276,0-5.2877045,2.3740768-5.2877045,5.2877045
		c0,2.9136238,2.3740768,5.2877007,5.2877045,5.2877007c1.4747963,0,2.9136276-0.6114731,3.8848343-1.7266388
		c0.5035858-0.5395508,1.366909-0.5755119,1.9424171-0.0719261c0.539547,0.5035858,0.5755119,1.3669052,0.0719261,1.9424171
		C42.5535774,41.4247437,40.3953857,42.3599854,38.1651573,42.3599854z"/>
	<path id="XMLID_15_" class="st4" d="M15.8993883,34.3385735c0.8992834-0.8633194,1.4388323-2.0862694,1.4388323-3.4172115
		c0-2.6258183-2.1581936-4.7841187-4.7841177-4.7841187H8.9930391c-0.7554321,0-1.3669062,0.611475-1.3669062,1.3669071v13.6688499
		c0,0.7554321,0.611474,1.3669052,1.3669062,1.3669052h3.5970268c2.6258173,0,4.7841177-2.1581917,4.7841177-4.7841148
		C17.3741817,36.4248466,16.7986717,35.2017937,15.8993883,34.3385735z M10.3599443,28.8709526h2.2302265
		c1.1150608,0,2.0503063,0.8992825,2.0503063,2.0503063c0,1.115057-0.8992844,2.0503063-2.0503063,2.0503063h-2.2302265V28.8709526z
		 M12.5901709,39.8060951h-2.2302265v-4.1006126h2.2302265c1.1150608,0,2.0503063,0.8992805,2.0503063,2.0503044
		C14.6404772,38.8708496,13.7052317,39.8060951,12.5901709,39.8060951z"/>
</g>
</svg>
