<?xml version="1.0" encoding="utf-16"?>
<!-- Generator: Adobe Illustrator 19.0.0, SVG Export Plug-In . SVG Version: 6.00 Build 0)  -->
<svg version="1.1" id="Layer_1" xmlns="http://www.w3.org/2000/svg" xmlns:xlink="http://www.w3.org/1999/xlink" x="0px" y="0px"
	 viewBox="0 0 50 50" style="enable-background:new 0 0 50 50;" xml:space="preserve">
<style type="text/css">
	.st0{fill:#939598;}
	.st1{clip-path:url(#XMLID_38_);}
	.st2{fill:#25BBB0;}
	.st3{fill:#49C0B9;}
	.st4{fill:#F15D63;}
	.st5{fill:#676767;}
	.st6{fill:#FBB426;}
	.st7{fill:#EC4D54;}
	.st8{fill:#FFFFFF;}
	.st9{fill:#EDF0F1;}
</style>
<path id="XMLID_1_" class="st0" d="M45.71875,1C47.5280418,1,49,2.4719601,49,4.28125v41.4375
	C49,47.5280418,47.5280418,49,45.71875,49H4.28125C2.4719601,49,1,47.5280418,1,45.71875V4.28125C1,2.4719601,2.4719601,1,4.28125,1
	H45.71875 M45.71875,0H4.28125C1.91678,0,0,1.91678,0,4.28125v41.4375C0,48.0832214,1.91678,50,4.28125,50h41.4375
	C48.0832214,50,50,48.0832214,50,45.71875V4.28125C50,1.91678,48.0832214,0,45.71875,0L45.71875,0z"/>
<g id="XMLID_45_">
	<defs>
		<circle id="XMLID_2_" cx="25" cy="25" r="23.4666386"/>
	</defs>
	<use xlink:href="#XMLID_2_"  style="overflow:visible;fill:#939598;"/>
	<clipPath id="XMLID_38_">
		<use xlink:href="#XMLID_2_"  style="overflow:visible;"/>
	</clipPath>
	<g id="XMLID_5_" class="st1">
		<path id="XMLID_36_" class="st2" d="M25.0785866,11.8638611c-0.0182743-0.2312145-0.0209312-0.4651737,0.0118408-0.6953583
			c1.3316898,0.1160784,2.6545448,0.3172655,3.9839191,0.4628572c0.4324017,0.04916,0.8689194,0.082448,1.2957439,0.1720171
			c0.0690632,0.6628418,0.0707817,1.3307467,0.1195107,1.99582c0.0474453,0.9024649,0.1327229,1.8039007,0.155201,2.7074804
			c0.019474,0.488081,0.1189079,0.9912624-0.0282269,1.4687042c-0.0844231,0.2900677-0.2404804,0.5792789-0.5037823,0.7418575
			c-0.4740963,0.2782307-1.07757,0.3598194-1.5982533,0.1675568c-0.3624783-0.1115322-0.6789703-0.3869305-0.8093777-0.7467499
			c-0.2010136-0.3961086-0.1027794-0.9086418,0.2089081-1.2195568c0.5522556-0.6076775,1.6399479-0.53055,2.130518,0.1187382
			c-0.0513897-1.0685616-0.0812454-2.1374664-0.1285172-3.2059422c-1.3944054-0.1304922-2.7906151-0.2512035-4.1855373-0.3785219
			c-0.0110664,0.2236643,0.0000858,0.4470711,0.0196476,0.6696205c0.0391216,0.6544352,0.0711231,1.3092985,0.1141911,1.9631338
			c0.0126114,0.4282818,0.0837364,0.8680611-0.0477009,1.2858753c-0.0742111,0.2938442-0.2745419,0.5370693-0.5030098,0.7271023
			c-0.2544651,0.1956978-0.5842552,0.2253819-0.8926849,0.2465725c-0.3703709,0.0293407-0.7459774-0.0730114-1.0592098-0.2686214
			c-0.3055115-0.2072773-0.5302906-0.5535412-0.540844-0.9280319c-0.0380917-0.4504166,0.2192898-0.9257145,0.6414795-1.1032219
			c0.5429039-0.2849207,1.315218-0.2097654,1.7068672,0.2948742c0.0266819-0.0090103,0.0542202-0.0176754,0.0821037-0.0242805
			C25.1935539,14.8317251,25.1426754,13.3471498,25.0785866,11.8638611L25.0785866,11.8638611z"/>
		<path id="XMLID_35_" class="st3" d="M25.0785027,11.8638611c-0.0181885-0.2312145-0.0207615-0.4651737,0.0121822-0.6953583
			c1.3316059,0.1160784,2.6543751,0.3173513,3.9837494,0.4629431c0.381094,0.0432405,0.7651081,0.0741253,1.1429424,0.1423321
			c0.0401516,0.5458202,0.0482178,1.0942993,0.0883675,1.6407204c0.0473595,0.9025507,0.1328106,1.8039856,0.155117,2.7075663
			c0.0198174,0.488081,0.1189957,0.9911747-0.028141,1.4687023c-0.0845051,0.2901554-0.2404804,0.579195-0.5036087,0.7418594
			c-0.4744396,0.2781448-1.0777416,0.3598194-1.5985947,0.1675549c-0.2729111-0.0841637-0.52034-0.2614994-0.6812897-0.4977741
			c-0.1206264-0.3714886-0.0122681-0.8074055,0.2648468-1.0839195c0.5523396-0.6075916,1.6400337-0.5302906,2.1306038,0.1187382
			c-0.0513916-1.0685616-0.0811634-2.1374655-0.1285191-3.2059412l-0.1684132-0.0157862l-0.0155296-0.3689137
			c-1.3944054-0.1304922-2.7906151-0.250947-4.1856194-0.3785219c-0.0110683,0.2236643,0.0001717,0.4471569,0.019474,0.6697063
			c0.0392933,0.6543493,0.071207,1.3092127,0.1143646,1.963048c0.0126972,0.4282818,0.0837345,0.8682327-0.0477028,1.2858772
			c-0.0741272,0.2940159-0.2745399,0.5373268-0.5030956,0.7273598c-0.2543774,0.1954384-0.5841694,0.2253799-0.8925972,0.2464848
			c-0.3701134,0.0293427-0.7459774-0.0730095-1.0592098-0.2687054c-0.1240578-0.0842495-0.2349892-0.1914063-0.3236141-0.3143482
			c-0.0196476-0.0745564-0.0310574-0.151083-0.033289-0.2290707c-0.0382633-0.4504166,0.2192898-0.9257145,0.6415672-1.1032219
			c0.5426464-0.2850065,1.3150482-0.2097654,1.7067833,0.2948742c0.0266819-0.0090103,0.0542202-0.0176754,0.0821037-0.0242805
			C25.1935539,14.831811,25.1425896,13.3472357,25.0785027,11.8638611L25.0785027,11.8638611z"/>
		<path id="XMLID_34_" class="st4" d="M24.5100327,26.0074806c-1.019659-0.8301392-2.0393181-1.6602802-3.1364479-1.8177128
			c-1.0975609-0.1576023-2.2725925,0.3575897-2.9553394,1.1946793c-0.6828327,0.836832-0.8732948,1.9955635-1.4220314,2.7008743
			s-1.4556637,0.9571171-2.777832,1.3062973c-1.3221684,0.3490944-3.0593204,0.7953072-4.4943933,2.02808
			c-1.4349012,1.2327709-2.567637,3.2518406-2.4072881,5.1528606c0.2810607,3.3288841,5.2063098,8.2543068,8.5352802,8.5351944
			c1.9010191,0.1604347,3.9201765-0.9723854,5.1527739-2.4072876c1.2327709-1.4349022,1.6790714-3.172226,2.02808-4.4943962
			c0.3491802-1.3219948,0.6009846-2.22892,1.3062973-2.7777443c0.7053108-0.5487366,1.8640404-0.7392006,2.7008724-1.4221191
			c0.8370895-0.6826591,1.3521938-1.8577766,1.1946774-2.9552498c-0.1529694-1.066246-0.9409847-2.0593071-1.7471066-3.0500546
			C26.4638996,27.9720726,24.5335388,26.0363083,24.5100327,26.0074806L24.5100327,26.0074806z"/>
		<path id="XMLID_33_" class="st5" d="M38.6864281,15.4685726l-1.7306328-1.7304602L24.3634968,25.862833
			c0.2238369,0.227869,1.7500229,1.7581711,2.1921158,2.2040424L38.6864281,15.4685726L38.6864281,15.4685726z"/>
		<path id="XMLID_32_" class="st6" d="M18.3624802,38.8197517l-4.7578669-4.7578659l-0.8649731,0.8651428l4.7576952,4.7576981
			L18.3624802,38.8197517z"/>
		<path id="XMLID_31_" class="st7" d="M38.6864281,15.4685726l-0.91362-0.9136181l-0.8170166-0.8168421l0.7910194-1.9597874
			l2.897686,2.9006014L38.6864281,15.4685726L38.6864281,15.4685726z"/>
		<path id="XMLID_30_" class="st4" d="M43.5758133,11.747611L40.676754,8.8485527l-2.9299431,2.9298582
			c0.2253799,0.2262383,2.4543037,2.4561901,2.897686,2.9006014L43.5758133,11.747611z"/>
		<path id="XMLID_29_" class="st7" d="M22.2816257,30.1427422c-1.0711365-1.0710506-2.8078594-1.0710506-3.8791656,0
			c-1.0710487,1.0713062-1.0709648,2.8081131,0,3.8791656c1.0713062,1.0710487,2.8078575,1.0710487,3.8791656,0
			C23.3526745,32.9506874,23.3526745,31.2140484,22.2816257,30.1427422z"/>
		<path id="XMLID_28_" class="st6" d="M16.7888489,38.9728088l-3.3372927-3.3371201l-0.5870867,0.5870018l3.3372917,3.3372078
			L16.7888489,38.9728088L16.7888489,38.9728088z"/>
		<path id="XMLID_27_" class="st8" d="M16.7888489,38.9728088l-3.3372927-3.3371201l0.1699581-0.1699562
			c0.0935144-0.0934296,0.2464857-0.0934296,0.3399153,0l2.9972057,2.9972038c0.0935154,0.0935173,0.0935154,0.2464867,0,0.3399162
			L16.7888489,38.9728088z"/>
		<path id="XMLID_26_" class="st7" d="M22.0381413,24.3652172c-1.074995-0.1232853-2.2114201,0.3870163-2.8783817,1.2044582
			c-0.6828327,0.8370914-0.8733807,1.9957352-1.4221172,2.7009602c-0.5487366,0.7053967-1.4556637,0.957201-2.7777462,1.3062096
			c-1.3220825,0.3491802-3.0594063,0.7955666-4.4943066,2.0281639c-1.4349012,1.2327709-2.5678082,3.2517567-2.4072876,5.1529484
			c0.251976,2.9865646,4.242074,7.2579803,7.463973,8.3077507c-3.3147287-0.5573158-7.9339514-5.272541-8.2056599-8.4932404
			c-0.081161-0.9623489,0.1690135-1.9549828,0.6219192-2.8605385c0.4420094-0.8832474,1.0769696-1.6837006,1.7853684-2.2923222
			c0.4746113-0.4077778,0.9821672-0.7292461,1.497015-0.989975c1.0416222-0.5272884,2.1125011-0.8044891,2.9973774-1.038105
			c1.3221674-0.3491802,2.2290945-0.6009865,2.7778311-1.3062954c0.5487366-0.7053108,0.7391987-1.8640423,1.4220314-2.7008743
			c0.6827469-0.8370914,1.8577785-1.3521957,2.9553394-1.1946793C21.5981045,24.221941,21.8194542,24.2822552,22.0381413,24.3652172
			L22.0381413,24.3652172z"/>
		<path id="XMLID_60_" class="st8" d="M16.2966499,37.9214058l22.1632805-22.6821613l-0.1997299-0.1938944L16.0967484,37.7275124
			L16.2966499,37.9214058z M14.6968527,36.3277016L14.6968527,36.3277016l-0.1938934-0.1998978l22.6821594-22.1632805
			l0.1938934,0.199728L14.6968527,36.3277016z M15.2873726,36.795536L15.2873726,36.795536l-0.1961241-0.1980972
			l22.4533463-22.2717247l0.1958694,0.1979265L15.2873726,36.795536z M15.8270149,37.3331184L15.8270149,37.3331184
			l-0.1980114-0.196125l22.2717228-22.4530907l0.1979256,0.1958675L15.8270149,37.3331184z"/>
		<path id="XMLID_21_" class="st9" d="M43.4319382,12.6656036l-3.7469597-3.7469578l-0.2504311,0.2505178l3.7468719,3.7468719
			L43.4319382,12.6656036L43.4319382,12.6656036z"/>
		<g id="XMLID_56_">
			<path id="XMLID_20_" class="st3" d="M43.645565,12.6209917l-0.1975861-0.197669
				c-0.0352631-0.0352612-0.0925713-0.0351753-0.1278305,0.0001717l-0.3641968,0.364109
				c-0.0351753,0.0352612-0.0352592,0.0927429-0.0003395,0.1278324l0.1976662,0.197669
				c0.0352631,0.0350895,0.0927429,0.0351753,0.128006,0l0.364193-0.3642807
				C43.6808243,12.7134771,43.6807404,12.6559954,43.645565,12.6209917z"/>
			<path id="XMLID_19_" class="st3" d="M39.9271736,8.9025173l-0.1976662-0.1975832
				C39.694416,8.669673,39.6371078,8.6698446,39.6016731,8.70502l-0.3641052,0.3642807
				c-0.0352631,0.0350895-0.0354347,0.0925713-0.0003433,0.1277466l0.1978416,0.197669
				c0.0350876,0.0350895,0.0926552,0.0351753,0.1279182,0l0.364193-0.3642807
				C39.9623489,8.9952602,39.9623489,8.9376926,39.9271736,8.9025173z"/>
		</g>
		<path id="XMLID_18_" class="st9" d="M42.5227814,13.5746746l-3.7468719-3.7467861l-0.2506027,0.2505178l3.7470436,3.7468719
			L42.5227814,13.5746746L42.5227814,13.5746746z"/>
		<g id="XMLID_52_">
			<path id="XMLID_17_" class="st3" d="M42.736496,13.5300627l-0.1978416-0.197669
				c-0.0350914-0.0350895-0.0925713-0.0350037-0.1278343,0.0003424l-0.3641052,0.3641949
				c-0.0352631,0.0350895-0.0354347,0.0925722-0.0001717,0.1278334l0.1976662,0.1974974
				c0.0350876,0.0352612,0.0927429,0.035347,0.1278305,0l0.3643684-0.364109
				C42.7715836,13.6228056,42.7714958,13.565237,42.736496,13.5300627L42.736496,13.5300627z"/>
			<path id="XMLID_16_" class="st3" d="M39.0181046,9.8117599l-0.1976662-0.1978407
				c-0.0352631-0.0350895-0.0926552-0.0350895-0.1278343,0.0003433l-0.3642807,0.3641081
				c-0.0350914,0.0352612-0.0351753,0.0927439-0.0000877,0.1277475l0.1975861,0.197669
				c0.0352592,0.0352612,0.0928268,0.0352612,0.1279182,0l0.3643646-0.364109
				C39.053196,9.9043312,39.0531082,9.8467636,39.0181046,9.8117599L39.0181046,9.8117599z"/>
		</g>
		<path id="XMLID_15_" class="st9" d="M41.6137123,14.4839172l-3.7470436-3.7468719l-0.2504349,0.250432l3.7468719,3.7468719
			L41.6137123,14.4839172L41.6137123,14.4839172z"/>
		<g id="XMLID_48_">
			<path id="XMLID_14_" class="st3" d="M41.8272514,14.4393053l-0.1975861-0.197669
				c-0.0352631-0.0352621-0.0925713-0.0351763-0.1278305,0.0000858l-0.3642807,0.3641949
				c-0.0350914,0.0351753-0.0351753,0.0927429-0.0001755,0.1278324l0.19767,0.197669
				c0.0352631,0.0350885,0.0927429,0.0351753,0.128006,0l0.364193-0.3642807
				C41.8625107,14.5317907,41.8624268,14.474309,41.8272514,14.4393053z"/>
			<path id="XMLID_13_" class="st3" d="M38.10886,10.7208309l-0.1976662-0.1975832
				c-0.0350914-0.0352612-0.0923996-0.0350895-0.1278305,0.0000858l-0.364109,0.3642797
				c-0.0352631,0.0350904-0.0352631,0.0925713-0.0003433,0.1277475l0.1978416,0.1976681
				c0.0350876,0.0350904,0.0926552,0.0352612,0.1279182,0l0.364193-0.3642797
				C38.1441231,10.8135738,38.1440353,10.7560921,38.10886,10.7208309z"/>
		</g>
		<g id="XMLID_39_">
			<path id="XMLID_12_" class="st6" d="M42.5866966,11.4481049c-0.1673813-0.1672983-0.4387474-0.1672983-0.6060448,0
				c-0.167469,0.1673832-0.167469,0.4388351,0,0.6060467c0.1673813,0.16747,0.4387512,0.16747,0.6060448,0
				C42.753994,11.8868542,42.753994,11.6154022,42.5866966,11.4481049z"/>
			<path id="XMLID_11_" class="st6" d="M41.0297966,9.8912907c-0.1672974-0.16747-0.4387474-0.16747-0.6060448,0
				c-0.1673012,0.1672974-0.1673012,0.4387493,0,0.6061325c0.1673813,0.1672125,0.4388351,0.1672125,0.6060448,0
				C41.1971817,10.33004,41.1971817,10.058588,41.0297966,9.8912907z"/>
			<path id="XMLID_10_" class="st6" d="M41.6774521,12.3573465c-0.1672096-0.167469-0.4385757-0.167469-0.6060448,0
				c-0.1673012,0.1672125-0.1673012,0.4385786,0,0.6060476c0.167469,0.1672974,0.4389191,0.1672974,0.6060448,0
				C41.8449249,12.7959251,41.8449249,12.5244732,41.6774521,12.3573465z"/>
			<path id="XMLID_9_" class="st6" d="M40.1207275,10.8003616c-0.167469-0.1672983-0.4387512-0.1672983-0.6060486,0
				c-0.167469,0.167469-0.167469,0.438921,0,0.6061325c0.1673813,0.1673841,0.4385796,0.1673841,0.6060486,0
				C40.2880249,11.2392826,40.2880249,10.9678307,40.1207275,10.8003616z"/>
			<path id="XMLID_8_" class="st6" d="M40.768383,13.2664185c-0.1673813-0.1672974-0.4388313-0.1672974-0.6060448,0
				c-0.167469,0.1673832-0.167469,0.4388351,0,0.6060476c0.1672974,0.1673832,0.4387512,0.1673832,0.6060448,0
				C40.9355965,13.7051678,40.9355965,13.4338017,40.768383,13.2664185z"/>
			<path id="XMLID_7_" class="st6" d="M39.211483,11.7096043c-0.1672974-0.16747-0.4385757-0.16747-0.6060448,0
				c-0.1673012,0.1672974-0.1673012,0.4387493,0,0.6061325c0.167469,0.1672125,0.4388351,0.1672125,0.6060448,0
				C39.378952,12.1483536,39.378952,11.8769016,39.211483,11.7096043z"/>
			<path id="XMLID_6_" class="st6" d="M25.4124126,20.0989494c-0.0058327-0.0738678-0.0066929-0.14851,0.0038624-0.2218628
				c0.4248505,0.0371475,0.8469563,0.1013222,1.2710342,0.1477356c0.1380424,0.0155296,0.2773724,0.0263405,0.4135265,0.0548229
				c0.021965,0.211483,0.0224781,0.4247665,0.0382652,0.6369343c0.0149288,0.2880077,0.0422974,0.5755043,0.0494175,0.8637714
				c0.0062618,0.1557999,0.0380058,0.3163204-0.0090103,0.468605c-0.0269394,0.0927429-0.07687,0.1849728-0.1607761,0.2368774
				c-0.1511688,0.0887108-0.3437748,0.114706-0.5099583,0.0534496c-0.1155643-0.0356045-0.216629-0.1236286-0.2581539-0.2384224
				c-0.0642586-0.1262016-0.0328598-0.2898121,0.0666618-0.3890743c0.176136-0.1938934,0.5233421-0.1692715,0.6796589,0.03792
				c-0.0163021-0.3409443-0.0259113-0.6818886-0.0409241-1.0230045c-0.4448395-0.0416946-0.8903656-0.0801315-1.3354664-0.1206264
				c-0.0035152,0.0713806,0.0000858,0.1425896,0.006176,0.213541c0.0126133,0.2088223,0.0226517,0.4176445,0.0364628,0.6262951
				c0.0039444,0.1368408,0.0265942,0.277113-0.0152721,0.4103508c-0.0236797,0.0938587-0.0876827,0.1714172-0.1605206,0.2320728
				c-0.0810757,0.0623722-0.1865177,0.0718098-0.28475,0.0785866c-0.1182232,0.0094376-0.2380772-0.0233345-0.3379421-0.0857925
				c-0.0974598-0.0661469-0.1692696-0.1765633-0.1725292-0.2959881c-0.01227-0.1437912,0.0697498-0.2953873,0.2047024-0.3520985
				c0.1731319-0.0908566,0.4196167-0.0668335,0.5446186,0.0940285c0.0084934-0.0027447,0.0171604-0.0055752,0.0261669-0.0075493
				C25.449131,21.0459423,25.432745,20.5723591,25.4124126,20.0989494L25.4124126,20.0989494z"/>
		</g>
	</g>
</g>
</svg>
