<?xml version="1.0" encoding="utf-16"?>
<!-- Generator: Adobe Illustrator 19.0.0, SVG Export Plug-In . SVG Version: 6.00 Build 0)  -->
<svg version="1.1" id="Layer_1" xmlns="http://www.w3.org/2000/svg" xmlns:xlink="http://www.w3.org/1999/xlink" x="0px" y="0px"
	 viewBox="0 0 50 50" style="enable-background:new 0 0 50 50;" xml:space="preserve">
<style type="text/css">
	.st0{fill:#939598;}
	.st1{clip-path:url(#XMLID_26_);fill:#E0E1E3;}
	.st2{clip-path:url(#XMLID_26_);fill:#FFFFFF;}
	.st3{clip-path:url(#XMLID_26_);fill:#F4A31E;}
	.st4{clip-path:url(#XMLID_26_);fill:#EC4D54;}
	.st5{clip-path:url(#XMLID_26_);fill:#25BBB0;}
	.st6{clip-path:url(#XMLID_26_);fill:#0C6673;}
	.st7{clip-path:url(#XMLID_26_);fill:#49C0B9;}
	.st8{clip-path:url(#XMLID_26_);fill:#F15D63;}
	.st9{clip-path:url(#XMLID_26_);fill:#137886;}
	.st10{clip-path:url(#XMLID_26_);fill:#FBB426;}
	.st11{clip-path:url(#XMLID_26_);fill:#FDB91F;}
</style>
<path id="XMLID_1_" class="st0" d="M45.71875,1C47.5280418,1,49,2.4719601,49,4.28125v41.4375
	C49,47.5280418,47.5280418,49,45.71875,49H4.28125C2.4719601,49,1,47.5280418,1,45.71875V4.28125C1,2.4719601,2.4719601,1,4.28125,1
	H45.71875 M45.71875,0H4.28125C1.91678,0,0,1.91678,0,4.28125v41.4375C0,48.0832214,1.91678,50,4.28125,50h41.4375
	C48.0832214,50,50,48.0832214,50,45.71875V4.28125C50,1.91678,48.0832214,0,45.71875,0L45.71875,0z"/>
<g id="XMLID_45_">
	<defs>
		<circle id="XMLID_2_" cx="25" cy="25" r="23.4666386"/>
	</defs>
	<use xlink:href="#XMLID_2_"  style="overflow:visible;fill:#939598;"/>
	<clipPath id="XMLID_26_">
		<use xlink:href="#XMLID_2_"  style="overflow:visible;"/>
	</clipPath>
	<path id="XMLID_24_" class="st1" d="M43.8254395,31.2710094c-0.5507889,6.2688885-7.5363045,10.204134-18.2064037,10.204134
		c-10.6696348,0-19.2329979-4.6828728-19.1259022-10.4596214c0.1062603-5.7317371,8.7095299-10.3859329,19.2673359-10.4574852
		c1.940897-0.1466293,10.3730335,1.0124893,6.6717472,3.5628242c-6.7759666,4.6687641,2.3176765,7.085001,4.4239464,4.1749573
		C39.7773438,24.260622,44.207325,26.9238071,43.8254395,31.2710094z"/>
	<path id="XMLID_23_" class="st2" d="M43.6355629,30.6833763c-0.434227,6.0721436-7.3472672,9.8844223-18.0169945,9.8844223
		c-10.6700993,0-19.3200493-4.5358696-19.3200493-10.1321144c0-5.5526295,8.5170536-10.0605659,19.0735626-10.129982
		c1.9382954-0.1422691,10.3918724,0.9807472,6.7377281,3.4513664c-6.6893787,4.5226002,2.4488106,6.8629227,4.5011635,4.044199
		c2.8461952-3.9087982,7.3258286-1.3292274,7.0244942,2.8817387v0.00037H43.6355629z"/>
	<path id="XMLID_22_" class="st3" d="M22.5083485,22.0090179c0,0-2.5688038,0.0270061-2.6052761,0.5494919
		c-0.0360069,0.5224838-1.9717064,0.5092125-1.0673351,1.2194405c0.9044647,0.7102261,1.9897099,0.0672817,3.2923946,0.2010117
		c1.3025913,0.1341934,2.5508022-0.6434078,2.1165733-1.1123428C23.8105717,22.3974037,23.5032978,21.8881874,22.5083485,22.0090179
		z"/>
	<path id="XMLID_21_" class="st4" d="M14.9879131,26.1085281c1.6742706,0.1800385,1.7261486,0.6347771,1.92976,0.9301701
		c0.2036114,0.2953014-1.0822763,1.0467319-2.0651598,1.2966518s-1.1573544-0.3681526-2.6151142-0.0042686
		C9.1862936,29.0918846,10.4438763,25.6199169,14.9879131,26.1085281z"/>
	<path id="XMLID_20_" class="st5" d="M14.2891951,31.9131165c0,0-3.3536453-0.9421444-4.2465086,0.017168
		c-0.8923988,0.9593105-1.1247797,1.3827724,0.0929899,1.7497196c1.2182331,0.3669472,3.4560995-0.1255646,4.2414045,0.0064049
		c0.785305,0.1320572,1.3660698-1.1118813-0.0882568-1.7732925H14.2891951z"/>
	<path id="XMLID_19_" class="st3" d="M16.9793873,36.2630081c-1.2991581,0.8157463-0.0720158,1.6489372,1.7364483,2.0368538
		c1.808836,0.3879204,1.9340267-0.3703766,2.9108791-0.7342606c0.9768505-0.3638802,2.732975-1.4972,1.2498798-1.739418
		c-1.4830952-0.2425919-1.7098141-0.9421463-2.7548771-0.7398338c-2.1903515,0.4239273-1.5670815,0.1877441-3.1423302,1.1761932
		V36.2630081z"/>
	<path id="XMLID_18_" class="st6" d="M28.690649,37.2570305c-0.1096935,0.9014015,2.0428867,1.1359138,3.0318031,1.1877937
		c0.9892864,0.0514107,2.6828594-0.716259,3.396986-1.1028786c0.7144966-0.386158,1.0720673-1.5713539-0.0823174-1.7256851
		c-1.1539192-0.1543312-1.1812973,0.2062073-2.0060425-0.2319145c-0.8242798-0.4380341-1.5387764-0.386158-2.3082142,0.1543312
		c-0.7694359,0.5409546-2.0047417,0.971283-2.0325851,1.7184448h0.00037V37.2570305z"/>
	<path id="XMLID_17_" class="st4" d="M39.0769539,30.3658028c-0.5589561,0.1350288-1.3073235,0.4774742-1.9618683,0.9442768
		c-0.6549187,0.4671726-0.6039658,0.7707348-0.7544022,1.2678814c-0.150898,0.497242,1.6601639,1.044136,2.9275818,0.7458611
		c1.2678833-0.2983627,3.3202362-2.0381527,2.3240814-2.3365173C40.6161957,30.6889458,40.6161957,30.0176964,39.0769539,30.3658028
		z"/>
	<path id="XMLID_16_" class="st5" d="M31.3010292,27.9988461l-0.8358803-0.9580116l-3.3472424,2.9194164l0.8358822,0.9580116
		L31.3010292,27.9988461z"/>
	<path id="XMLID_15_" class="st7" d="M31.0361671,27.6953754l-0.3064365-0.3514462l-3.3472424,2.9194183l0.3069038,0.3514462
		L31.0361671,27.6953754z"/>
	<path id="XMLID_14_" class="st4" d="M27.1175365,29.9602489c0,0-1.467226-0.5537605-2.5868092,1.1946602
		c-1.1200466,1.7479572-2.161581,1.3986454-3.1801014,1.5053692c0,0,6.9199047,2.0891953,6.6031647-1.7423897l-0.8362522-0.9580116
		v0.0003719H27.1175365z"/>
	<path id="XMLID_13_" class="st8" d="M22.2194519,32.7635689c1.421381-0.2001801,1.9361629-0.588562,2.2812061-1.2305775
		c0.5820637-1.0832043,1.5924187-1.7857285,2.6275501-1.3493652l0.6527805,0.8045139
		C27.6417828,34.0178108,22.2194519,32.7635689,22.2194519,32.7635689z"/>
	<path id="XMLID_12_" class="st9" d="M34.5587158,25.6919327c-1.7561226,1.2901573-3.2589855,2.3056126-3.2589855,2.3056126
		l-0.8345852-0.9571762c0,0,1.2104378-1.3506641,2.7270355-2.9156113l1.3669052,1.5667114L34.5587158,25.6919327z"/>
	<path id="XMLID_11_" class="st10" d="M33.1918144,24.1252213c1.0544357-1.0878448,2.2563324-2.2790718,3.3030663-3.1920738
		c2.5504265-2.2245979,11.957283-9.7777004,12.4836655-9.19944V11.733243
		c0.0004654,0.0004644,0.0004654,0.0004644,0.0004654,0.0008354c0,0.0004644,0.0004654,0.0004644,0.0008354,0.0004644
		l-0.0004654,0.0004635c0.500679,0.5996971-8.2594299,8.893837-10.809864,11.1184349
		c-1.04673,0.913002-2.3900642,1.942194-3.6108932,2.8388615l-1.3669052-1.5667114v-0.00037H33.1918144z"/>
	<path id="XMLID_10_" class="st11" d="M22.4723415,21.9091625c0,0-2.5688038,0.0270061-2.6052761,0.5494919
		c-0.0360088,0.5224838-1.9717064,0.5092125-1.067337,1.2199039c0.9044647,0.7102261,1.9897118,0.0669098,3.2923965,0.2010117
		c1.3025913,0.1337299,2.5504284-0.6434059,2.1165714-1.1123428c-0.4342289-0.4689369-0.7415009-0.9786148-1.7364483-0.8576908
		v-0.0003738H22.4723415z"/>
	<path id="XMLID_9_" class="st8" d="M14.9514408,26.0086708c1.6742706,0.1800385,1.7261486,0.6347771,1.92976,0.9301701
		c0.203146,0.2953014-1.0822763,1.0467339-2.0651598,1.2966537c-0.9832554,0.249918-1.1573544-0.3681545-2.6151142-0.0042686
		C9.1498222,28.9919357,10.4074965,25.5204315,14.9514408,26.0086708z"/>
	<path id="XMLID_8_" class="st7" d="M14.2528152,31.8137245c0,0-3.3536453-0.9421425-4.2461376,0.017168
		c-0.8923998,0.9593105-1.1247807,1.3827724,0.092989,1.7497196c1.2182331,0.3669472,3.4565649-0.1255608,4.2414055,0.0064049
		C15.1263771,33.7194481,15.7067709,32.4751358,14.2528152,31.8137245z"/>
	<path id="XMLID_7_" class="st11" d="M16.942915,36.1631546c-1.2991581,0.8157425-0.0724812,1.6489334,1.7364483,2.0368538
		c1.8089294,0.3879166,1.9340267-0.3703804,2.9108791-0.733799c0.9768505-0.363884,2.732975-1.4972038,1.2498798-1.7394218
		c-1.4835606-0.242588-1.7098141-0.9421425-2.7548771-0.73983C17.8949871,35.4108849,18.5177917,35.1747017,16.942915,36.1631546z"
		/>
	<path id="XMLID_6_" class="st9" d="M28.6541767,37.1575432c-0.1101589,0.9018669,2.0424232,1.1359177,3.0318031,1.1877975
		c0.9892864,0.0514107,2.6828594-0.716259,3.396986-1.102417c0.7144966-0.3862457,1.0716019-1.5713501-0.0823174-1.7256813
		c-1.1542892-0.154705-1.1817627,0.2062073-2.0060425-0.2319183c-0.8242798-0.4380341-1.5387764-0.3861542-2.3082142,0.154705
		c-0.7694359,0.5408592-2.0052071,0.971283-2.0325851,1.7179794L28.6541767,37.1575432z"/>
	<path id="XMLID_5_" class="st8" d="M39.040947,30.265852c-0.5589561,0.1350269-1.3069534,0.4774723-1.9618721,0.9447403
		c-0.6549149,0.4671726-0.6039658,0.7702675-0.7548637,1.2678814c-0.150898,0.497242,1.6600723,1.044136,2.9280472,0.7458611
		c1.2675133-0.2983627,3.3202362-2.0381527,2.3240814-2.3369808C40.5801888,30.5890865,40.5801888,29.9178371,39.040947,30.265852z"
		/>
</g>
</svg>
