<?xml version="1.0" encoding="utf-8"?>
<!-- Generator: Adobe Illustrator 19.0.0, SVG Export Plug-In . SVG Version: 6.00 Build 0)  -->
<svg version="1.1" id="Layer_1" xmlns="http://www.w3.org/2000/svg" xmlns:xlink="http://www.w3.org/1999/xlink" x="0px" y="0px"
	 viewBox="-434 436 130 130" style="enable-background:new -434 436 130 130;" xml:space="preserve">
<style type="text/css">
	.st0{fill:#939598;}
	.st1{fill:#FFFFFF;}
	.st2{fill:#15BDB1;}
	.st3{fill:#ECF0F1;}
	.st4{fill:#FF5B61;}
	.st5{fill:#C8CACC;}
	.st6{fill:#20D0C2;}
	.st7{fill:#666666;}
	.st8{fill:#FBB429;}
</style>
<path id="XMLID_1_" class="st0" d="M-315.2,438.6c4.7,0,8.6,3.9,8.6,8.6v107.6c0,4.7-3.9,8.6-8.6,8.6h-107.6c-4.7,0-8.6-3.9-8.6-8.6
	V447.2c0-4.7,3.9-8.6,8.6-8.6H-315.2 M-315.2,436h-107.6c-6.3,0-11.2,4.9-11.2,11.2v107.6c0,6.2,4.9,11.2,11.2,11.2h107.6
	c6.3,0,11.2-4.9,11.2-11.2V447.2C-304,440.9-308.9,436-315.2,436L-315.2,436z"/>
<path class="st0" d="M-369.5,440.9c33.3,0,60.3,27,60.3,60.3s-27,60.3-60.3,60.3s-60.3-27-60.3-60.3S-402.8,440.9-369.5,440.9z"/>
<path class="st1" d="M-401.639,491.278h13.707v36.95c0,3.746-3.065,6.896-6.896,6.896c-3.831,0-6.811-3.15-6.811-6.896V491.278
	L-401.639,491.278z"/>
<path class="st2" d="M-399.425,507.369v21.029c0,2.639,2.214,4.853,4.853,4.853c2.639,0,4.853-2.128,4.853-4.853v-21.029H-399.425
	L-399.425,507.369z"/>
<path class="st1" d="M-402.32,489.661h15.069c0.851,0,1.788,0.681,1.788,1.788l0,0c0,0.851-0.681,1.788-1.788,1.788h-15.069
	c-0.851,0-1.788-0.681-1.788-1.788l0,0C-404.108,490.342-403.171,489.661-402.32,489.661z"/>
<path class="st3" d="M-385.463,491.278L-385.463,491.278c0,0.851-0.681,1.788-1.788,1.788h-15.069c-0.851,0-1.788-0.681-1.788-1.788
	l0,0H-385.463z"/>
<g>
	<path class="st1" d="M-366.647,470.249v28.521l20.348,37.375c3.065,5.534-0.681,8.854-6.896,8.854h-21.029h-21.029
		c-6.385,0-9.961-3.32-6.896-8.854l20.348-37.375v-28.521H-366.647L-366.647,470.249z"/>
	<path class="st1" d="M-325.952,477.741v35.162h-23.498v-35.162C-352.514,477.741-324.419,477.741-325.952,477.741z"/>
</g>
<path class="st4" d="M-338.552,477.741V458.67h-9.961c-0.426,0-0.681-0.255-0.681-0.681v-4.427h-2.639v11.919
	c0,0.426-0.255,0.681-0.681,0.681h-4.172c-0.426,0-0.681-0.255-0.681-0.681v-6.215h-15.75v10.812h-1.277v-11.494
	c0-0.426,0.255-0.681,0.681-0.681h17.198c0.426,0,0.681,0.255,0.681,0.681v6.215h2.895v-11.919c0-0.426,0.255-0.681,0.681-0.681
	h4.172c0.426,0,0.681,0.255,0.681,0.681v4.427h9.961c0.426,0,0.681,0.255,0.681,0.681v19.667L-338.552,477.741L-338.552,477.741z"/>
<g>
	<path class="st5" d="M-337.275,482.424c0,0.426-0.255,0.681-0.681,0.681s-0.681-0.255-0.681-0.681v-4.683h1.362V482.424
		L-337.275,482.424z"/>
	<path class="st5" d="M-373.543,470.249v9.706c0,0.426-0.255,0.681-0.681,0.681s-0.681-0.255-0.681-0.681v-9.706H-373.543z"/>
</g>
<path class="st4" d="M-383.93,509.583l-15.75,28.095c-0.426,0.681-1.107,2.469-0.426,3.065c0.681,1.447,3.576,1.618,4.683,1.618
	h42.058c1.362,0,4.001-0.255,4.683-1.533c0.426-0.851-0.255-2.469-0.426-3.065l-15.75-28.095
	C-372.692,507.88-376.012,512.052-383.93,509.583L-383.93,509.583z"/>
<path class="st1" d="M-349.45,475.102h-1.362v2.895h26.308v-2.895h-1.362H-349.45L-349.45,475.102z"/>
<path class="st6" d="M-346.981,487.021c13.026-2.214,12.856,2.895,18.56,0v23.924h-18.56V487.021z"/>
<g>
	<path class="st7" d="M-346.981,478.848h2.469v0.851h-2.469V478.848z M-346.981,510.264L-346.981,510.264h1.107v0.851h-1.107
		V510.264z M-346.981,508.306L-346.981,508.306h2.469v0.851h-2.469V508.306z M-346.981,506.518L-346.981,506.518h1.107v0.851h-1.107
		V506.518z M-346.981,504.73L-346.981,504.73h2.469v0.851h-2.469V504.73z M-346.981,502.772L-346.981,502.772h1.107v0.851h-1.107
		V502.772z M-346.981,500.984L-346.981,500.984h2.469v0.851h-2.469V500.984z M-346.981,499.196L-346.981,499.196h1.107v0.851h-1.107
		V499.196z M-346.981,497.238L-346.981,497.238h2.469v0.851h-2.469V497.238z M-346.981,495.45L-346.981,495.45h1.107v0.851h-1.107
		V495.45z M-346.981,493.662L-346.981,493.662h2.469v0.851h-2.469V493.662z M-346.981,491.704L-346.981,491.704h1.107v0.851h-1.107
		V491.704z M-346.981,489.916L-346.981,489.916h2.469v0.851h-2.469V489.916z M-346.981,487.958L-346.981,487.958h1.107v0.851h-1.107
		V487.958z M-346.981,486.17L-346.981,486.17h2.469v0.851h-2.469V486.17z M-346.981,484.382L-346.981,484.382h1.107v0.851h-1.107
		V484.382z M-346.981,482.424L-346.981,482.424h2.469v0.851h-2.469V482.424z M-346.981,480.636L-346.981,480.636h1.107v0.851h-1.107
		V480.636z"/>
	<path class="st7" d="M-399.425,496.557h2.469v0.851h-2.469V496.557z M-399.425,527.972L-399.425,527.972h1.107v0.851h-1.107
		C-399.425,528.824-399.425,527.972-399.425,527.972z M-399.425,526.185L-399.425,526.185h2.469v0.851h-2.469V526.185z
		 M-399.425,524.226L-399.425,524.226h1.107v0.851h-1.107C-399.425,525.078-399.425,524.226-399.425,524.226z M-399.425,522.439
		L-399.425,522.439h2.469v0.851h-2.469V522.439z M-399.425,520.651L-399.425,520.651h1.107v0.851h-1.107
		C-399.425,521.502-399.425,520.651-399.425,520.651z M-399.425,518.693L-399.425,518.693h2.469v0.851h-2.469V518.693z
		 M-399.425,516.905L-399.425,516.905h1.107v0.851h-1.107C-399.425,517.756-399.425,516.905-399.425,516.905z M-399.425,515.117
		L-399.425,515.117h2.469v0.851h-2.469V515.117z M-399.425,513.159L-399.425,513.159h1.107v0.851h-1.107
		C-399.425,514.01-399.425,513.159-399.425,513.159z M-399.425,511.371L-399.425,511.371h2.469v0.851h-2.469V511.371z
		 M-399.425,509.583L-399.425,509.583h1.107v0.851h-1.107C-399.425,510.434-399.425,509.583-399.425,509.583z M-399.425,507.625
		L-399.425,507.625h2.469v0.851h-2.469V507.625z M-399.425,505.837L-399.425,505.837h1.107v0.851h-1.107
		C-399.425,506.688-399.425,505.837-399.425,505.837z M-399.425,503.879L-399.425,503.879h2.469v0.851h-2.469V503.879z
		 M-399.425,502.091L-399.425,502.091h1.107v0.851h-1.107C-399.425,502.942-399.425,502.091-399.425,502.091z M-399.425,500.303
		L-399.425,500.303h2.469v0.851h-2.469V500.303z M-399.425,498.345L-399.425,498.345h1.107v0.851h-1.107
		C-399.425,499.196-399.425,498.345-399.425,498.345z"/>
</g>
<path class="st6" d="M-403.171,472.207c1.362,0,2.639,1.107,2.639,2.639c0,1.532-1.107,2.639-2.639,2.639s-2.724-1.107-2.724-2.639
	C-405.896,473.314-404.789,472.207-403.171,472.207z"/>
<path class="st4" d="M-398.744,481.743c0.851,0,1.532,0.681,1.532,1.532s-0.681,1.532-1.532,1.532s-1.532-0.681-1.532-1.532
	S-399.681,481.743-398.744,481.743z"/>
<g>
	<path class="st1" d="M-399.425,464.715c1.107,0,1.788,0.851,1.788,1.788c0,0.851-0.851,1.788-1.788,1.788s-1.788-0.851-1.788-1.788
		C-401.213,465.567-400.532,464.715-399.425,464.715z"/>
	<path class="st1" d="M-393.891,484.382c0.681,0,1.107,0.426,1.107,1.107c0,0.681-0.426,1.107-1.107,1.107
		c-0.681,0-1.107-0.426-1.107-1.107C-394.998,484.808-394.572,484.382-393.891,484.382z"/>
</g>
<path class="st8" d="M-393.466,475.102c1.107,0,2.214,0.851,2.214,2.214c0,1.107-0.851,2.214-2.214,2.214
	c-1.107,0-2.214-0.937-2.214-2.214C-395.679,475.953-394.572,475.102-393.466,475.102z"/>
<g>
	<path class="st1" d="M-377.971,520.225c1.362,0,2.214,1.107,2.214,2.214s-1.107,2.214-2.214,2.214s-2.214-1.107-2.214-2.214
		C-380.184,521.161-379.077,520.225-377.971,520.225z"/>
	<path class="st1" d="M-388.187,530.867c0.851,0,1.532,0.681,1.532,1.532s-0.681,1.532-1.532,1.532s-1.532-0.681-1.532-1.532
		S-389.039,530.867-388.187,530.867z"/>
	<path class="st1" d="M-362.901,521.587c0.851,0,1.788,0.681,1.788,1.788c0,0.851-0.681,1.788-1.788,1.788
		c-0.851,0-1.788-0.681-1.788-1.788S-363.838,521.587-362.901,521.587z"/>
	<path class="st1" d="M-373.118,512.052c0.681,0,1.107,0.426,1.107,1.362c0,0.681-0.426,1.107-1.107,1.107s-1.277-0.511-1.277-1.107
		C-374.225,512.733-373.799,512.052-373.118,512.052z"/>
	<path class="st1" d="M-358.9,535.039c0.851,0,1.532,0.681,1.532,1.532s-0.681,1.532-1.532,1.532s-1.532-0.681-1.532-1.532
		C-360.262,535.72-359.581,535.039-358.9,535.039z"/>
	<path class="st1" d="M-382.398,538.615c0.426,0,0.851,0.426,0.851,0.851c0,0.426-0.426,0.851-0.851,0.851s-0.851-0.426-0.851-0.851
		C-383.249,539.04-382.823,538.615-382.398,538.615z"/>
	<path class="st1" d="M-370.649,530.016c1.362,0,2.469,1.107,2.469,2.469c0,1.362-1.107,2.469-2.469,2.469
		c-1.362,0-2.469-1.107-2.469-2.469C-373.118,531.123-372.011,530.016-370.649,530.016z"/>
</g>
<path class="st6" d="M-374.395,483.02c0.681,0,1.107,0.426,1.107,1.107c0,0.681-0.511,1.107-1.107,1.107
	c-0.596,0-1.107-0.426-1.107-1.107C-375.502,483.445-375.076,483.02-374.395,483.02z"/>
<path class="st4" d="M-375.331,489.065c1.107,0,1.958,0.851,1.958,1.958c0,1.107-0.851,1.958-1.958,1.958
	c-1.107,0-1.958-0.851-1.958-1.958C-377.29,489.916-376.438,489.065-375.331,489.065z"/>
<path class="st1" d="M-381.972,466.248h-3.32c-2.639,0-2.639,4.001,0,4.001h3.32h15.24h3.406c2.639,0,2.639-4.001,0-4.001h-3.32
	H-381.972z"/>
<g>
	<path class="st3" d="M-381.972,470.249h-3.32c-1.107,0-1.958-0.851-1.958-1.958l0,0h25.882l0,0c0,1.107-0.851,1.958-1.958,1.958
		h-3.32H-381.972z"/>
	<path class="st3" d="M-349.45,477.741h-1.362v-1.362h26.308v1.362h-1.362H-349.45L-349.45,477.741z"/>
</g>
<path class="st8" d="M-371.585,496.301c0.681,0,1.362,0.681,1.362,1.362c0,0.681-0.681,1.362-1.362,1.362s-1.362-0.681-1.362-1.362
	C-372.948,496.982-372.181,496.301-371.585,496.301z"/>
<path class="st3" d="M-376.183,501.239c1.533,0,2.895,1.362,2.895,2.895c0,1.533-1.362,2.895-2.895,2.895
	c-1.532,0-2.895-1.362-2.895-2.895C-379.077,502.601-377.715,501.239-376.183,501.239z"/>
<path class="st6" d="M-369.797,504.73c0.426,0,0.681,0.255,0.681,0.681s-0.255,0.681-0.681,0.681s-0.681-0.255-0.681-0.681
	S-370.223,504.73-369.797,504.73z"/>
<g>
	<path class="st1" d="M-382.653,520.225c0.426,0,0.851,0.426,0.851,0.851c0,0.426-0.426,0.851-0.851,0.851
		c-0.426,0-0.851-0.426-0.851-0.851C-383.505,520.48-383.079,520.225-382.653,520.225z"/>
	<path class="st1" d="M-400.362,475.783c0.681,0,1.107,0.426,1.107,1.107c0,0.681-0.426,1.107-1.107,1.107
		c-0.681,0-1.107-0.426-1.107-1.107C-401.469,476.209-400.788,475.783-400.362,475.783z"/>
</g>
</svg>
