<?xml version="1.0" encoding="utf-8"?>
<!-- Generator: Adobe Illustrator 16.0.0, SVG Export Plug-In . SVG Version: 6.00 Build 0)  -->
<!DOCTYPE svg PUBLIC "-//W3C//DTD SVG 1.1//EN" "http://www.w3.org/Graphics/SVG/1.1/DTD/svg11.dtd">
<svg version="1.1" id="Layer_2" xmlns="http://www.w3.org/2000/svg" xmlns:xlink="http://www.w3.org/1999/xlink" x="0px" y="0px"
	 width="512px" height="512px" viewBox="0 0 512 512" enable-background="new 0 0 512 512" xml:space="preserve">
<path fill="#D66F00" d="M427.642,294.41c-5.335-80.893-5.335-170.673-5.335-197.341c0-26.667-8.888-56.447-46.668-56.447
	c-37.779,0-37.335,44.002-37.335,44.002s0,56.001,0,70.668c-11.558-5.333-35.111-5.333-44.445,3.112
	c-24.889-34.667-63.113-15.556-63.113-15.556l-3.557-97.337c0,0,3.112-45.114-46.668-45.114c-49.779,0-48.001,48.669-48.001,48.669
	s0,121.783,0,143.117c-15.11-0.444-48.446,34.668-49.779,78.225c-1.333,43.556,15.556,67.114,43.557,113.782
	c28.001,46.669,43.863,50.078,43.863,50.078h0.001c-3.622,3.619-5.863,8.621-5.863,14.146v44.001
	c0,11.047,8.955,20.001,20.001,20.001h190.673c11.046,0,20.001-8.954,20.001-20.001v-44.001c0-6.524-3.141-12.303-7.975-15.953
	c4.593-2.901,10.273-7.209,17.086-13.604C425.862,398.413,432.975,375.302,427.642,294.41z M292.636,194.406
	c0-25.334,26.667-25.667,26.667-25.667c29.002,0,25.668,24.334,25.668,24.334s0,54.335,0,63.336s-4.333,35.001-30.001,34.334
	c-25.668-0.666-26.001-17.667-26.334-25.667C288.302,257.075,292.636,219.74,292.636,194.406z M251.42,155.071
	c15.451,0.333,24.882,4.333,27.882,17.334c3,13,1.334,35.001,0,52.334c-1.667-27.334-13.001-39.001-25.001-37.334
	s-32.445,3-32.445,3C221.41,160.07,235.967,154.738,251.42,155.071z M278.969,236.741c0,0,4.667,28.668-4.333,45.002
	c-9.001,16.333-40.002,13-51.002,7.667C281.635,276.409,278.969,236.741,278.969,236.741z M150.298,44.177
	c7.112-29.334,36.446-26.667,36.446-26.667c20,2.223,23.111,13.777,25.777,38.224c2.667,24.446,0,114.227,0,136.005
	c-37.335,8-64.891-7.111-64.891-7.111S143.186,73.512,150.298,44.177z M399.64,397.414c-15,24.334-30.001,24.334-33.668,24.334
	s-167.673,0-167.673,0s-25,3.333-44.668-24.334c-19.668-27.669-42.668-73.003-48.335-85.003c-5.667-12.001-6.667-36.002,0-58.669
	s21.001-49.002,40.001-45.335s34.001,9,64.002-1.333c16-6.667,38.001-7,38.001-7s15.667,2.333,15.334,27.334
	c-0.333,25-16.667,34.334-31.335,41.667c-14.667,7.334-46.668,12.668-56.668,12.668c-5,6-8.667,16.667-9,22
	c4.667-2.333,5.333-2.666,6.667-4.333c-2,3.666-11,13.334-13.334,17c7.667-5.666,23.667-15,26.668-15
	c3,0,46.001,5.667,88.002,50.335c1.667,9.667,2.667,31.668,2.667,31.668l4.001-58.002c0,0-22.335-15.001-28.335-18.667
	c5.667-0.667,24.667-3.334,32.001-18.001c6,5.667,13.667,12.001,26.335,12.001c12.667,0,16.667,0,16.667,0
	s29.667,3.666,29.667-48.002s0-152.672,0-152.672s-1.667-41.335,22.002-41.335c23.667,0,26.333,25.668,26.333,34.001
	s4.667,183.006,5.334,199.007S414.641,373.08,399.64,397.414z"/>
</svg>
